{"identifier":"ce:77378","triggers":[{"emitterTimestamp":"2019-10-18T09:18:01.715Z","identifier":"se:34000","analyserTimestampEnd":"2019-10-18T09:18:01.716Z","expiryTimestamp":"2019-10-18T09:18:02.216Z","combinerTimestamp":"2019-10-18T09:18:01.717Z","analyserTimestampStart":"2019-10-18T09:18:01.716Z","type":"type-2","value":8.805946870209025},{"emitterTimestamp":"2019-10-18T09:18:01.683Z","identifier":"se:34000","analyserTimestampEnd":"2019-10-18T09:18:01.685Z","expiryTimestamp":"2019-10-18T09:18:02.185Z","combinerTimestamp":"2019-10-18T09:18:01.685Z","analyserTimestampStart":"2019-10-18T09:18:01.685Z","type":"type-1","value":7.211537638593495},{"emitterTimestamp":"2019-10-18T09:18:01.697Z","identifier":"se:34000","analyserTimestampEnd":"2019-10-18T09:18:01.701Z","expiryTimestamp":"2019-10-18T09:18:02.201Z","combinerTimestamp":"2019-10-18T09:18:01.702Z","analyserTimestampStart":"2019-10-18T09:18:01.701Z","type":"type-3","value":8.794271005322038}],"fetchTimestamp":"2019-10-18T09:18:01.717Z","detectionTimestamp":"2019-10-18T09:18:01.717Z"}
{"identifier":"ce:77389","triggers":[{"emitterTimestamp":"2019-10-18T09:18:02.595Z","identifier":"se:45000","analyserTimestampEnd":"2019-10-18T09:18:02.597Z","expiryTimestamp":"2019-10-18T09:18:03.097Z","combinerTimestamp":"2019-10-18T09:18:02.598Z","analyserTimestampStart":"2019-10-18T09:18:02.597Z","type":"type-2","value":6.198914531577542},{"emitterTimestamp":"2019-10-18T09:18:02.562Z","identifier":"se:45000","analyserTimestampEnd":"2019-10-18T09:18:02.564Z","expiryTimestamp":"2019-10-18T09:18:03.064Z","combinerTimestamp":"2019-10-18T09:18:02.565Z","analyserTimestampStart":"2019-10-18T09:18:02.564Z","type":"type-1","value":7.822124104164276},{"emitterTimestamp":"2019-10-18T09:18:02.577Z","identifier":"se:45000","analyserTimestampEnd":"2019-10-18T09:18:02.581Z","expiryTimestamp":"2019-10-18T09:18:03.081Z","combinerTimestamp":"2019-10-18T09:18:02.582Z","analyserTimestampStart":"2019-10-18T09:18:02.581Z","type":"type-3","value":6.855334072441281}],"fetchTimestamp":"2019-10-18T09:18:02.598Z","detectionTimestamp":"2019-10-18T09:18:02.598Z"}
{"identifier":"ce:77368","triggers":[{"emitterTimestamp":"2019-10-18T09:18:00.915Z","identifier":"se:24000","analyserTimestampEnd":"2019-10-18T09:18:00.919Z","expiryTimestamp":"2019-10-18T09:18:01.419Z","combinerTimestamp":"2019-10-18T09:18:00.920Z","analyserTimestampStart":"2019-10-18T09:18:00.919Z","type":"type-2","value":7.005011345925633},{"emitterTimestamp":"2019-10-18T09:18:00.883Z","identifier":"se:24000","analyserTimestampEnd":"2019-10-18T09:18:00.888Z","expiryTimestamp":"2019-10-18T09:18:01.388Z","combinerTimestamp":"2019-10-18T09:18:00.889Z","analyserTimestampStart":"2019-10-18T09:18:00.888Z","type":"type-1","value":7.734297412888619},{"emitterTimestamp":"2019-10-18T09:18:00.897Z","identifier":"se:24000","analyserTimestampEnd":"2019-10-18T09:18:00.901Z","expiryTimestamp":"2019-10-18T09:18:01.401Z","combinerTimestamp":"2019-10-18T09:18:00.901Z","analyserTimestampStart":"2019-10-18T09:18:00.901Z","type":"type-3","value":9.167163436258702}],"fetchTimestamp":"2019-10-18T09:18:00.920Z","detectionTimestamp":"2019-10-18T09:18:00.920Z"}
{"identifier":"ce:77346","triggers":[{"emitterTimestamp":"2019-10-18T09:17:59.203Z","identifier":"se:2000","analyserTimestampEnd":"2019-10-18T09:17:59.206Z","expiryTimestamp":"2019-10-18T09:17:59.706Z","combinerTimestamp":"2019-10-18T09:17:59.207Z","analyserTimestampStart":"2019-10-18T09:17:59.206Z","type":"type-2","value":8.573607689434969},{"emitterTimestamp":"2019-10-18T09:17:59.234Z","identifier":"se:2000","analyserTimestampEnd":"2019-10-18T09:17:59.241Z","expiryTimestamp":"2019-10-18T09:17:59.740Z","combinerTimestamp":"2019-10-18T09:17:59.244Z","analyserTimestampStart":"2019-10-18T09:17:59.240Z","type":"type-1","value":6.622671469142386},{"emitterTimestamp":"2019-10-18T09:17:59.190Z","identifier":"se:2000","analyserTimestampEnd":"2019-10-18T09:17:59.193Z","expiryTimestamp":"2019-10-18T09:17:59.693Z","combinerTimestamp":"2019-10-18T09:17:59.194Z","analyserTimestampStart":"2019-10-18T09:17:59.193Z","type":"type-3","value":6.084478425674595}],"fetchTimestamp":"2019-10-18T09:17:59.244Z","detectionTimestamp":"2019-10-18T09:17:59.244Z"}
{"identifier":"ce:77376","triggers":[{"emitterTimestamp":"2019-10-18T09:18:01.555Z","identifier":"se:32000","analyserTimestampEnd":"2019-10-18T09:18:01.557Z","expiryTimestamp":"2019-10-18T09:18:02.057Z","combinerTimestamp":"2019-10-18T09:18:01.559Z","analyserTimestampStart":"2019-10-18T09:18:01.557Z","type":"type-2","value":6.2515192555828465},{"emitterTimestamp":"2019-10-18T09:18:01.522Z","identifier":"se:32000","analyserTimestampEnd":"2019-10-18T09:18:01.525Z","expiryTimestamp":"2019-10-18T09:18:02.025Z","combinerTimestamp":"2019-10-18T09:18:01.525Z","analyserTimestampStart":"2019-10-18T09:18:01.525Z","type":"type-1","value":5.283224658847072},{"emitterTimestamp":"2019-10-18T09:18:01.537Z","identifier":"se:32000","analyserTimestampEnd":"2019-10-18T09:18:01.541Z","expiryTimestamp":"2019-10-18T09:18:02.041Z","combinerTimestamp":"2019-10-18T09:18:01.541Z","analyserTimestampStart":"2019-10-18T09:18:01.541Z","type":"type-3","value":5.851492691837641}],"fetchTimestamp":"2019-10-18T09:18:01.559Z","detectionTimestamp":"2019-10-18T09:18:01.559Z"}
{"identifier":"ce:77352","triggers":[{"emitterTimestamp":"2019-10-18T09:17:59.635Z","identifier":"se:8000","analyserTimestampEnd":"2019-10-18T09:17:59.640Z","expiryTimestamp":"2019-10-18T09:18:00.140Z","combinerTimestamp":"2019-10-18T09:17:59.640Z","analyserTimestampStart":"2019-10-18T09:17:59.640Z","type":"type-2","value":7.32305290640465},{"emitterTimestamp":"2019-10-18T09:17:59.602Z","identifier":"se:8000","analyserTimestampEnd":"2019-10-18T09:17:59.609Z","expiryTimestamp":"2019-10-18T09:18:00.108Z","combinerTimestamp":"2019-10-18T09:17:59.610Z","analyserTimestampStart":"2019-10-18T09:17:59.608Z","type":"type-1","value":9.986207879642649},{"emitterTimestamp":"2019-10-18T09:17:59.617Z","identifier":"se:8000","analyserTimestampEnd":"2019-10-18T09:17:59.627Z","expiryTimestamp":"2019-10-18T09:18:00.127Z","combinerTimestamp":"2019-10-18T09:17:59.628Z","analyserTimestampStart":"2019-10-18T09:17:59.627Z","type":"type-3","value":9.439618116973914}],"fetchTimestamp":"2019-10-18T09:17:59.641Z","detectionTimestamp":"2019-10-18T09:17:59.641Z"}
{"identifier":"ce:77345","triggers":[{"emitterTimestamp":"2019-10-18T09:17:59.116Z","identifier":"se:1000","analyserTimestampEnd":"2019-10-18T09:17:59.124Z","expiryTimestamp":"2019-10-18T09:17:59.624Z","combinerTimestamp":"2019-10-18T09:17:59.124Z","analyserTimestampStart":"2019-10-18T09:17:59.124Z","type":"type-2","value":8.432086250329382},{"emitterTimestamp":"2019-10-18T09:17:59.119Z","identifier":"se:1000","analyserTimestampEnd":"2019-10-18T09:17:59.126Z","expiryTimestamp":"2019-10-18T09:17:59.626Z","combinerTimestamp":"2019-10-18T09:17:59.129Z","analyserTimestampStart":"2019-10-18T09:17:59.126Z","type":"type-1","value":8.715222634920025},{"emitterTimestamp":"2019-10-18T09:17:59.088Z","identifier":"se:1000","analyserTimestampEnd":"2019-10-18T09:17:59.092Z","expiryTimestamp":"2019-10-18T09:17:59.592Z","combinerTimestamp":"2019-10-18T09:17:59.092Z","analyserTimestampStart":"2019-10-18T09:17:59.092Z","type":"type-3","value":5.9787447482034874}],"fetchTimestamp":"2019-10-18T09:17:59.129Z","detectionTimestamp":"2019-10-18T09:17:59.129Z"}
{"identifier":"ce:77387","triggers":[{"emitterTimestamp":"2019-10-18T09:18:02.435Z","identifier":"se:43000","analyserTimestampEnd":"2019-10-18T09:18:02.437Z","expiryTimestamp":"2019-10-18T09:18:02.937Z","combinerTimestamp":"2019-10-18T09:18:02.437Z","analyserTimestampStart":"2019-10-18T09:18:02.437Z","type":"type-2","value":5.0277912785229635},{"emitterTimestamp":"2019-10-18T09:18:02.402Z","identifier":"se:43000","analyserTimestampEnd":"2019-10-18T09:18:02.408Z","expiryTimestamp":"2019-10-18T09:18:02.908Z","combinerTimestamp":"2019-10-18T09:18:02.408Z","analyserTimestampStart":"2019-10-18T09:18:02.408Z","type":"type-1","value":9.396513629098896},{"emitterTimestamp":"2019-10-18T09:18:02.417Z","identifier":"se:43000","analyserTimestampEnd":"2019-10-18T09:18:02.419Z","expiryTimestamp":"2019-10-18T09:18:02.919Z","combinerTimestamp":"2019-10-18T09:18:02.420Z","analyserTimestampStart":"2019-10-18T09:18:02.419Z","type":"type-3","value":8.926441808405398}],"fetchTimestamp":"2019-10-18T09:18:02.437Z","detectionTimestamp":"2019-10-18T09:18:02.437Z"}
{"identifier":"ce:77375","triggers":[{"emitterTimestamp":"2019-10-18T09:18:01.475Z","identifier":"se:31000","analyserTimestampEnd":"2019-10-18T09:18:01.480Z","expiryTimestamp":"2019-10-18T09:18:01.980Z","combinerTimestamp":"2019-10-18T09:18:01.480Z","analyserTimestampStart":"2019-10-18T09:18:01.480Z","type":"type-2","value":7.970023656976039},{"emitterTimestamp":"2019-10-18T09:18:01.442Z","identifier":"se:31000","analyserTimestampEnd":"2019-10-18T09:18:01.446Z","expiryTimestamp":"2019-10-18T09:18:01.946Z","combinerTimestamp":"2019-10-18T09:18:01.447Z","analyserTimestampStart":"2019-10-18T09:18:01.446Z","type":"type-1","value":5.474914574085939},{"emitterTimestamp":"2019-10-18T09:18:01.457Z","identifier":"se:31000","analyserTimestampEnd":"2019-10-18T09:18:01.459Z","expiryTimestamp":"2019-10-18T09:18:01.959Z","combinerTimestamp":"2019-10-18T09:18:01.459Z","analyserTimestampStart":"2019-10-18T09:18:01.459Z","type":"type-3","value":8.765512705018415}],"fetchTimestamp":"2019-10-18T09:18:01.481Z","detectionTimestamp":"2019-10-18T09:18:01.481Z"}
{"identifier":"ce:77372","triggers":[{"emitterTimestamp":"2019-10-18T09:18:01.235Z","identifier":"se:28000","analyserTimestampEnd":"2019-10-18T09:18:01.242Z","expiryTimestamp":"2019-10-18T09:18:01.742Z","combinerTimestamp":"2019-10-18T09:18:01.243Z","analyserTimestampStart":"2019-10-18T09:18:01.242Z","type":"type-2","value":5.45002576997032},{"emitterTimestamp":"2019-10-18T09:18:01.202Z","identifier":"se:28000","analyserTimestampEnd":"2019-10-18T09:18:01.226Z","expiryTimestamp":"2019-10-18T09:18:01.726Z","combinerTimestamp":"2019-10-18T09:18:01.228Z","analyserTimestampStart":"2019-10-18T09:18:01.226Z","type":"type-1","value":9.789262673012624},{"emitterTimestamp":"2019-10-18T09:18:01.220Z","identifier":"se:28000","analyserTimestampEnd":"2019-10-18T09:18:01.231Z","expiryTimestamp":"2019-10-18T09:18:01.731Z","combinerTimestamp":"2019-10-18T09:18:01.232Z","analyserTimestampStart":"2019-10-18T09:18:01.231Z","type":"type-3","value":7.94971169046546}],"fetchTimestamp":"2019-10-18T09:18:01.243Z","detectionTimestamp":"2019-10-18T09:18:01.243Z"}
{"identifier":"ce:77349","triggers":[{"emitterTimestamp":"2019-10-18T09:17:59.395Z","identifier":"se:5000","analyserTimestampEnd":"2019-10-18T09:17:59.399Z","expiryTimestamp":"2019-10-18T09:17:59.899Z","combinerTimestamp":"2019-10-18T09:17:59.399Z","analyserTimestampStart":"2019-10-18T09:17:59.399Z","type":"type-2","value":6.921492330381204},{"emitterTimestamp":"2019-10-18T09:17:59.362Z","identifier":"se:5000","analyserTimestampEnd":"2019-10-18T09:17:59.366Z","expiryTimestamp":"2019-10-18T09:17:59.866Z","combinerTimestamp":"2019-10-18T09:17:59.367Z","analyserTimestampStart":"2019-10-18T09:17:59.366Z","type":"type-1","value":5.279484332891453},{"emitterTimestamp":"2019-10-18T09:17:59.377Z","identifier":"se:5000","analyserTimestampEnd":"2019-10-18T09:17:59.382Z","expiryTimestamp":"2019-10-18T09:17:59.882Z","combinerTimestamp":"2019-10-18T09:17:59.382Z","analyserTimestampStart":"2019-10-18T09:17:59.382Z","type":"type-3","value":5.201302790710599}],"fetchTimestamp":"2019-10-18T09:17:59.399Z","detectionTimestamp":"2019-10-18T09:17:59.399Z"}
{"identifier":"ce:77355","triggers":[{"emitterTimestamp":"2019-10-18T09:17:59.878Z","identifier":"se:11000","analyserTimestampEnd":"2019-10-18T09:17:59.884Z","expiryTimestamp":"2019-10-18T09:18:00.384Z","combinerTimestamp":"2019-10-18T09:17:59.885Z","analyserTimestampStart":"2019-10-18T09:17:59.884Z","type":"type-2","value":8.489774962189655},{"emitterTimestamp":"2019-10-18T09:17:59.843Z","identifier":"se:11000","analyserTimestampEnd":"2019-10-18T09:17:59.846Z","expiryTimestamp":"2019-10-18T09:18:00.346Z","combinerTimestamp":"2019-10-18T09:17:59.846Z","analyserTimestampStart":"2019-10-18T09:17:59.846Z","type":"type-1","value":9.727859563406502},{"emitterTimestamp":"2019-10-18T09:17:59.858Z","identifier":"se:11000","analyserTimestampEnd":"2019-10-18T09:17:59.864Z","expiryTimestamp":"2019-10-18T09:18:00.364Z","combinerTimestamp":"2019-10-18T09:17:59.864Z","analyserTimestampStart":"2019-10-18T09:17:59.864Z","type":"type-3","value":6.72780036193355}],"fetchTimestamp":"2019-10-18T09:17:59.886Z","detectionTimestamp":"2019-10-18T09:17:59.886Z"}
{"identifier":"ce:77370","triggers":[{"emitterTimestamp":"2019-10-18T09:18:01.075Z","identifier":"se:26000","analyserTimestampEnd":"2019-10-18T09:18:01.079Z","expiryTimestamp":"2019-10-18T09:18:01.579Z","combinerTimestamp":"2019-10-18T09:18:01.080Z","analyserTimestampStart":"2019-10-18T09:18:01.079Z","type":"type-2","value":9.283248194835824},{"emitterTimestamp":"2019-10-18T09:18:01.042Z","identifier":"se:26000","analyserTimestampEnd":"2019-10-18T09:18:01.045Z","expiryTimestamp":"2019-10-18T09:18:01.545Z","combinerTimestamp":"2019-10-18T09:18:01.046Z","analyserTimestampStart":"2019-10-18T09:18:01.045Z","type":"type-1","value":6.461170826486223},{"emitterTimestamp":"2019-10-18T09:18:01.057Z","identifier":"se:26000","analyserTimestampEnd":"2019-10-18T09:18:01.064Z","expiryTimestamp":"2019-10-18T09:18:01.564Z","combinerTimestamp":"2019-10-18T09:18:01.064Z","analyserTimestampStart":"2019-10-18T09:18:01.064Z","type":"type-3","value":5.130197820335739}],"fetchTimestamp":"2019-10-18T09:18:01.080Z","detectionTimestamp":"2019-10-18T09:18:01.080Z"}
{"identifier":"ce:77348","triggers":[{"emitterTimestamp":"2019-10-18T09:17:59.315Z","identifier":"se:4000","analyserTimestampEnd":"2019-10-18T09:17:59.320Z","expiryTimestamp":"2019-10-18T09:17:59.820Z","combinerTimestamp":"2019-10-18T09:17:59.321Z","analyserTimestampStart":"2019-10-18T09:17:59.320Z","type":"type-2","value":9.398337186136104},{"emitterTimestamp":"2019-10-18T09:17:59.300Z","identifier":"se:4000","analyserTimestampEnd":"2019-10-18T09:17:59.304Z","expiryTimestamp":"2019-10-18T09:17:59.804Z","combinerTimestamp":"2019-10-18T09:17:59.306Z","analyserTimestampStart":"2019-10-18T09:17:59.304Z","type":"type-1","value":8.980148129908578},{"emitterTimestamp":"2019-10-18T09:17:59.302Z","identifier":"se:4000","analyserTimestampEnd":"2019-10-18T09:17:59.305Z","expiryTimestamp":"2019-10-18T09:17:59.805Z","combinerTimestamp":"2019-10-18T09:17:59.306Z","analyserTimestampStart":"2019-10-18T09:17:59.305Z","type":"type-3","value":9.776682903746384}],"fetchTimestamp":"2019-10-18T09:17:59.321Z","detectionTimestamp":"2019-10-18T09:17:59.321Z"}
{"identifier":"ce:77382","triggers":[{"emitterTimestamp":"2019-10-18T09:18:02.035Z","identifier":"se:38000","analyserTimestampEnd":"2019-10-18T09:18:02.051Z","expiryTimestamp":"2019-10-18T09:18:02.550Z","combinerTimestamp":"2019-10-18T09:18:02.052Z","analyserTimestampStart":"2019-10-18T09:18:02.050Z","type":"type-2","value":9.950123059071904},{"emitterTimestamp":"2019-10-18T09:18:02.003Z","identifier":"se:38000","analyserTimestampEnd":"2019-10-18T09:18:02.007Z","expiryTimestamp":"2019-10-18T09:18:02.507Z","combinerTimestamp":"2019-10-18T09:18:02.008Z","analyserTimestampStart":"2019-10-18T09:18:02.007Z","type":"type-1","value":5.800270419182904},{"emitterTimestamp":"2019-10-18T09:18:02.017Z","identifier":"se:38000","analyserTimestampEnd":"2019-10-18T09:18:02.023Z","expiryTimestamp":"2019-10-18T09:18:02.523Z","combinerTimestamp":"2019-10-18T09:18:02.024Z","analyserTimestampStart":"2019-10-18T09:18:02.023Z","type":"type-3","value":8.648744797033157}],"fetchTimestamp":"2019-10-18T09:18:02.053Z","detectionTimestamp":"2019-10-18T09:18:02.053Z"}
{"identifier":"ce:77354","triggers":[{"emitterTimestamp":"2019-10-18T09:17:59.795Z","identifier":"se:10000","analyserTimestampEnd":"2019-10-18T09:17:59.798Z","expiryTimestamp":"2019-10-18T09:18:00.298Z","combinerTimestamp":"2019-10-18T09:17:59.799Z","analyserTimestampStart":"2019-10-18T09:17:59.798Z","type":"type-2","value":6.678848766763906},{"emitterTimestamp":"2019-10-18T09:17:59.768Z","identifier":"se:10000","analyserTimestampEnd":"2019-10-18T09:17:59.771Z","expiryTimestamp":"2019-10-18T09:18:00.271Z","combinerTimestamp":"2019-10-18T09:17:59.772Z","analyserTimestampStart":"2019-10-18T09:17:59.771Z","type":"type-1","value":8.692586004177809},{"emitterTimestamp":"2019-10-18T09:17:59.783Z","identifier":"se:10000","analyserTimestampEnd":"2019-10-18T09:17:59.790Z","expiryTimestamp":"2019-10-18T09:18:00.290Z","combinerTimestamp":"2019-10-18T09:17:59.791Z","analyserTimestampStart":"2019-10-18T09:17:59.790Z","type":"type-3","value":6.469816634269984}],"fetchTimestamp":"2019-10-18T09:17:59.799Z","detectionTimestamp":"2019-10-18T09:17:59.799Z"}
{"identifier":"ce:77367","triggers":[{"emitterTimestamp":"2019-10-18T09:18:00.835Z","identifier":"se:23000","analyserTimestampEnd":"2019-10-18T09:18:00.837Z","expiryTimestamp":"2019-10-18T09:18:01.337Z","combinerTimestamp":"2019-10-18T09:18:00.838Z","analyserTimestampStart":"2019-10-18T09:18:00.837Z","type":"type-2","value":8.292924991019067},{"emitterTimestamp":"2019-10-18T09:18:00.802Z","identifier":"se:23000","analyserTimestampEnd":"2019-10-18T09:18:00.806Z","expiryTimestamp":"2019-10-18T09:18:01.306Z","combinerTimestamp":"2019-10-18T09:18:00.807Z","analyserTimestampStart":"2019-10-18T09:18:00.806Z","type":"type-1","value":9.768761453818804},{"emitterTimestamp":"2019-10-18T09:18:00.817Z","identifier":"se:23000","analyserTimestampEnd":"2019-10-18T09:18:00.821Z","expiryTimestamp":"2019-10-18T09:18:01.321Z","combinerTimestamp":"2019-10-18T09:18:00.822Z","analyserTimestampStart":"2019-10-18T09:18:00.821Z","type":"type-3","value":6.201953191107609}],"fetchTimestamp":"2019-10-18T09:18:00.838Z","detectionTimestamp":"2019-10-18T09:18:00.838Z"}
{"identifier":"ce:77358","triggers":[{"emitterTimestamp":"2019-10-18T09:18:00.114Z","identifier":"se:14000","analyserTimestampEnd":"2019-10-18T09:18:00.119Z","expiryTimestamp":"2019-10-18T09:18:00.619Z","combinerTimestamp":"2019-10-18T09:18:00.120Z","analyserTimestampStart":"2019-10-18T09:18:00.119Z","type":"type-2","value":7.466677862317269},{"emitterTimestamp":"2019-10-18T09:18:00.082Z","identifier":"se:14000","analyserTimestampEnd":"2019-10-18T09:18:00.086Z","expiryTimestamp":"2019-10-18T09:18:00.586Z","combinerTimestamp":"2019-10-18T09:18:00.087Z","analyserTimestampStart":"2019-10-18T09:18:00.086Z","type":"type-1","value":5.509148202594351},{"emitterTimestamp":"2019-10-18T09:18:00.097Z","identifier":"se:14000","analyserTimestampEnd":"2019-10-18T09:18:00.103Z","expiryTimestamp":"2019-10-18T09:18:00.603Z","combinerTimestamp":"2019-10-18T09:18:00.104Z","analyserTimestampStart":"2019-10-18T09:18:00.103Z","type":"type-3","value":9.304106337455732}],"fetchTimestamp":"2019-10-18T09:18:00.120Z","detectionTimestamp":"2019-10-18T09:18:00.120Z"}
{"identifier":"ce:77359","triggers":[{"emitterTimestamp":"2019-10-18T09:18:00.195Z","identifier":"se:15000","analyserTimestampEnd":"2019-10-18T09:18:00.201Z","expiryTimestamp":"2019-10-18T09:18:00.701Z","combinerTimestamp":"2019-10-18T09:18:00.202Z","analyserTimestampStart":"2019-10-18T09:18:00.201Z","type":"type-2","value":8.84637892858049},{"emitterTimestamp":"2019-10-18T09:18:00.162Z","identifier":"se:15000","analyserTimestampEnd":"2019-10-18T09:18:00.169Z","expiryTimestamp":"2019-10-18T09:18:00.669Z","combinerTimestamp":"2019-10-18T09:18:00.170Z","analyserTimestampStart":"2019-10-18T09:18:00.169Z","type":"type-1","value":9.899978863229567},{"emitterTimestamp":"2019-10-18T09:18:00.177Z","identifier":"se:15000","analyserTimestampEnd":"2019-10-18T09:18:00.179Z","expiryTimestamp":"2019-10-18T09:18:00.679Z","combinerTimestamp":"2019-10-18T09:18:00.180Z","analyserTimestampStart":"2019-10-18T09:18:00.179Z","type":"type-3","value":6.8839527734158885}],"fetchTimestamp":"2019-10-18T09:18:00.202Z","detectionTimestamp":"2019-10-18T09:18:00.202Z"}
{"identifier":"ce:77344","triggers":[{"emitterTimestamp":"2019-10-18T09:17:58.996Z","identifier":"se:0","analyserTimestampEnd":"2019-10-18T09:17:59.033Z","expiryTimestamp":"2019-10-18T09:17:59.533Z","combinerTimestamp":"2019-10-18T09:17:59.033Z","analyserTimestampStart":"2019-10-18T09:17:59.033Z","type":"type-2","value":6.188541888038068},{"emitterTimestamp":"2019-10-18T09:17:58.981Z","identifier":"se:0","analyserTimestampEnd":"2019-10-18T09:17:59.028Z","expiryTimestamp":"2019-10-18T09:17:59.528Z","combinerTimestamp":"2019-10-18T09:17:59.028Z","analyserTimestampStart":"2019-10-18T09:17:59.027Z","type":"type-1","value":6.65212391780671},{"emitterTimestamp":"2019-10-18T09:17:58.983Z","identifier":"se:0","analyserTimestampEnd":"2019-10-18T09:17:59.012Z","expiryTimestamp":"2019-10-18T09:17:59.512Z","combinerTimestamp":"2019-10-18T09:17:59.013Z","analyserTimestampStart":"2019-10-18T09:17:59.012Z","type":"type-3","value":5.716663164298338}],"fetchTimestamp":"2019-10-18T09:17:59.034Z","detectionTimestamp":"2019-10-18T09:17:59.034Z"}
{"identifier":"ce:77347","triggers":[{"emitterTimestamp":"2019-10-18T09:17:59.256Z","identifier":"se:3000","analyserTimestampEnd":"2019-10-18T09:17:59.259Z","expiryTimestamp":"2019-10-18T09:17:59.759Z","combinerTimestamp":"2019-10-18T09:17:59.261Z","analyserTimestampStart":"2019-10-18T09:17:59.259Z","type":"type-2","value":5.011246253176422},{"emitterTimestamp":"2019-10-18T09:17:59.284Z","identifier":"se:3000","analyserTimestampEnd":"2019-10-18T09:17:59.292Z","expiryTimestamp":"2019-10-18T09:17:59.792Z","combinerTimestamp":"2019-10-18T09:17:59.293Z","analyserTimestampStart":"2019-10-18T09:17:59.292Z","type":"type-1","value":8.885716551118549},{"emitterTimestamp":"2019-10-18T09:17:59.240Z","identifier":"se:3000","analyserTimestampEnd":"2019-10-18T09:17:59.246Z","expiryTimestamp":"2019-10-18T09:17:59.746Z","combinerTimestamp":"2019-10-18T09:17:59.247Z","analyserTimestampStart":"2019-10-18T09:17:59.246Z","type":"type-3","value":8.467057331075317}],"fetchTimestamp":"2019-10-18T09:17:59.293Z","detectionTimestamp":"2019-10-18T09:17:59.293Z"}
{"identifier":"ce:77379","triggers":[{"emitterTimestamp":"2019-10-18T09:18:01.795Z","identifier":"se:35000","analyserTimestampEnd":"2019-10-18T09:18:01.796Z","expiryTimestamp":"2019-10-18T09:18:02.296Z","combinerTimestamp":"2019-10-18T09:18:01.796Z","analyserTimestampStart":"2019-10-18T09:18:01.796Z","type":"type-2","value":5.41089247830395},{"emitterTimestamp":"2019-10-18T09:18:01.762Z","identifier":"se:35000","analyserTimestampEnd":"2019-10-18T09:18:01.765Z","expiryTimestamp":"2019-10-18T09:18:02.265Z","combinerTimestamp":"2019-10-18T09:18:01.765Z","analyserTimestampStart":"2019-10-18T09:18:01.765Z","type":"type-1","value":7.983254281188579},{"emitterTimestamp":"2019-10-18T09:18:01.777Z","identifier":"se:35000","analyserTimestampEnd":"2019-10-18T09:18:01.780Z","expiryTimestamp":"2019-10-18T09:18:02.280Z","combinerTimestamp":"2019-10-18T09:18:01.781Z","analyserTimestampStart":"2019-10-18T09:18:01.780Z","type":"type-3","value":7.61957381519902}],"fetchTimestamp":"2019-10-18T09:18:01.796Z","detectionTimestamp":"2019-10-18T09:18:01.796Z"}
{"identifier":"ce:77369","triggers":[{"emitterTimestamp":"2019-10-18T09:18:00.995Z","identifier":"se:25000","analyserTimestampEnd":"2019-10-18T09:18:00.999Z","expiryTimestamp":"2019-10-18T09:18:01.499Z","combinerTimestamp":"2019-10-18T09:18:01Z","analyserTimestampStart":"2019-10-18T09:18:00.999Z","type":"type-2","value":9.800072082100531},{"emitterTimestamp":"2019-10-18T09:18:00.962Z","identifier":"se:25000","analyserTimestampEnd":"2019-10-18T09:18:00.965Z","expiryTimestamp":"2019-10-18T09:18:01.465Z","combinerTimestamp":"2019-10-18T09:18:00.966Z","analyserTimestampStart":"2019-10-18T09:18:00.965Z","type":"type-1","value":7.575608500573887},{"emitterTimestamp":"2019-10-18T09:18:00.980Z","identifier":"se:25000","analyserTimestampEnd":"2019-10-18T09:18:00.985Z","expiryTimestamp":"2019-10-18T09:18:01.485Z","combinerTimestamp":"2019-10-18T09:18:00.986Z","analyserTimestampStart":"2019-10-18T09:18:00.985Z","type":"type-3","value":7.661798501652451}],"fetchTimestamp":"2019-10-18T09:18:01Z","detectionTimestamp":"2019-10-18T09:18:01Z"}
{"identifier":"ce:77388","triggers":[{"emitterTimestamp":"2019-10-18T09:18:02.515Z","identifier":"se:44000","analyserTimestampEnd":"2019-10-18T09:18:02.519Z","expiryTimestamp":"2019-10-18T09:18:03.019Z","combinerTimestamp":"2019-10-18T09:18:02.520Z","analyserTimestampStart":"2019-10-18T09:18:02.519Z","type":"type-2","value":7.575087389345332},{"emitterTimestamp":"2019-10-18T09:18:02.482Z","identifier":"se:44000","analyserTimestampEnd":"2019-10-18T09:18:02.487Z","expiryTimestamp":"2019-10-18T09:18:02.987Z","combinerTimestamp":"2019-10-18T09:18:02.488Z","analyserTimestampStart":"2019-10-18T09:18:02.487Z","type":"type-1","value":6.056129872883651},{"emitterTimestamp":"2019-10-18T09:18:02.497Z","identifier":"se:44000","analyserTimestampEnd":"2019-10-18T09:18:02.500Z","expiryTimestamp":"2019-10-18T09:18:03Z","combinerTimestamp":"2019-10-18T09:18:02.500Z","analyserTimestampStart":"2019-10-18T09:18:02.500Z","type":"type-3","value":5.245654779040338}],"fetchTimestamp":"2019-10-18T09:18:02.520Z","detectionTimestamp":"2019-10-18T09:18:02.520Z"}
{"identifier":"ce:77377","triggers":[{"emitterTimestamp":"2019-10-18T09:18:01.635Z","identifier":"se:33000","analyserTimestampEnd":"2019-10-18T09:18:01.640Z","expiryTimestamp":"2019-10-18T09:18:02.140Z","combinerTimestamp":"2019-10-18T09:18:01.642Z","analyserTimestampStart":"2019-10-18T09:18:01.640Z","type":"type-2","value":8.23478773753376},{"emitterTimestamp":"2019-10-18T09:18:01.603Z","identifier":"se:33000","analyserTimestampEnd":"2019-10-18T09:18:01.608Z","expiryTimestamp":"2019-10-18T09:18:02.108Z","combinerTimestamp":"2019-10-18T09:18:01.608Z","analyserTimestampStart":"2019-10-18T09:18:01.608Z","type":"type-1","value":7.765345177799436},{"emitterTimestamp":"2019-10-18T09:18:01.617Z","identifier":"se:33000","analyserTimestampEnd":"2019-10-18T09:18:01.621Z","expiryTimestamp":"2019-10-18T09:18:02.121Z","combinerTimestamp":"2019-10-18T09:18:01.621Z","analyserTimestampStart":"2019-10-18T09:18:01.621Z","type":"type-3","value":9.355320201233399}],"fetchTimestamp":"2019-10-18T09:18:01.642Z","detectionTimestamp":"2019-10-18T09:18:01.642Z"}
{"identifier":"ce:77371","triggers":[{"emitterTimestamp":"2019-10-18T09:18:01.155Z","identifier":"se:27000","analyserTimestampEnd":"2019-10-18T09:18:01.159Z","expiryTimestamp":"2019-10-18T09:18:01.659Z","combinerTimestamp":"2019-10-18T09:18:01.159Z","analyserTimestampStart":"2019-10-18T09:18:01.159Z","type":"type-2","value":5.495020435411417},{"emitterTimestamp":"2019-10-18T09:18:01.122Z","identifier":"se:27000","analyserTimestampEnd":"2019-10-18T09:18:01.126Z","expiryTimestamp":"2019-10-18T09:18:01.626Z","combinerTimestamp":"2019-10-18T09:18:01.128Z","analyserTimestampStart":"2019-10-18T09:18:01.126Z","type":"type-1","value":5.702395265904444},{"emitterTimestamp":"2019-10-18T09:18:01.137Z","identifier":"se:27000","analyserTimestampEnd":"2019-10-18T09:18:01.140Z","expiryTimestamp":"2019-10-18T09:18:01.640Z","combinerTimestamp":"2019-10-18T09:18:01.140Z","analyserTimestampStart":"2019-10-18T09:18:01.140Z","type":"type-3","value":8.706149500969431}],"fetchTimestamp":"2019-10-18T09:18:01.159Z","detectionTimestamp":"2019-10-18T09:18:01.159Z"}
{"identifier":"ce:77364","triggers":[{"emitterTimestamp":"2019-10-18T09:18:00.595Z","identifier":"se:20000","analyserTimestampEnd":"2019-10-18T09:18:00.596Z","expiryTimestamp":"2019-10-18T09:18:01.096Z","combinerTimestamp":"2019-10-18T09:18:00.597Z","analyserTimestampStart":"2019-10-18T09:18:00.596Z","type":"type-2","value":7.621943114242869},{"emitterTimestamp":"2019-10-18T09:18:00.562Z","identifier":"se:20000","analyserTimestampEnd":"2019-10-18T09:18:00.565Z","expiryTimestamp":"2019-10-18T09:18:01.065Z","combinerTimestamp":"2019-10-18T09:18:00.565Z","analyserTimestampStart":"2019-10-18T09:18:00.565Z","type":"type-1","value":9.8179221141054},{"emitterTimestamp":"2019-10-18T09:18:00.577Z","identifier":"se:20000","analyserTimestampEnd":"2019-10-18T09:18:00.578Z","expiryTimestamp":"2019-10-18T09:18:01.078Z","combinerTimestamp":"2019-10-18T09:18:00.578Z","analyserTimestampStart":"2019-10-18T09:18:00.578Z","type":"type-3","value":6.956250028213345}],"fetchTimestamp":"2019-10-18T09:18:00.597Z","detectionTimestamp":"2019-10-18T09:18:00.597Z"}
{"identifier":"ce:77357","triggers":[{"emitterTimestamp":"2019-10-18T09:18:00.034Z","identifier":"se:13000","analyserTimestampEnd":"2019-10-18T09:18:00.040Z","expiryTimestamp":"2019-10-18T09:18:00.540Z","combinerTimestamp":"2019-10-18T09:18:00.040Z","analyserTimestampStart":"2019-10-18T09:18:00.040Z","type":"type-2","value":5.040523030100029},{"emitterTimestamp":"2019-10-18T09:18:00.008Z","identifier":"se:13000","analyserTimestampEnd":"2019-10-18T09:18:00.015Z","expiryTimestamp":"2019-10-18T09:18:00.515Z","combinerTimestamp":"2019-10-18T09:18:00.015Z","analyserTimestampStart":"2019-10-18T09:18:00.015Z","type":"type-1","value":5.702993356099954},{"emitterTimestamp":"2019-10-18T09:18:00.017Z","identifier":"se:13000","analyserTimestampEnd":"2019-10-18T09:18:00.021Z","expiryTimestamp":"2019-10-18T09:18:00.521Z","combinerTimestamp":"2019-10-18T09:18:00.021Z","analyserTimestampStart":"2019-10-18T09:18:00.021Z","type":"type-3","value":7.891529274640856}],"fetchTimestamp":"2019-10-18T09:18:00.040Z","detectionTimestamp":"2019-10-18T09:18:00.040Z"}
{"identifier":"ce:77383","triggers":[{"emitterTimestamp":"2019-10-18T09:18:02.115Z","identifier":"se:39000","analyserTimestampEnd":"2019-10-18T09:18:02.120Z","expiryTimestamp":"2019-10-18T09:18:02.620Z","combinerTimestamp":"2019-10-18T09:18:02.120Z","analyserTimestampStart":"2019-10-18T09:18:02.120Z","type":"type-2","value":5.564299061288074},{"emitterTimestamp":"2019-10-18T09:18:02.082Z","identifier":"se:39000","analyserTimestampEnd":"2019-10-18T09:18:02.085Z","expiryTimestamp":"2019-10-18T09:18:02.585Z","combinerTimestamp":"2019-10-18T09:18:02.085Z","analyserTimestampStart":"2019-10-18T09:18:02.085Z","type":"type-1","value":8.94256172896953},{"emitterTimestamp":"2019-10-18T09:18:02.097Z","identifier":"se:39000","analyserTimestampEnd":"2019-10-18T09:18:02.103Z","expiryTimestamp":"2019-10-18T09:18:02.603Z","combinerTimestamp":"2019-10-18T09:18:02.104Z","analyserTimestampStart":"2019-10-18T09:18:02.103Z","type":"type-3","value":8.470941248274716}],"fetchTimestamp":"2019-10-18T09:18:02.121Z","detectionTimestamp":"2019-10-18T09:18:02.121Z"}
{"identifier":"ce:77356","triggers":[{"emitterTimestamp":"2019-10-18T09:17:59.955Z","identifier":"se:12000","analyserTimestampEnd":"2019-10-18T09:17:59.960Z","expiryTimestamp":"2019-10-18T09:18:00.460Z","combinerTimestamp":"2019-10-18T09:17:59.961Z","analyserTimestampStart":"2019-10-18T09:17:59.960Z","type":"type-2","value":8.239143671674844},{"emitterTimestamp":"2019-10-18T09:17:59.922Z","identifier":"se:12000","analyserTimestampEnd":"2019-10-18T09:17:59.925Z","expiryTimestamp":"2019-10-18T09:18:00.425Z","combinerTimestamp":"2019-10-18T09:17:59.926Z","analyserTimestampStart":"2019-10-18T09:17:59.925Z","type":"type-1","value":8.202114143142001},{"emitterTimestamp":"2019-10-18T09:17:59.937Z","identifier":"se:12000","analyserTimestampEnd":"2019-10-18T09:17:59.939Z","expiryTimestamp":"2019-10-18T09:18:00.439Z","combinerTimestamp":"2019-10-18T09:17:59.940Z","analyserTimestampStart":"2019-10-18T09:17:59.939Z","type":"type-3","value":7.378707499636583}],"fetchTimestamp":"2019-10-18T09:17:59.961Z","detectionTimestamp":"2019-10-18T09:17:59.961Z"}
{"identifier":"ce:77350","triggers":[{"emitterTimestamp":"2019-10-18T09:17:59.475Z","identifier":"se:6000","analyserTimestampEnd":"2019-10-18T09:17:59.478Z","expiryTimestamp":"2019-10-18T09:17:59.978Z","combinerTimestamp":"2019-10-18T09:17:59.478Z","analyserTimestampStart":"2019-10-18T09:17:59.478Z","type":"type-2","value":6.389032808013614},{"emitterTimestamp":"2019-10-18T09:17:59.445Z","identifier":"se:6000","analyserTimestampEnd":"2019-10-18T09:17:59.446Z","expiryTimestamp":"2019-10-18T09:17:59.946Z","combinerTimestamp":"2019-10-18T09:17:59.447Z","analyserTimestampStart":"2019-10-18T09:17:59.446Z","type":"type-1","value":9.380513954942746},{"emitterTimestamp":"2019-10-18T09:17:59.457Z","identifier":"se:6000","analyserTimestampEnd":"2019-10-18T09:17:59.459Z","expiryTimestamp":"2019-10-18T09:17:59.959Z","combinerTimestamp":"2019-10-18T09:17:59.459Z","analyserTimestampStart":"2019-10-18T09:17:59.459Z","type":"type-3","value":8.276928007597922}],"fetchTimestamp":"2019-10-18T09:17:59.478Z","detectionTimestamp":"2019-10-18T09:17:59.479Z"}
{"identifier":"ce:77353","triggers":[{"emitterTimestamp":"2019-10-18T09:17:59.715Z","identifier":"se:9000","analyserTimestampEnd":"2019-10-18T09:17:59.719Z","expiryTimestamp":"2019-10-18T09:18:00.219Z","combinerTimestamp":"2019-10-18T09:17:59.719Z","analyserTimestampStart":"2019-10-18T09:17:59.719Z","type":"type-2","value":6.260781457208413},{"emitterTimestamp":"2019-10-18T09:17:59.682Z","identifier":"se:9000","analyserTimestampEnd":"2019-10-18T09:17:59.688Z","expiryTimestamp":"2019-10-18T09:18:00.188Z","combinerTimestamp":"2019-10-18T09:17:59.689Z","analyserTimestampStart":"2019-10-18T09:17:59.688Z","type":"type-1","value":7.9999039595267405},{"emitterTimestamp":"2019-10-18T09:17:59.698Z","identifier":"se:9000","analyserTimestampEnd":"2019-10-18T09:17:59.704Z","expiryTimestamp":"2019-10-18T09:18:00.204Z","combinerTimestamp":"2019-10-18T09:17:59.705Z","analyserTimestampStart":"2019-10-18T09:17:59.704Z","type":"type-3","value":9.28111927539216}],"fetchTimestamp":"2019-10-18T09:17:59.719Z","detectionTimestamp":"2019-10-18T09:17:59.719Z"}
{"identifier":"ce:77393","triggers":[{"emitterTimestamp":"2019-10-18T09:18:02.915Z","identifier":"se:49000","analyserTimestampEnd":"2019-10-18T09:18:02.918Z","expiryTimestamp":"2019-10-18T09:18:03.418Z","combinerTimestamp":"2019-10-18T09:18:02.918Z","analyserTimestampStart":"2019-10-18T09:18:02.918Z","type":"type-2","value":9.473362401100113},{"emitterTimestamp":"2019-10-18T09:18:02.882Z","identifier":"se:49000","analyserTimestampEnd":"2019-10-18T09:18:02.888Z","expiryTimestamp":"2019-10-18T09:18:03.388Z","combinerTimestamp":"2019-10-18T09:18:02.888Z","analyserTimestampStart":"2019-10-18T09:18:02.888Z","type":"type-1","value":5.932077544034995},{"emitterTimestamp":"2019-10-18T09:18:02.897Z","identifier":"se:49000","analyserTimestampEnd":"2019-10-18T09:18:02.900Z","expiryTimestamp":"2019-10-18T09:18:03.400Z","combinerTimestamp":"2019-10-18T09:18:02.900Z","analyserTimestampStart":"2019-10-18T09:18:02.900Z","type":"type-3","value":5.366997306362401}],"fetchTimestamp":"2019-10-18T09:18:02.918Z","detectionTimestamp":"2019-10-18T09:18:02.918Z"}
{"identifier":"ce:77385","triggers":[{"emitterTimestamp":"2019-10-18T09:18:02.275Z","identifier":"se:41000","analyserTimestampEnd":"2019-10-18T09:18:02.278Z","expiryTimestamp":"2019-10-18T09:18:02.778Z","combinerTimestamp":"2019-10-18T09:18:02.279Z","analyserTimestampStart":"2019-10-18T09:18:02.278Z","type":"type-2","value":8.584693248495118},{"emitterTimestamp":"2019-10-18T09:18:02.242Z","identifier":"se:41000","analyserTimestampEnd":"2019-10-18T09:18:02.248Z","expiryTimestamp":"2019-10-18T09:18:02.748Z","combinerTimestamp":"2019-10-18T09:18:02.248Z","analyserTimestampStart":"2019-10-18T09:18:02.248Z","type":"type-1","value":9.759935093543964},{"emitterTimestamp":"2019-10-18T09:18:02.257Z","identifier":"se:41000","analyserTimestampEnd":"2019-10-18T09:18:02.260Z","expiryTimestamp":"2019-10-18T09:18:02.760Z","combinerTimestamp":"2019-10-18T09:18:02.260Z","analyserTimestampStart":"2019-10-18T09:18:02.260Z","type":"type-3","value":6.140487517469808}],"fetchTimestamp":"2019-10-18T09:18:02.279Z","detectionTimestamp":"2019-10-18T09:18:02.279Z"}
{"identifier":"ce:77351","triggers":[{"emitterTimestamp":"2019-10-18T09:17:59.555Z","identifier":"se:7000","analyserTimestampEnd":"2019-10-18T09:17:59.558Z","expiryTimestamp":"2019-10-18T09:18:00.058Z","combinerTimestamp":"2019-10-18T09:17:59.559Z","analyserTimestampStart":"2019-10-18T09:17:59.558Z","type":"type-2","value":5.027125258958122},{"emitterTimestamp":"2019-10-18T09:17:59.523Z","identifier":"se:7000","analyserTimestampEnd":"2019-10-18T09:17:59.527Z","expiryTimestamp":"2019-10-18T09:18:00.027Z","combinerTimestamp":"2019-10-18T09:17:59.528Z","analyserTimestampStart":"2019-10-18T09:17:59.527Z","type":"type-1","value":8.352868685757889},{"emitterTimestamp":"2019-10-18T09:17:59.538Z","identifier":"se:7000","analyserTimestampEnd":"2019-10-18T09:17:59.544Z","expiryTimestamp":"2019-10-18T09:18:00.044Z","combinerTimestamp":"2019-10-18T09:17:59.545Z","analyserTimestampStart":"2019-10-18T09:17:59.544Z","type":"type-3","value":5.027359747371083}],"fetchTimestamp":"2019-10-18T09:17:59.559Z","detectionTimestamp":"2019-10-18T09:17:59.559Z"}
{"identifier":"ce:77374","triggers":[{"emitterTimestamp":"2019-10-18T09:18:01.395Z","identifier":"se:30000","analyserTimestampEnd":"2019-10-18T09:18:01.401Z","expiryTimestamp":"2019-10-18T09:18:01.901Z","combinerTimestamp":"2019-10-18T09:18:01.402Z","analyserTimestampStart":"2019-10-18T09:18:01.401Z","type":"type-2","value":9.402387755025273},{"emitterTimestamp":"2019-10-18T09:18:01.363Z","identifier":"se:30000","analyserTimestampEnd":"2019-10-18T09:18:01.364Z","expiryTimestamp":"2019-10-18T09:18:01.864Z","combinerTimestamp":"2019-10-18T09:18:01.364Z","analyserTimestampStart":"2019-10-18T09:18:01.364Z","type":"type-1","value":5.978985109382155},{"emitterTimestamp":"2019-10-18T09:18:01.377Z","identifier":"se:30000","analyserTimestampEnd":"2019-10-18T09:18:01.382Z","expiryTimestamp":"2019-10-18T09:18:01.882Z","combinerTimestamp":"2019-10-18T09:18:01.382Z","analyserTimestampStart":"2019-10-18T09:18:01.382Z","type":"type-3","value":5.1839125753322834}],"fetchTimestamp":"2019-10-18T09:18:01.402Z","detectionTimestamp":"2019-10-18T09:18:01.402Z"}
{"identifier":"ce:77386","triggers":[{"emitterTimestamp":"2019-10-18T09:18:02.355Z","identifier":"se:42000","analyserTimestampEnd":"2019-10-18T09:18:02.358Z","expiryTimestamp":"2019-10-18T09:18:02.858Z","combinerTimestamp":"2019-10-18T09:18:02.359Z","analyserTimestampStart":"2019-10-18T09:18:02.358Z","type":"type-2","value":6.369581738190029},{"emitterTimestamp":"2019-10-18T09:18:02.322Z","identifier":"se:42000","analyserTimestampEnd":"2019-10-18T09:18:02.328Z","expiryTimestamp":"2019-10-18T09:18:02.828Z","combinerTimestamp":"2019-10-18T09:18:02.329Z","analyserTimestampStart":"2019-10-18T09:18:02.328Z","type":"type-1","value":5.509099659457851},{"emitterTimestamp":"2019-10-18T09:18:02.339Z","identifier":"se:42000","analyserTimestampEnd":"2019-10-18T09:18:02.346Z","expiryTimestamp":"2019-10-18T09:18:02.846Z","combinerTimestamp":"2019-10-18T09:18:02.348Z","analyserTimestampStart":"2019-10-18T09:18:02.346Z","type":"type-3","value":8.861202245952569}],"fetchTimestamp":"2019-10-18T09:18:02.359Z","detectionTimestamp":"2019-10-18T09:18:02.359Z"}
{"identifier":"ce:77392","triggers":[{"emitterTimestamp":"2019-10-18T09:18:02.835Z","identifier":"se:48000","analyserTimestampEnd":"2019-10-18T09:18:02.840Z","expiryTimestamp":"2019-10-18T09:18:03.340Z","combinerTimestamp":"2019-10-18T09:18:02.841Z","analyserTimestampStart":"2019-10-18T09:18:02.840Z","type":"type-2","value":6.397635276849588},{"emitterTimestamp":"2019-10-18T09:18:02.802Z","identifier":"se:48000","analyserTimestampEnd":"2019-10-18T09:18:02.807Z","expiryTimestamp":"2019-10-18T09:18:03.307Z","combinerTimestamp":"2019-10-18T09:18:02.807Z","analyserTimestampStart":"2019-10-18T09:18:02.807Z","type":"type-1","value":5.999639831510642},{"emitterTimestamp":"2019-10-18T09:18:02.817Z","identifier":"se:48000","analyserTimestampEnd":"2019-10-18T09:18:02.823Z","expiryTimestamp":"2019-10-18T09:18:03.323Z","combinerTimestamp":"2019-10-18T09:18:02.824Z","analyserTimestampStart":"2019-10-18T09:18:02.823Z","type":"type-3","value":6.7011251327203984}],"fetchTimestamp":"2019-10-18T09:18:02.841Z","detectionTimestamp":"2019-10-18T09:18:02.841Z"}
{"identifier":"ce:77381","triggers":[{"emitterTimestamp":"2019-10-18T09:18:01.956Z","identifier":"se:37000","analyserTimestampEnd":"2019-10-18T09:18:01.967Z","expiryTimestamp":"2019-10-18T09:18:02.467Z","combinerTimestamp":"2019-10-18T09:18:01.968Z","analyserTimestampStart":"2019-10-18T09:18:01.967Z","type":"type-2","value":6.595226577800169},{"emitterTimestamp":"2019-10-18T09:18:01.922Z","identifier":"se:37000","analyserTimestampEnd":"2019-10-18T09:18:01.926Z","expiryTimestamp":"2019-10-18T09:18:02.426Z","combinerTimestamp":"2019-10-18T09:18:01.928Z","analyserTimestampStart":"2019-10-18T09:18:01.926Z","type":"type-1","value":9.8153559450847},{"emitterTimestamp":"2019-10-18T09:18:01.937Z","identifier":"se:37000","analyserTimestampEnd":"2019-10-18T09:18:01.940Z","expiryTimestamp":"2019-10-18T09:18:02.440Z","combinerTimestamp":"2019-10-18T09:18:01.941Z","analyserTimestampStart":"2019-10-18T09:18:01.940Z","type":"type-3","value":5.321610466396283}],"fetchTimestamp":"2019-10-18T09:18:01.968Z","detectionTimestamp":"2019-10-18T09:18:01.968Z"}
{"identifier":"ce:77380","triggers":[{"emitterTimestamp":"2019-10-18T09:18:01.875Z","identifier":"se:36000","analyserTimestampEnd":"2019-10-18T09:18:01.878Z","expiryTimestamp":"2019-10-18T09:18:02.378Z","combinerTimestamp":"2019-10-18T09:18:01.878Z","analyserTimestampStart":"2019-10-18T09:18:01.878Z","type":"type-2","value":7.543936402044047},{"emitterTimestamp":"2019-10-18T09:18:01.842Z","identifier":"se:36000","analyserTimestampEnd":"2019-10-18T09:18:01.846Z","expiryTimestamp":"2019-10-18T09:18:02.346Z","combinerTimestamp":"2019-10-18T09:18:01.847Z","analyserTimestampStart":"2019-10-18T09:18:01.846Z","type":"type-1","value":6.914843350640208},{"emitterTimestamp":"2019-10-18T09:18:01.857Z","identifier":"se:36000","analyserTimestampEnd":"2019-10-18T09:18:01.859Z","expiryTimestamp":"2019-10-18T09:18:02.359Z","combinerTimestamp":"2019-10-18T09:18:01.859Z","analyserTimestampStart":"2019-10-18T09:18:01.859Z","type":"type-3","value":8.657521899496013}],"fetchTimestamp":"2019-10-18T09:18:01.878Z","detectionTimestamp":"2019-10-18T09:18:01.878Z"}
{"identifier":"ce:77360","triggers":[{"emitterTimestamp":"2019-10-18T09:18:00.275Z","identifier":"se:16000","analyserTimestampEnd":"2019-10-18T09:18:00.278Z","expiryTimestamp":"2019-10-18T09:18:00.778Z","combinerTimestamp":"2019-10-18T09:18:00.279Z","analyserTimestampStart":"2019-10-18T09:18:00.278Z","type":"type-2","value":5.877831787668527},{"emitterTimestamp":"2019-10-18T09:18:00.243Z","identifier":"se:16000","analyserTimestampEnd":"2019-10-18T09:18:00.247Z","expiryTimestamp":"2019-10-18T09:18:00.747Z","combinerTimestamp":"2019-10-18T09:18:00.247Z","analyserTimestampStart":"2019-10-18T09:18:00.247Z","type":"type-1","value":5.811617907620004},{"emitterTimestamp":"2019-10-18T09:18:00.259Z","identifier":"se:16000","analyserTimestampEnd":"2019-10-18T09:18:00.265Z","expiryTimestamp":"2019-10-18T09:18:00.765Z","combinerTimestamp":"2019-10-18T09:18:00.265Z","analyserTimestampStart":"2019-10-18T09:18:00.265Z","type":"type-3","value":8.069656907139143}],"fetchTimestamp":"2019-10-18T09:18:00.279Z","detectionTimestamp":"2019-10-18T09:18:00.279Z"}
{"identifier":"ce:77361","triggers":[{"emitterTimestamp":"2019-10-18T09:18:00.354Z","identifier":"se:17000","analyserTimestampEnd":"2019-10-18T09:18:00.357Z","expiryTimestamp":"2019-10-18T09:18:00.857Z","combinerTimestamp":"2019-10-18T09:18:00.358Z","analyserTimestampStart":"2019-10-18T09:18:00.357Z","type":"type-2","value":6.049473443785189},{"emitterTimestamp":"2019-10-18T09:18:00.323Z","identifier":"se:17000","analyserTimestampEnd":"2019-10-18T09:18:00.327Z","expiryTimestamp":"2019-10-18T09:18:00.827Z","combinerTimestamp":"2019-10-18T09:18:00.327Z","analyserTimestampStart":"2019-10-18T09:18:00.327Z","type":"type-1","value":5.009404972945502},{"emitterTimestamp":"2019-10-18T09:18:00.337Z","identifier":"se:17000","analyserTimestampEnd":"2019-10-18T09:18:00.338Z","expiryTimestamp":"2019-10-18T09:18:00.838Z","combinerTimestamp":"2019-10-18T09:18:00.339Z","analyserTimestampStart":"2019-10-18T09:18:00.338Z","type":"type-3","value":8.51815933845173}],"fetchTimestamp":"2019-10-18T09:18:00.358Z","detectionTimestamp":"2019-10-18T09:18:00.358Z"}
{"identifier":"ce:77384","triggers":[{"emitterTimestamp":"2019-10-18T09:18:02.194Z","identifier":"se:40000","analyserTimestampEnd":"2019-10-18T09:18:02.202Z","expiryTimestamp":"2019-10-18T09:18:02.702Z","combinerTimestamp":"2019-10-18T09:18:02.203Z","analyserTimestampStart":"2019-10-18T09:18:02.202Z","type":"type-2","value":9.674608872284638},{"emitterTimestamp":"2019-10-18T09:18:02.162Z","identifier":"se:40000","analyserTimestampEnd":"2019-10-18T09:18:02.165Z","expiryTimestamp":"2019-10-18T09:18:02.665Z","combinerTimestamp":"2019-10-18T09:18:02.166Z","analyserTimestampStart":"2019-10-18T09:18:02.165Z","type":"type-1","value":6.71081646207114},{"emitterTimestamp":"2019-10-18T09:18:02.177Z","identifier":"se:40000","analyserTimestampEnd":"2019-10-18T09:18:02.181Z","expiryTimestamp":"2019-10-18T09:18:02.681Z","combinerTimestamp":"2019-10-18T09:18:02.182Z","analyserTimestampStart":"2019-10-18T09:18:02.181Z","type":"type-3","value":6.998223260103815}],"fetchTimestamp":"2019-10-18T09:18:02.203Z","detectionTimestamp":"2019-10-18T09:18:02.203Z"}
{"identifier":"ce:77373","triggers":[{"emitterTimestamp":"2019-10-18T09:18:01.315Z","identifier":"se:29000","analyserTimestampEnd":"2019-10-18T09:18:01.317Z","expiryTimestamp":"2019-10-18T09:18:01.817Z","combinerTimestamp":"2019-10-18T09:18:01.318Z","analyserTimestampStart":"2019-10-18T09:18:01.317Z","type":"type-2","value":8.985444107022424},{"emitterTimestamp":"2019-10-18T09:18:01.282Z","identifier":"se:29000","analyserTimestampEnd":"2019-10-18T09:18:01.288Z","expiryTimestamp":"2019-10-18T09:18:01.788Z","combinerTimestamp":"2019-10-18T09:18:01.289Z","analyserTimestampStart":"2019-10-18T09:18:01.288Z","type":"type-1","value":6.172495369347196},{"emitterTimestamp":"2019-10-18T09:18:01.297Z","identifier":"se:29000","analyserTimestampEnd":"2019-10-18T09:18:01.300Z","expiryTimestamp":"2019-10-18T09:18:01.800Z","combinerTimestamp":"2019-10-18T09:18:01.301Z","analyserTimestampStart":"2019-10-18T09:18:01.300Z","type":"type-3","value":6.10402946984984}],"fetchTimestamp":"2019-10-18T09:18:01.318Z","detectionTimestamp":"2019-10-18T09:18:01.318Z"}
{"identifier":"ce:77366","triggers":[{"emitterTimestamp":"2019-10-18T09:18:00.754Z","identifier":"se:22000","analyserTimestampEnd":"2019-10-18T09:18:00.759Z","expiryTimestamp":"2019-10-18T09:18:01.259Z","combinerTimestamp":"2019-10-18T09:18:00.760Z","analyserTimestampStart":"2019-10-18T09:18:00.759Z","type":"type-2","value":6.8199179958248095},{"emitterTimestamp":"2019-10-18T09:18:00.722Z","identifier":"se:22000","analyserTimestampEnd":"2019-10-18T09:18:00.725Z","expiryTimestamp":"2019-10-18T09:18:01.225Z","combinerTimestamp":"2019-10-18T09:18:00.725Z","analyserTimestampStart":"2019-10-18T09:18:00.725Z","type":"type-1","value":8.810272385154121},{"emitterTimestamp":"2019-10-18T09:18:00.737Z","identifier":"se:22000","analyserTimestampEnd":"2019-10-18T09:18:00.742Z","expiryTimestamp":"2019-10-18T09:18:01.242Z","combinerTimestamp":"2019-10-18T09:18:00.742Z","analyserTimestampStart":"2019-10-18T09:18:00.742Z","type":"type-3","value":9.770716751325148}],"fetchTimestamp":"2019-10-18T09:18:00.760Z","detectionTimestamp":"2019-10-18T09:18:00.760Z"}
{"identifier":"ce:77390","triggers":[{"emitterTimestamp":"2019-10-18T09:18:02.675Z","identifier":"se:46000","analyserTimestampEnd":"2019-10-18T09:18:02.680Z","expiryTimestamp":"2019-10-18T09:18:03.180Z","combinerTimestamp":"2019-10-18T09:18:02.680Z","analyserTimestampStart":"2019-10-18T09:18:02.680Z","type":"type-2","value":5.026324639864653},{"emitterTimestamp":"2019-10-18T09:18:02.642Z","identifier":"se:46000","analyserTimestampEnd":"2019-10-18T09:18:02.647Z","expiryTimestamp":"2019-10-18T09:18:03.147Z","combinerTimestamp":"2019-10-18T09:18:02.647Z","analyserTimestampStart":"2019-10-18T09:18:02.647Z","type":"type-1","value":7.181901264097978},{"emitterTimestamp":"2019-10-18T09:18:02.657Z","identifier":"se:46000","analyserTimestampEnd":"2019-10-18T09:18:02.661Z","expiryTimestamp":"2019-10-18T09:18:03.161Z","combinerTimestamp":"2019-10-18T09:18:02.661Z","analyserTimestampStart":"2019-10-18T09:18:02.661Z","type":"type-3","value":8.894117438499581}],"fetchTimestamp":"2019-10-18T09:18:02.680Z","detectionTimestamp":"2019-10-18T09:18:02.680Z"}
{"identifier":"ce:77362","triggers":[{"emitterTimestamp":"2019-10-18T09:18:00.434Z","identifier":"se:18000","analyserTimestampEnd":"2019-10-18T09:18:00.436Z","expiryTimestamp":"2019-10-18T09:18:00.936Z","combinerTimestamp":"2019-10-18T09:18:00.437Z","analyserTimestampStart":"2019-10-18T09:18:00.436Z","type":"type-2","value":5.453967645953725},{"emitterTimestamp":"2019-10-18T09:18:00.403Z","identifier":"se:18000","analyserTimestampEnd":"2019-10-18T09:18:00.407Z","expiryTimestamp":"2019-10-18T09:18:00.907Z","combinerTimestamp":"2019-10-18T09:18:00.408Z","analyserTimestampStart":"2019-10-18T09:18:00.407Z","type":"type-1","value":5.164252252058955},{"emitterTimestamp":"2019-10-18T09:18:00.417Z","identifier":"se:18000","analyserTimestampEnd":"2019-10-18T09:18:00.422Z","expiryTimestamp":"2019-10-18T09:18:00.922Z","combinerTimestamp":"2019-10-18T09:18:00.423Z","analyserTimestampStart":"2019-10-18T09:18:00.422Z","type":"type-3","value":5.829440510227533}],"fetchTimestamp":"2019-10-18T09:18:00.437Z","detectionTimestamp":"2019-10-18T09:18:00.437Z"}
{"identifier":"ce:77363","triggers":[{"emitterTimestamp":"2019-10-18T09:18:00.515Z","identifier":"se:19000","analyserTimestampEnd":"2019-10-18T09:18:00.517Z","expiryTimestamp":"2019-10-18T09:18:01.017Z","combinerTimestamp":"2019-10-18T09:18:00.517Z","analyserTimestampStart":"2019-10-18T09:18:00.517Z","type":"type-2","value":7.71315614978162},{"emitterTimestamp":"2019-10-18T09:18:00.483Z","identifier":"se:19000","analyserTimestampEnd":"2019-10-18T09:18:00.489Z","expiryTimestamp":"2019-10-18T09:18:00.989Z","combinerTimestamp":"2019-10-18T09:18:00.489Z","analyserTimestampStart":"2019-10-18T09:18:00.489Z","type":"type-1","value":9.909969331500701},{"emitterTimestamp":"2019-10-18T09:18:00.497Z","identifier":"se:19000","analyserTimestampEnd":"2019-10-18T09:18:00.502Z","expiryTimestamp":"2019-10-18T09:18:01.002Z","combinerTimestamp":"2019-10-18T09:18:00.503Z","analyserTimestampStart":"2019-10-18T09:18:00.502Z","type":"type-3","value":7.288750924866044}],"fetchTimestamp":"2019-10-18T09:18:00.517Z","detectionTimestamp":"2019-10-18T09:18:00.517Z"}
{"identifier":"ce:77365","triggers":[{"emitterTimestamp":"2019-10-18T09:18:00.675Z","identifier":"se:21000","analyserTimestampEnd":"2019-10-18T09:18:00.678Z","expiryTimestamp":"2019-10-18T09:18:01.178Z","combinerTimestamp":"2019-10-18T09:18:00.679Z","analyserTimestampStart":"2019-10-18T09:18:00.678Z","type":"type-2","value":6.1052578943203395},{"emitterTimestamp":"2019-10-18T09:18:00.642Z","identifier":"se:21000","analyserTimestampEnd":"2019-10-18T09:18:00.648Z","expiryTimestamp":"2019-10-18T09:18:01.148Z","combinerTimestamp":"2019-10-18T09:18:00.648Z","analyserTimestampStart":"2019-10-18T09:18:00.648Z","type":"type-1","value":9.729824451005372},{"emitterTimestamp":"2019-10-18T09:18:00.657Z","identifier":"se:21000","analyserTimestampEnd":"2019-10-18T09:18:00.659Z","expiryTimestamp":"2019-10-18T09:18:01.159Z","combinerTimestamp":"2019-10-18T09:18:00.659Z","analyserTimestampStart":"2019-10-18T09:18:00.659Z","type":"type-3","value":8.639058903686905}],"fetchTimestamp":"2019-10-18T09:18:00.679Z","detectionTimestamp":"2019-10-18T09:18:00.679Z"}
{"identifier":"ce:77391","triggers":[{"emitterTimestamp":"2019-10-18T09:18:02.755Z","identifier":"se:47000","analyserTimestampEnd":"2019-10-18T09:18:02.756Z","expiryTimestamp":"2019-10-18T09:18:03.256Z","combinerTimestamp":"2019-10-18T09:18:02.757Z","analyserTimestampStart":"2019-10-18T09:18:02.756Z","type":"type-2","value":5.0365299786799875},{"emitterTimestamp":"2019-10-18T09:18:02.722Z","identifier":"se:47000","analyserTimestampEnd":"2019-10-18T09:18:02.725Z","expiryTimestamp":"2019-10-18T09:18:03.225Z","combinerTimestamp":"2019-10-18T09:18:02.726Z","analyserTimestampStart":"2019-10-18T09:18:02.725Z","type":"type-1","value":8.078460144045428},{"emitterTimestamp":"2019-10-18T09:18:02.737Z","identifier":"se:47000","analyserTimestampEnd":"2019-10-18T09:18:02.739Z","expiryTimestamp":"2019-10-18T09:18:03.239Z","combinerTimestamp":"2019-10-18T09:18:02.739Z","analyserTimestampStart":"2019-10-18T09:18:02.739Z","type":"type-3","value":6.272661084375808}],"fetchTimestamp":"2019-10-18T09:18:02.757Z","detectionTimestamp":"2019-10-18T09:18:02.757Z"}