{"identifier":"ce:37746","triggers":[{"emitterTimestamp":"2019-10-18T08:48:37.204Z","identifier":"se:14000","analyserTimestampEnd":"2019-10-18T08:48:37.212Z","expiryTimestamp":"2019-10-18T08:48:37.712Z","combinerTimestamp":"2019-10-18T08:48:37.212Z","analyserTimestampStart":"2019-10-18T08:48:37.212Z","type":"type-2","value":8.450390172205678},{"emitterTimestamp":"2019-10-18T08:48:36.717Z","identifier":"se:21500","analyserTimestampEnd":"2019-10-18T08:48:36.721Z","expiryTimestamp":"2019-10-18T08:48:37.221Z","combinerTimestamp":"2019-10-18T08:48:36.723Z","analyserTimestampStart":"2019-10-18T08:48:36.721Z","type":"type-1","value":8.84859324926277},{"emitterTimestamp":"2019-10-18T08:48:36.745Z","identifier":"se:17500","analyserTimestampEnd":"2019-10-18T08:48:36.749Z","expiryTimestamp":"2019-10-18T08:48:37.249Z","combinerTimestamp":"2019-10-18T08:48:36.751Z","analyserTimestampStart":"2019-10-18T08:48:36.749Z","type":"type-3","value":5.924942673323901}],"fetchTimestamp":"2019-10-18T08:48:37.213Z","detectionTimestamp":"2019-10-18T08:48:37.213Z"}
{"identifier":"ce:37725","triggers":[{"emitterTimestamp":"2019-10-18T08:48:36.736Z","identifier":"se:3500","analyserTimestampEnd":"2019-10-18T08:48:36.742Z","expiryTimestamp":"2019-10-18T08:48:37.242Z","combinerTimestamp":"2019-10-18T08:48:36.743Z","analyserTimestampStart":"2019-10-18T08:48:36.742Z","type":"type-2","value":9.602777188566733},{"emitterTimestamp":"2019-10-18T08:48:36.323Z","identifier":"se:3500","analyserTimestampEnd":"2019-10-18T08:48:36.326Z","expiryTimestamp":"2019-10-18T08:48:36.826Z","combinerTimestamp":"2019-10-18T08:48:36.328Z","analyserTimestampStart":"2019-10-18T08:48:36.326Z","type":"type-1","value":9.910113784208672},{"emitterTimestamp":"2019-10-18T08:48:36.418Z","identifier":"se:3500","analyserTimestampEnd":"2019-10-18T08:48:36.473Z","expiryTimestamp":"2019-10-18T08:48:36.973Z","combinerTimestamp":"2019-10-18T08:48:36.474Z","analyserTimestampStart":"2019-10-18T08:48:36.473Z","type":"type-3","value":6.513546047523995}],"fetchTimestamp":"2019-10-18T08:48:36.743Z","detectionTimestamp":"2019-10-18T08:48:36.743Z"}
{"identifier":"ce:37765","triggers":[{"emitterTimestamp":"2019-10-18T08:48:37.496Z","identifier":"se:23500","analyserTimestampEnd":"2019-10-18T08:48:37.504Z","expiryTimestamp":"2019-10-18T08:48:38.004Z","combinerTimestamp":"2019-10-18T08:48:37.504Z","analyserTimestampStart":"2019-10-18T08:48:37.504Z","type":"type-2","value":6.94497068462201},{"emitterTimestamp":"2019-10-18T08:48:36.999Z","identifier":"se:32500","analyserTimestampEnd":"2019-10-18T08:48:37.103Z","expiryTimestamp":"2019-10-18T08:48:37.603Z","combinerTimestamp":"2019-10-18T08:48:37.118Z","analyserTimestampStart":"2019-10-18T08:48:37.103Z","type":"type-1","value":6.567208460359258},{"emitterTimestamp":"2019-10-18T08:48:37.012Z","identifier":"se:27500","analyserTimestampEnd":"2019-10-18T08:48:37.085Z","expiryTimestamp":"2019-10-18T08:48:37.585Z","combinerTimestamp":"2019-10-18T08:48:37.091Z","analyserTimestampStart":"2019-10-18T08:48:37.085Z","type":"type-3","value":6.054567452074506}],"fetchTimestamp":"2019-10-18T08:48:37.504Z","detectionTimestamp":"2019-10-18T08:48:37.504Z"}
{"identifier":"ce:37785","triggers":[{"emitterTimestamp":"2019-10-18T08:48:37.578Z","identifier":"se:33500","analyserTimestampEnd":"2019-10-18T08:48:37.586Z","expiryTimestamp":"2019-10-18T08:48:38.086Z","combinerTimestamp":"2019-10-18T08:48:37.587Z","analyserTimestampStart":"2019-10-18T08:48:37.586Z","type":"type-2","value":7.981249965436035},{"emitterTimestamp":"2019-10-18T08:48:37.220Z","identifier":"se:42500","analyserTimestampEnd":"2019-10-18T08:48:37.253Z","expiryTimestamp":"2019-10-18T08:48:37.753Z","combinerTimestamp":"2019-10-18T08:48:37.254Z","analyserTimestampStart":"2019-10-18T08:48:37.253Z","type":"type-1","value":6.03163588506765},{"emitterTimestamp":"2019-10-18T08:48:37.266Z","identifier":"se:37500","analyserTimestampEnd":"2019-10-18T08:48:37.269Z","expiryTimestamp":"2019-10-18T08:48:37.769Z","combinerTimestamp":"2019-10-18T08:48:37.270Z","analyserTimestampStart":"2019-10-18T08:48:37.269Z","type":"type-3","value":6.0026329127055025}],"fetchTimestamp":"2019-10-18T08:48:37.587Z","detectionTimestamp":"2019-10-18T08:48:37.587Z"}
{"identifier":"ce:37773","triggers":[{"emitterTimestamp":"2019-10-18T08:48:37.526Z","identifier":"se:27500","analyserTimestampEnd":"2019-10-18T08:48:37.535Z","expiryTimestamp":"2019-10-18T08:48:38.035Z","combinerTimestamp":"2019-10-18T08:48:37.535Z","analyserTimestampStart":"2019-10-18T08:48:37.535Z","type":"type-2","value":5.640658516034909},{"emitterTimestamp":"2019-10-18T08:48:37.107Z","identifier":"se:36500","analyserTimestampEnd":"2019-10-18T08:48:37.162Z","expiryTimestamp":"2019-10-18T08:48:37.662Z","combinerTimestamp":"2019-10-18T08:48:37.164Z","analyserTimestampStart":"2019-10-18T08:48:37.162Z","type":"type-1","value":9.15392584491389},{"emitterTimestamp":"2019-10-18T08:48:37.096Z","identifier":"se:31500","analyserTimestampEnd":"2019-10-18T08:48:37.176Z","expiryTimestamp":"2019-10-18T08:48:37.676Z","combinerTimestamp":"2019-10-18T08:48:37.180Z","analyserTimestampStart":"2019-10-18T08:48:37.176Z","type":"type-3","value":5.587712900390464}],"fetchTimestamp":"2019-10-18T08:48:37.536Z","detectionTimestamp":"2019-10-18T08:48:37.536Z"}
{"identifier":"ce:37745","triggers":[{"emitterTimestamp":"2019-10-18T08:48:37.184Z","identifier":"se:13500","analyserTimestampEnd":"2019-10-18T08:48:37.197Z","expiryTimestamp":"2019-10-18T08:48:37.697Z","combinerTimestamp":"2019-10-18T08:48:37.201Z","analyserTimestampStart":"2019-10-18T08:48:37.197Z","type":"type-2","value":8.520484898419816},{"emitterTimestamp":"2019-10-18T08:48:36.706Z","identifier":"se:21000","analyserTimestampEnd":"2019-10-18T08:48:36.711Z","expiryTimestamp":"2019-10-18T08:48:37.211Z","combinerTimestamp":"2019-10-18T08:48:36.712Z","analyserTimestampStart":"2019-10-18T08:48:36.711Z","type":"type-1","value":6.299637576558289},{"emitterTimestamp":"2019-10-18T08:48:36.713Z","identifier":"se:17000","analyserTimestampEnd":"2019-10-18T08:48:36.716Z","expiryTimestamp":"2019-10-18T08:48:37.216Z","combinerTimestamp":"2019-10-18T08:48:36.716Z","analyserTimestampStart":"2019-10-18T08:48:36.716Z","type":"type-3","value":9.48805137333752}],"fetchTimestamp":"2019-10-18T08:48:37.201Z","detectionTimestamp":"2019-10-18T08:48:37.201Z"}
{"identifier":"ce:37798","triggers":[{"emitterTimestamp":"2019-10-18T08:48:37.630Z","identifier":"se:40000","analyserTimestampEnd":"2019-10-18T08:48:37.634Z","expiryTimestamp":"2019-10-18T08:48:38.134Z","combinerTimestamp":"2019-10-18T08:48:37.635Z","analyserTimestampStart":"2019-10-18T08:48:37.634Z","type":"type-2","value":9.707930160763192},{"emitterTimestamp":"2019-10-18T08:48:37.364Z","identifier":"se:49000","analyserTimestampEnd":"2019-10-18T08:48:37.369Z","expiryTimestamp":"2019-10-18T08:48:37.869Z","combinerTimestamp":"2019-10-18T08:48:37.370Z","analyserTimestampStart":"2019-10-18T08:48:37.369Z","type":"type-1","value":8.585670589317596},{"emitterTimestamp":"2019-10-18T08:48:37.378Z","identifier":"se:44000","analyserTimestampEnd":"2019-10-18T08:48:37.382Z","expiryTimestamp":"2019-10-18T08:48:37.882Z","combinerTimestamp":"2019-10-18T08:48:37.385Z","analyserTimestampStart":"2019-10-18T08:48:37.382Z","type":"type-3","value":8.794428160416068}],"fetchTimestamp":"2019-10-18T08:48:37.635Z","detectionTimestamp":"2019-10-18T08:48:37.635Z"}
{"identifier":"ce:37756","triggers":[{"emitterTimestamp":"2019-10-18T08:48:37.380Z","identifier":"se:19000","analyserTimestampEnd":"2019-10-18T08:48:37.389Z","expiryTimestamp":"2019-10-18T08:48:37.889Z","combinerTimestamp":"2019-10-18T08:48:37.393Z","analyserTimestampStart":"2019-10-18T08:48:37.389Z","type":"type-2","value":7.997683761562331},{"emitterTimestamp":"2019-10-18T08:48:36.907Z","identifier":"se:28000","analyserTimestampEnd":"2019-10-18T08:48:36.912Z","expiryTimestamp":"2019-10-18T08:48:37.412Z","combinerTimestamp":"2019-10-18T08:48:36.912Z","analyserTimestampStart":"2019-10-18T08:48:36.912Z","type":"type-1","value":7.08834464800775},{"emitterTimestamp":"2019-10-18T08:48:36.898Z","identifier":"se:22500","analyserTimestampEnd":"2019-10-18T08:48:36.905Z","expiryTimestamp":"2019-10-18T08:48:37.405Z","combinerTimestamp":"2019-10-18T08:48:36.906Z","analyserTimestampStart":"2019-10-18T08:48:36.905Z","type":"type-3","value":7.6684445822043}],"fetchTimestamp":"2019-10-18T08:48:37.393Z","detectionTimestamp":"2019-10-18T08:48:37.393Z"}
{"identifier":"ce:37718","triggers":[{"emitterTimestamp":"2019-10-18T08:48:36.162Z","identifier":"se:0","analyserTimestampEnd":"2019-10-18T08:48:36.294Z","expiryTimestamp":"2019-10-18T08:48:36.794Z","combinerTimestamp":"2019-10-18T08:48:36.295Z","analyserTimestampStart":"2019-10-18T08:48:36.294Z","type":"type-2","value":8.031138728380878},{"emitterTimestamp":"2019-10-18T08:48:36.128Z","identifier":"se:0","analyserTimestampEnd":"2019-10-18T08:48:36.185Z","expiryTimestamp":"2019-10-18T08:48:36.685Z","combinerTimestamp":"2019-10-18T08:48:36.186Z","analyserTimestampStart":"2019-10-18T08:48:36.185Z","type":"type-1","value":5.4079610341140665},{"emitterTimestamp":"2019-10-18T08:48:36.157Z","identifier":"se:0","analyserTimestampEnd":"2019-10-18T08:48:36.203Z","expiryTimestamp":"2019-10-18T08:48:36.703Z","combinerTimestamp":"2019-10-18T08:48:36.204Z","analyserTimestampStart":"2019-10-18T08:48:36.203Z","type":"type-3","value":5.211246371315793}],"fetchTimestamp":"2019-10-18T08:48:36.295Z","detectionTimestamp":"2019-10-18T08:48:36.295Z"}
{"identifier":"ce:37762","triggers":[{"emitterTimestamp":"2019-10-18T08:48:37.471Z","identifier":"se:22000","analyserTimestampEnd":"2019-10-18T08:48:37.474Z","expiryTimestamp":"2019-10-18T08:48:37.974Z","combinerTimestamp":"2019-10-18T08:48:37.475Z","analyserTimestampStart":"2019-10-18T08:48:37.474Z","type":"type-2","value":8.12859151089312},{"emitterTimestamp":"2019-10-18T08:48:36.973Z","identifier":"se:31000","analyserTimestampEnd":"2019-10-18T08:48:37.064Z","expiryTimestamp":"2019-10-18T08:48:37.564Z","combinerTimestamp":"2019-10-18T08:48:37.074Z","analyserTimestampStart":"2019-10-18T08:48:37.064Z","type":"type-1","value":6.116905626003753},{"emitterTimestamp":"2019-10-18T08:48:36.988Z","identifier":"se:26000","analyserTimestampEnd":"2019-10-18T08:48:37.052Z","expiryTimestamp":"2019-10-18T08:48:37.552Z","combinerTimestamp":"2019-10-18T08:48:37.061Z","analyserTimestampStart":"2019-10-18T08:48:37.052Z","type":"type-3","value":6.3269521702336995}],"fetchTimestamp":"2019-10-18T08:48:37.475Z","detectionTimestamp":"2019-10-18T08:48:37.475Z"}
{"identifier":"ce:37784","triggers":[{"emitterTimestamp":"2019-10-18T08:48:37.575Z","identifier":"se:33000","analyserTimestampEnd":"2019-10-18T08:48:37.577Z","expiryTimestamp":"2019-10-18T08:48:38.077Z","combinerTimestamp":"2019-10-18T08:48:37.577Z","analyserTimestampStart":"2019-10-18T08:48:37.577Z","type":"type-2","value":9.538907379147645},{"emitterTimestamp":"2019-10-18T08:48:37.211Z","identifier":"se:42000","analyserTimestampEnd":"2019-10-18T08:48:37.245Z","expiryTimestamp":"2019-10-18T08:48:37.745Z","combinerTimestamp":"2019-10-18T08:48:37.246Z","analyserTimestampStart":"2019-10-18T08:48:37.245Z","type":"type-1","value":5.099948079554079},{"emitterTimestamp":"2019-10-18T08:48:37.253Z","identifier":"se:37000","analyserTimestampEnd":"2019-10-18T08:48:37.261Z","expiryTimestamp":"2019-10-18T08:48:37.760Z","combinerTimestamp":"2019-10-18T08:48:37.261Z","analyserTimestampStart":"2019-10-18T08:48:37.260Z","type":"type-3","value":5.820849323123842}],"fetchTimestamp":"2019-10-18T08:48:37.577Z","detectionTimestamp":"2019-10-18T08:48:37.577Z"}
{"identifier":"ce:37797","triggers":[{"emitterTimestamp":"2019-10-18T08:48:37.625Z","identifier":"se:39500","analyserTimestampEnd":"2019-10-18T08:48:37.630Z","expiryTimestamp":"2019-10-18T08:48:38.130Z","combinerTimestamp":"2019-10-18T08:48:37.631Z","analyserTimestampStart":"2019-10-18T08:48:37.630Z","type":"type-2","value":6.6335766226527},{"emitterTimestamp":"2019-10-18T08:48:37.356Z","identifier":"se:48500","analyserTimestampEnd":"2019-10-18T08:48:37.362Z","expiryTimestamp":"2019-10-18T08:48:37.862Z","combinerTimestamp":"2019-10-18T08:48:37.364Z","analyserTimestampStart":"2019-10-18T08:48:37.362Z","type":"type-1","value":5.929197774868959},{"emitterTimestamp":"2019-10-18T08:48:37.369Z","identifier":"se:43500","analyserTimestampEnd":"2019-10-18T08:48:37.373Z","expiryTimestamp":"2019-10-18T08:48:37.873Z","combinerTimestamp":"2019-10-18T08:48:37.374Z","analyserTimestampStart":"2019-10-18T08:48:37.373Z","type":"type-3","value":9.504001690406948}],"fetchTimestamp":"2019-10-18T08:48:37.631Z","detectionTimestamp":"2019-10-18T08:48:37.631Z"}
{"identifier":"ce:37794","triggers":[{"emitterTimestamp":"2019-10-18T08:48:37.611Z","identifier":"se:38000","analyserTimestampEnd":"2019-10-18T08:48:37.620Z","expiryTimestamp":"2019-10-18T08:48:38.119Z","combinerTimestamp":"2019-10-18T08:48:37.620Z","analyserTimestampStart":"2019-10-18T08:48:37.619Z","type":"type-2","value":5.910513648542871},{"emitterTimestamp":"2019-10-18T08:48:37.331Z","identifier":"se:47000","analyserTimestampEnd":"2019-10-18T08:48:37.339Z","expiryTimestamp":"2019-10-18T08:48:37.839Z","combinerTimestamp":"2019-10-18T08:48:37.340Z","analyserTimestampStart":"2019-10-18T08:48:37.339Z","type":"type-1","value":9.895585080653078},{"emitterTimestamp":"2019-10-18T08:48:37.344Z","identifier":"se:42000","analyserTimestampEnd":"2019-10-18T08:48:37.346Z","expiryTimestamp":"2019-10-18T08:48:37.846Z","combinerTimestamp":"2019-10-18T08:48:37.347Z","analyserTimestampStart":"2019-10-18T08:48:37.346Z","type":"type-3","value":9.3785875673824}],"fetchTimestamp":"2019-10-18T08:48:37.620Z","detectionTimestamp":"2019-10-18T08:48:37.620Z"}
{"identifier":"ce:37786","triggers":[{"emitterTimestamp":"2019-10-18T08:48:37.582Z","identifier":"se:34000","analyserTimestampEnd":"2019-10-18T08:48:37.588Z","expiryTimestamp":"2019-10-18T08:48:38.088Z","combinerTimestamp":"2019-10-18T08:48:37.589Z","analyserTimestampStart":"2019-10-18T08:48:37.588Z","type":"type-2","value":8.012688215171881},{"emitterTimestamp":"2019-10-18T08:48:37.234Z","identifier":"se:43000","analyserTimestampEnd":"2019-10-18T08:48:37.262Z","expiryTimestamp":"2019-10-18T08:48:37.762Z","combinerTimestamp":"2019-10-18T08:48:37.263Z","analyserTimestampStart":"2019-10-18T08:48:37.262Z","type":"type-1","value":5.296596464505628},{"emitterTimestamp":"2019-10-18T08:48:37.273Z","identifier":"se:38000","analyserTimestampEnd":"2019-10-18T08:48:37.276Z","expiryTimestamp":"2019-10-18T08:48:37.776Z","combinerTimestamp":"2019-10-18T08:48:37.277Z","analyserTimestampStart":"2019-10-18T08:48:37.276Z","type":"type-3","value":6.360158522476264}],"fetchTimestamp":"2019-10-18T08:48:37.589Z","detectionTimestamp":"2019-10-18T08:48:37.589Z"}
{"identifier":"ce:37791","triggers":[{"emitterTimestamp":"2019-10-18T08:48:37.603Z","identifier":"se:36500","analyserTimestampEnd":"2019-10-18T08:48:37.611Z","expiryTimestamp":"2019-10-18T08:48:38.111Z","combinerTimestamp":"2019-10-18T08:48:37.613Z","analyserTimestampStart":"2019-10-18T08:48:37.611Z","type":"type-2","value":7.0675530015279815},{"emitterTimestamp":"2019-10-18T08:48:37.297Z","identifier":"se:45500","analyserTimestampEnd":"2019-10-18T08:48:37.305Z","expiryTimestamp":"2019-10-18T08:48:37.805Z","combinerTimestamp":"2019-10-18T08:48:37.305Z","analyserTimestampStart":"2019-10-18T08:48:37.305Z","type":"type-1","value":5.592011636100975},{"emitterTimestamp":"2019-10-18T08:48:37.311Z","identifier":"se:40500","analyserTimestampEnd":"2019-10-18T08:48:37.315Z","expiryTimestamp":"2019-10-18T08:48:37.815Z","combinerTimestamp":"2019-10-18T08:48:37.316Z","analyserTimestampStart":"2019-10-18T08:48:37.315Z","type":"type-3","value":8.959824169769618}],"fetchTimestamp":"2019-10-18T08:48:37.613Z","detectionTimestamp":"2019-10-18T08:48:37.613Z"}
{"identifier":"ce:37751","triggers":[{"emitterTimestamp":"2019-10-18T08:48:37.284Z","identifier":"se:16500","analyserTimestampEnd":"2019-10-18T08:48:37.286Z","expiryTimestamp":"2019-10-18T08:48:37.786Z","combinerTimestamp":"2019-10-18T08:48:37.287Z","analyserTimestampStart":"2019-10-18T08:48:37.286Z","type":"type-2","value":7.778186269408404},{"emitterTimestamp":"2019-10-18T08:48:36.814Z","identifier":"se:24000","analyserTimestampEnd":"2019-10-18T08:48:36.819Z","expiryTimestamp":"2019-10-18T08:48:37.319Z","combinerTimestamp":"2019-10-18T08:48:36.820Z","analyserTimestampStart":"2019-10-18T08:48:36.819Z","type":"type-1","value":7.296083017069739},{"emitterTimestamp":"2019-10-18T08:48:36.815Z","identifier":"se:20000","analyserTimestampEnd":"2019-10-18T08:48:36.817Z","expiryTimestamp":"2019-10-18T08:48:37.317Z","combinerTimestamp":"2019-10-18T08:48:36.818Z","analyserTimestampStart":"2019-10-18T08:48:36.817Z","type":"type-3","value":6.6014884011745405}],"fetchTimestamp":"2019-10-18T08:48:37.287Z","detectionTimestamp":"2019-10-18T08:48:37.287Z"}
{"identifier":"ce:37792","triggers":[{"emitterTimestamp":"2019-10-18T08:48:37.605Z","identifier":"se:37000","analyserTimestampEnd":"2019-10-18T08:48:37.614Z","expiryTimestamp":"2019-10-18T08:48:38.114Z","combinerTimestamp":"2019-10-18T08:48:37.615Z","analyserTimestampStart":"2019-10-18T08:48:37.614Z","type":"type-2","value":5.506260763328056},{"emitterTimestamp":"2019-10-18T08:48:37.306Z","identifier":"se:46000","analyserTimestampEnd":"2019-10-18T08:48:37.312Z","expiryTimestamp":"2019-10-18T08:48:37.812Z","combinerTimestamp":"2019-10-18T08:48:37.313Z","analyserTimestampStart":"2019-10-18T08:48:37.312Z","type":"type-1","value":9.464480725220152},{"emitterTimestamp":"2019-10-18T08:48:37.321Z","identifier":"se:41000","analyserTimestampEnd":"2019-10-18T08:48:37.324Z","expiryTimestamp":"2019-10-18T08:48:37.824Z","combinerTimestamp":"2019-10-18T08:48:37.324Z","analyserTimestampStart":"2019-10-18T08:48:37.324Z","type":"type-3","value":7.7497788915099255}],"fetchTimestamp":"2019-10-18T08:48:37.615Z","detectionTimestamp":"2019-10-18T08:48:37.615Z"}
{"identifier":"ce:37770","triggers":[{"emitterTimestamp":"2019-10-18T08:48:37.517Z","identifier":"se:26000","analyserTimestampEnd":"2019-10-18T08:48:37.522Z","expiryTimestamp":"2019-10-18T08:48:38.022Z","combinerTimestamp":"2019-10-18T08:48:37.525Z","analyserTimestampStart":"2019-10-18T08:48:37.522Z","type":"type-2","value":7.850717931818047},{"emitterTimestamp":"2019-10-18T08:48:37.086Z","identifier":"se:35000","analyserTimestampEnd":"2019-10-18T08:48:37.137Z","expiryTimestamp":"2019-10-18T08:48:37.637Z","combinerTimestamp":"2019-10-18T08:48:37.156Z","analyserTimestampStart":"2019-10-18T08:48:37.137Z","type":"type-1","value":8.302655316129677},{"emitterTimestamp":"2019-10-18T08:48:37.056Z","identifier":"se:30000","analyserTimestampEnd":"2019-10-18T08:48:37.139Z","expiryTimestamp":"2019-10-18T08:48:37.639Z","combinerTimestamp":"2019-10-18T08:48:37.147Z","analyserTimestampStart":"2019-10-18T08:48:37.139Z","type":"type-3","value":9.389210035136092}],"fetchTimestamp":"2019-10-18T08:48:37.525Z","detectionTimestamp":"2019-10-18T08:48:37.525Z"}
{"identifier":"ce:37766","triggers":[{"emitterTimestamp":"2019-10-18T08:48:37.500Z","identifier":"se:24000","analyserTimestampEnd":"2019-10-18T08:48:37.506Z","expiryTimestamp":"2019-10-18T08:48:38.006Z","combinerTimestamp":"2019-10-18T08:48:37.508Z","analyserTimestampStart":"2019-10-18T08:48:37.506Z","type":"type-2","value":8.627812934974763},{"emitterTimestamp":"2019-10-18T08:48:37.013Z","identifier":"se:33000","analyserTimestampEnd":"2019-10-18T08:48:37.118Z","expiryTimestamp":"2019-10-18T08:48:37.618Z","combinerTimestamp":"2019-10-18T08:48:37.125Z","analyserTimestampStart":"2019-10-18T08:48:37.118Z","type":"type-1","value":8.981996820167238},{"emitterTimestamp":"2019-10-18T08:48:37.020Z","identifier":"se:28000","analyserTimestampEnd":"2019-10-18T08:48:37.093Z","expiryTimestamp":"2019-10-18T08:48:37.593Z","combinerTimestamp":"2019-10-18T08:48:37.094Z","analyserTimestampStart":"2019-10-18T08:48:37.093Z","type":"type-3","value":9.736528750184666}],"fetchTimestamp":"2019-10-18T08:48:37.508Z","detectionTimestamp":"2019-10-18T08:48:37.508Z"}
{"identifier":"ce:37749","triggers":[{"emitterTimestamp":"2019-10-18T08:48:37.250Z","identifier":"se:15500","analyserTimestampEnd":"2019-10-18T08:48:37.257Z","expiryTimestamp":"2019-10-18T08:48:37.757Z","combinerTimestamp":"2019-10-18T08:48:37.258Z","analyserTimestampStart":"2019-10-18T08:48:37.257Z","type":"type-2","value":8.455171179909133},{"emitterTimestamp":"2019-10-18T08:48:36.787Z","identifier":"se:23000","analyserTimestampEnd":"2019-10-18T08:48:36.790Z","expiryTimestamp":"2019-10-18T08:48:37.290Z","combinerTimestamp":"2019-10-18T08:48:36.792Z","analyserTimestampStart":"2019-10-18T08:48:36.790Z","type":"type-1","value":6.797163709252752},{"emitterTimestamp":"2019-10-18T08:48:36.785Z","identifier":"se:19000","analyserTimestampEnd":"2019-10-18T08:48:36.786Z","expiryTimestamp":"2019-10-18T08:48:37.286Z","combinerTimestamp":"2019-10-18T08:48:36.787Z","analyserTimestampStart":"2019-10-18T08:48:36.786Z","type":"type-3","value":8.111762518232117}],"fetchTimestamp":"2019-10-18T08:48:37.258Z","detectionTimestamp":"2019-10-18T08:48:37.258Z"}
{"identifier":"ce:37783","triggers":[{"emitterTimestamp":"2019-10-18T08:48:37.567Z","identifier":"se:32500","analyserTimestampEnd":"2019-10-18T08:48:37.573Z","expiryTimestamp":"2019-10-18T08:48:38.073Z","combinerTimestamp":"2019-10-18T08:48:37.573Z","analyserTimestampStart":"2019-10-18T08:48:37.573Z","type":"type-2","value":6.340333685421605},{"emitterTimestamp":"2019-10-18T08:48:37.196Z","identifier":"se:41500","analyserTimestampEnd":"2019-10-18T08:48:37.241Z","expiryTimestamp":"2019-10-18T08:48:37.740Z","combinerTimestamp":"2019-10-18T08:48:37.241Z","analyserTimestampStart":"2019-10-18T08:48:37.240Z","type":"type-1","value":7.898895723349303},{"emitterTimestamp":"2019-10-18T08:48:37.248Z","identifier":"se:36500","analyserTimestampEnd":"2019-10-18T08:48:37.251Z","expiryTimestamp":"2019-10-18T08:48:37.751Z","combinerTimestamp":"2019-10-18T08:48:37.251Z","analyserTimestampStart":"2019-10-18T08:48:37.251Z","type":"type-3","value":6.797202242855877}],"fetchTimestamp":"2019-10-18T08:48:37.574Z","detectionTimestamp":"2019-10-18T08:48:37.574Z"}
{"identifier":"ce:37737","triggers":[{"emitterTimestamp":"2019-10-18T08:48:37.024Z","identifier":"se:9500","analyserTimestampEnd":"2019-10-18T08:48:37.069Z","expiryTimestamp":"2019-10-18T08:48:37.569Z","combinerTimestamp":"2019-10-18T08:48:37.080Z","analyserTimestampStart":"2019-10-18T08:48:37.069Z","type":"type-2","value":9.318190978169465},{"emitterTimestamp":"2019-10-18T08:48:36.619Z","identifier":"se:16500","analyserTimestampEnd":"2019-10-18T08:48:36.622Z","expiryTimestamp":"2019-10-18T08:48:37.122Z","combinerTimestamp":"2019-10-18T08:48:36.623Z","analyserTimestampStart":"2019-10-18T08:48:36.622Z","type":"type-1","value":8.940851693463333},{"emitterTimestamp":"2019-10-18T08:48:36.598Z","identifier":"se:11500","analyserTimestampEnd":"2019-10-18T08:48:36.600Z","expiryTimestamp":"2019-10-18T08:48:37.100Z","combinerTimestamp":"2019-10-18T08:48:36.601Z","analyserTimestampStart":"2019-10-18T08:48:36.600Z","type":"type-3","value":9.583244689600862}],"fetchTimestamp":"2019-10-18T08:48:37.080Z","detectionTimestamp":"2019-10-18T08:48:37.080Z"}
{"identifier":"ce:37772","triggers":[{"emitterTimestamp":"2019-10-18T08:48:37.523Z","identifier":"se:27000","analyserTimestampEnd":"2019-10-18T08:48:37.532Z","expiryTimestamp":"2019-10-18T08:48:38.032Z","combinerTimestamp":"2019-10-18T08:48:37.533Z","analyserTimestampStart":"2019-10-18T08:48:37.532Z","type":"type-2","value":8.348803515868454},{"emitterTimestamp":"2019-10-18T08:48:37.101Z","identifier":"se:36000","analyserTimestampEnd":"2019-10-18T08:48:37.155Z","expiryTimestamp":"2019-10-18T08:48:37.655Z","combinerTimestamp":"2019-10-18T08:48:37.157Z","analyserTimestampStart":"2019-10-18T08:48:37.155Z","type":"type-1","value":8.440557240968197},{"emitterTimestamp":"2019-10-18T08:48:37.086Z","identifier":"se:31000","analyserTimestampEnd":"2019-10-18T08:48:37.165Z","expiryTimestamp":"2019-10-18T08:48:37.665Z","combinerTimestamp":"2019-10-18T08:48:37.167Z","analyserTimestampStart":"2019-10-18T08:48:37.165Z","type":"type-3","value":7.241964339684847}],"fetchTimestamp":"2019-10-18T08:48:37.533Z","detectionTimestamp":"2019-10-18T08:48:37.533Z"}
{"identifier":"ce:37723","triggers":[{"emitterTimestamp":"2019-10-18T08:48:36.696Z","identifier":"se:2500","analyserTimestampEnd":"2019-10-18T08:48:36.704Z","expiryTimestamp":"2019-10-18T08:48:37.204Z","combinerTimestamp":"2019-10-18T08:48:36.706Z","analyserTimestampStart":"2019-10-18T08:48:36.704Z","type":"type-2","value":7.172659763487498},{"emitterTimestamp":"2019-10-18T08:48:36.287Z","identifier":"se:2500","analyserTimestampEnd":"2019-10-18T08:48:36.290Z","expiryTimestamp":"2019-10-18T08:48:36.790Z","combinerTimestamp":"2019-10-18T08:48:36.300Z","analyserTimestampStart":"2019-10-18T08:48:36.290Z","type":"type-1","value":6.460604036020407},{"emitterTimestamp":"2019-10-18T08:48:36.362Z","identifier":"se:2500","analyserTimestampEnd":"2019-10-18T08:48:36.374Z","expiryTimestamp":"2019-10-18T08:48:36.874Z","combinerTimestamp":"2019-10-18T08:48:36.375Z","analyserTimestampStart":"2019-10-18T08:48:36.374Z","type":"type-3","value":5.410376618499437}],"fetchTimestamp":"2019-10-18T08:48:36.706Z","detectionTimestamp":"2019-10-18T08:48:36.706Z"}
{"identifier":"ce:37781","triggers":[{"emitterTimestamp":"2019-10-18T08:48:37.560Z","identifier":"se:31500","analyserTimestampEnd":"2019-10-18T08:48:37.564Z","expiryTimestamp":"2019-10-18T08:48:38.064Z","combinerTimestamp":"2019-10-18T08:48:37.564Z","analyserTimestampStart":"2019-10-18T08:48:37.564Z","type":"type-2","value":8.585807266930846},{"emitterTimestamp":"2019-10-18T08:48:37.176Z","identifier":"se:40500","analyserTimestampEnd":"2019-10-18T08:48:37.224Z","expiryTimestamp":"2019-10-18T08:48:37.724Z","combinerTimestamp":"2019-10-18T08:48:37.225Z","analyserTimestampStart":"2019-10-18T08:48:37.224Z","type":"type-1","value":8.362479858167076},{"emitterTimestamp":"2019-10-18T08:48:37.224Z","identifier":"se:35500","analyserTimestampEnd":"2019-10-18T08:48:37.234Z","expiryTimestamp":"2019-10-18T08:48:37.733Z","combinerTimestamp":"2019-10-18T08:48:37.235Z","analyserTimestampStart":"2019-10-18T08:48:37.233Z","type":"type-3","value":5.380837416235002}],"fetchTimestamp":"2019-10-18T08:48:37.564Z","detectionTimestamp":"2019-10-18T08:48:37.564Z"}
{"identifier":"ce:37722","triggers":[{"emitterTimestamp":"2019-10-18T08:48:36.633Z","identifier":"se:2000","analyserTimestampEnd":"2019-10-18T08:48:36.637Z","expiryTimestamp":"2019-10-18T08:48:37.137Z","combinerTimestamp":"2019-10-18T08:48:36.638Z","analyserTimestampStart":"2019-10-18T08:48:36.637Z","type":"type-2","value":6.426127852210926},{"emitterTimestamp":"2019-10-18T08:48:36.268Z","identifier":"se:2000","analyserTimestampEnd":"2019-10-18T08:48:36.272Z","expiryTimestamp":"2019-10-18T08:48:36.772Z","combinerTimestamp":"2019-10-18T08:48:36.273Z","analyserTimestampStart":"2019-10-18T08:48:36.272Z","type":"type-1","value":7.063669028109113},{"emitterTimestamp":"2019-10-18T08:48:36.332Z","identifier":"se:2000","analyserTimestampEnd":"2019-10-18T08:48:36.352Z","expiryTimestamp":"2019-10-18T08:48:36.852Z","combinerTimestamp":"2019-10-18T08:48:36.353Z","analyserTimestampStart":"2019-10-18T08:48:36.352Z","type":"type-3","value":8.592121154113551}],"fetchTimestamp":"2019-10-18T08:48:36.638Z","detectionTimestamp":"2019-10-18T08:48:36.638Z"}
{"identifier":"ce:37782","triggers":[{"emitterTimestamp":"2019-10-18T08:48:37.565Z","identifier":"se:32000","analyserTimestampEnd":"2019-10-18T08:48:37.570Z","expiryTimestamp":"2019-10-18T08:48:38.070Z","combinerTimestamp":"2019-10-18T08:48:37.571Z","analyserTimestampStart":"2019-10-18T08:48:37.570Z","type":"type-2","value":6.097022449094691},{"emitterTimestamp":"2019-10-18T08:48:37.182Z","identifier":"se:41000","analyserTimestampEnd":"2019-10-18T08:48:37.227Z","expiryTimestamp":"2019-10-18T08:48:37.727Z","combinerTimestamp":"2019-10-18T08:48:37.227Z","analyserTimestampStart":"2019-10-18T08:48:37.226Z","type":"type-1","value":6.996443735447776},{"emitterTimestamp":"2019-10-18T08:48:37.235Z","identifier":"se:36000","analyserTimestampEnd":"2019-10-18T08:48:37.240Z","expiryTimestamp":"2019-10-18T08:48:37.740Z","combinerTimestamp":"2019-10-18T08:48:37.241Z","analyserTimestampStart":"2019-10-18T08:48:37.240Z","type":"type-3","value":8.003955161783601}],"fetchTimestamp":"2019-10-18T08:48:37.571Z","detectionTimestamp":"2019-10-18T08:48:37.571Z"}
{"identifier":"ce:37755","triggers":[{"emitterTimestamp":"2019-10-18T08:48:37.357Z","identifier":"se:18500","analyserTimestampEnd":"2019-10-18T08:48:37.374Z","expiryTimestamp":"2019-10-18T08:48:37.874Z","combinerTimestamp":"2019-10-18T08:48:37.375Z","analyserTimestampStart":"2019-10-18T08:48:37.374Z","type":"type-2","value":5.526745739644906},{"emitterTimestamp":"2019-10-18T08:48:36.868Z","identifier":"se:26500","analyserTimestampEnd":"2019-10-18T08:48:36.875Z","expiryTimestamp":"2019-10-18T08:48:37.375Z","combinerTimestamp":"2019-10-18T08:48:36.876Z","analyserTimestampStart":"2019-10-18T08:48:36.875Z","type":"type-1","value":5.965846512605183},{"emitterTimestamp":"2019-10-18T08:48:36.887Z","identifier":"se:22000","analyserTimestampEnd":"2019-10-18T08:48:36.892Z","expiryTimestamp":"2019-10-18T08:48:37.392Z","combinerTimestamp":"2019-10-18T08:48:36.893Z","analyserTimestampStart":"2019-10-18T08:48:36.892Z","type":"type-3","value":5.755809683074416}],"fetchTimestamp":"2019-10-18T08:48:37.375Z","detectionTimestamp":"2019-10-18T08:48:37.375Z"}
{"identifier":"ce:37793","triggers":[{"emitterTimestamp":"2019-10-18T08:48:37.607Z","identifier":"se:37500","analyserTimestampEnd":"2019-10-18T08:48:37.617Z","expiryTimestamp":"2019-10-18T08:48:38.117Z","combinerTimestamp":"2019-10-18T08:48:37.618Z","analyserTimestampStart":"2019-10-18T08:48:37.617Z","type":"type-2","value":9.636282077600502},{"emitterTimestamp":"2019-10-18T08:48:37.314Z","identifier":"se:46500","analyserTimestampEnd":"2019-10-18T08:48:37.326Z","expiryTimestamp":"2019-10-18T08:48:37.826Z","combinerTimestamp":"2019-10-18T08:48:37.327Z","analyserTimestampStart":"2019-10-18T08:48:37.326Z","type":"type-1","value":7.750294707340917},{"emitterTimestamp":"2019-10-18T08:48:37.331Z","identifier":"se:41500","analyserTimestampEnd":"2019-10-18T08:48:37.337Z","expiryTimestamp":"2019-10-18T08:48:37.837Z","combinerTimestamp":"2019-10-18T08:48:37.338Z","analyserTimestampStart":"2019-10-18T08:48:37.337Z","type":"type-3","value":6.479562238720559}],"fetchTimestamp":"2019-10-18T08:48:37.618Z","detectionTimestamp":"2019-10-18T08:48:37.618Z"}
{"identifier":"ce:37727","triggers":[{"emitterTimestamp":"2019-10-18T08:48:36.793Z","identifier":"se:4500","analyserTimestampEnd":"2019-10-18T08:48:36.798Z","expiryTimestamp":"2019-10-18T08:48:37.298Z","combinerTimestamp":"2019-10-18T08:48:36.799Z","analyserTimestampStart":"2019-10-18T08:48:36.798Z","type":"type-2","value":9.66891919511915},{"emitterTimestamp":"2019-10-18T08:48:36.347Z","identifier":"se:4500","analyserTimestampEnd":"2019-10-18T08:48:36.351Z","expiryTimestamp":"2019-10-18T08:48:36.851Z","combinerTimestamp":"2019-10-18T08:48:36.351Z","analyserTimestampStart":"2019-10-18T08:48:36.351Z","type":"type-1","value":9.591315507386561},{"emitterTimestamp":"2019-10-18T08:48:36.453Z","identifier":"se:4500","analyserTimestampEnd":"2019-10-18T08:48:36.484Z","expiryTimestamp":"2019-10-18T08:48:36.984Z","combinerTimestamp":"2019-10-18T08:48:36.484Z","analyserTimestampStart":"2019-10-18T08:48:36.484Z","type":"type-3","value":5.899533886522339}],"fetchTimestamp":"2019-10-18T08:48:36.799Z","detectionTimestamp":"2019-10-18T08:48:36.799Z"}
{"identifier":"ce:37733","triggers":[{"emitterTimestamp":"2019-10-18T08:48:36.952Z","identifier":"se:7500","analyserTimestampEnd":"2019-10-18T08:48:36.957Z","expiryTimestamp":"2019-10-18T08:48:37.457Z","combinerTimestamp":"2019-10-18T08:48:36.961Z","analyserTimestampStart":"2019-10-18T08:48:36.957Z","type":"type-2","value":8.95411136523793},{"emitterTimestamp":"2019-10-18T08:48:36.463Z","identifier":"se:10500","analyserTimestampEnd":"2019-10-18T08:48:36.466Z","expiryTimestamp":"2019-10-18T08:48:36.966Z","combinerTimestamp":"2019-10-18T08:48:36.466Z","analyserTimestampStart":"2019-10-18T08:48:36.466Z","type":"type-1","value":9.991644541327798},{"emitterTimestamp":"2019-10-18T08:48:36.528Z","identifier":"se:7500","analyserTimestampEnd":"2019-10-18T08:48:36.538Z","expiryTimestamp":"2019-10-18T08:48:37.038Z","combinerTimestamp":"2019-10-18T08:48:36.540Z","analyserTimestampStart":"2019-10-18T08:48:36.538Z","type":"type-3","value":8.059176223165185}],"fetchTimestamp":"2019-10-18T08:48:36.961Z","detectionTimestamp":"2019-10-18T08:48:36.961Z"}
{"identifier":"ce:37799","triggers":[{"emitterTimestamp":"2019-10-18T08:48:37.634Z","identifier":"se:40500","analyserTimestampEnd":"2019-10-18T08:48:37.637Z","expiryTimestamp":"2019-10-18T08:48:38.137Z","combinerTimestamp":"2019-10-18T08:48:37.638Z","analyserTimestampStart":"2019-10-18T08:48:37.637Z","type":"type-2","value":7.306444822545535},{"emitterTimestamp":"2019-10-18T08:48:37.372Z","identifier":"se:49500","analyserTimestampEnd":"2019-10-18T08:48:37.378Z","expiryTimestamp":"2019-10-18T08:48:37.878Z","combinerTimestamp":"2019-10-18T08:48:37.379Z","analyserTimestampStart":"2019-10-18T08:48:37.378Z","type":"type-1","value":7.440247349777556},{"emitterTimestamp":"2019-10-18T08:48:37.388Z","identifier":"se:44500","analyserTimestampEnd":"2019-10-18T08:48:37.391Z","expiryTimestamp":"2019-10-18T08:48:37.891Z","combinerTimestamp":"2019-10-18T08:48:37.392Z","analyserTimestampStart":"2019-10-18T08:48:37.391Z","type":"type-3","value":6.852570457585232}],"fetchTimestamp":"2019-10-18T08:48:37.638Z","detectionTimestamp":"2019-10-18T08:48:37.638Z"}
{"identifier":"ce:37747","triggers":[{"emitterTimestamp":"2019-10-18T08:48:37.220Z","identifier":"se:14500","analyserTimestampEnd":"2019-10-18T08:48:37.232Z","expiryTimestamp":"2019-10-18T08:48:37.732Z","combinerTimestamp":"2019-10-18T08:48:37.233Z","analyserTimestampStart":"2019-10-18T08:48:37.232Z","type":"type-2","value":9.0737185412479},{"emitterTimestamp":"2019-10-18T08:48:36.751Z","identifier":"se:22000","analyserTimestampEnd":"2019-10-18T08:48:36.755Z","expiryTimestamp":"2019-10-18T08:48:37.255Z","combinerTimestamp":"2019-10-18T08:48:36.756Z","analyserTimestampStart":"2019-10-18T08:48:36.755Z","type":"type-1","value":8.364057669068277},{"emitterTimestamp":"2019-10-18T08:48:36.756Z","identifier":"se:18000","analyserTimestampEnd":"2019-10-18T08:48:36.761Z","expiryTimestamp":"2019-10-18T08:48:37.261Z","combinerTimestamp":"2019-10-18T08:48:36.761Z","analyserTimestampStart":"2019-10-18T08:48:36.761Z","type":"type-3","value":9.015120715175886}],"fetchTimestamp":"2019-10-18T08:48:37.233Z","detectionTimestamp":"2019-10-18T08:48:37.233Z"}
{"identifier":"ce:37724","triggers":[{"emitterTimestamp":"2019-10-18T08:48:36.721Z","identifier":"se:3000","analyserTimestampEnd":"2019-10-18T08:48:36.724Z","expiryTimestamp":"2019-10-18T08:48:37.224Z","combinerTimestamp":"2019-10-18T08:48:36.725Z","analyserTimestampStart":"2019-10-18T08:48:36.724Z","type":"type-2","value":9.688863708888668},{"emitterTimestamp":"2019-10-18T08:48:36.299Z","identifier":"se:3000","analyserTimestampEnd":"2019-10-18T08:48:36.303Z","expiryTimestamp":"2019-10-18T08:48:36.803Z","combinerTimestamp":"2019-10-18T08:48:36.304Z","analyserTimestampStart":"2019-10-18T08:48:36.303Z","type":"type-1","value":5.263377547372628},{"emitterTimestamp":"2019-10-18T08:48:36.388Z","identifier":"se:3000","analyserTimestampEnd":"2019-10-18T08:48:36.397Z","expiryTimestamp":"2019-10-18T08:48:36.897Z","combinerTimestamp":"2019-10-18T08:48:36.398Z","analyserTimestampStart":"2019-10-18T08:48:36.397Z","type":"type-3","value":9.271494218969172}],"fetchTimestamp":"2019-10-18T08:48:36.725Z","detectionTimestamp":"2019-10-18T08:48:36.725Z"}
{"identifier":"ce:37777","triggers":[{"emitterTimestamp":"2019-10-18T08:48:37.546Z","identifier":"se:29500","analyserTimestampEnd":"2019-10-18T08:48:37.549Z","expiryTimestamp":"2019-10-18T08:48:38.049Z","combinerTimestamp":"2019-10-18T08:48:37.551Z","analyserTimestampStart":"2019-10-18T08:48:37.549Z","type":"type-2","value":6.87241609090419},{"emitterTimestamp":"2019-10-18T08:48:37.147Z","identifier":"se:38500","analyserTimestampEnd":"2019-10-18T08:48:37.194Z","expiryTimestamp":"2019-10-18T08:48:37.694Z","combinerTimestamp":"2019-10-18T08:48:37.200Z","analyserTimestampStart":"2019-10-18T08:48:37.194Z","type":"type-1","value":9.884238543941182},{"emitterTimestamp":"2019-10-18T08:48:37.158Z","identifier":"se:33500","analyserTimestampEnd":"2019-10-18T08:48:37.198Z","expiryTimestamp":"2019-10-18T08:48:37.698Z","combinerTimestamp":"2019-10-18T08:48:37.201Z","analyserTimestampStart":"2019-10-18T08:48:37.198Z","type":"type-3","value":6.627498589231877}],"fetchTimestamp":"2019-10-18T08:48:37.551Z","detectionTimestamp":"2019-10-18T08:48:37.551Z"}
{"identifier":"ce:37761","triggers":[{"emitterTimestamp":"2019-10-18T08:48:37.427Z","identifier":"se:21500","analyserTimestampEnd":"2019-10-18T08:48:37.462Z","expiryTimestamp":"2019-10-18T08:48:37.962Z","combinerTimestamp":"2019-10-18T08:48:37.465Z","analyserTimestampStart":"2019-10-18T08:48:37.462Z","type":"type-2","value":8.457072433201224},{"emitterTimestamp":"2019-10-18T08:48:36.964Z","identifier":"se:30500","analyserTimestampEnd":"2019-10-18T08:48:36.968Z","expiryTimestamp":"2019-10-18T08:48:37.468Z","combinerTimestamp":"2019-10-18T08:48:36.969Z","analyserTimestampStart":"2019-10-18T08:48:36.968Z","type":"type-1","value":5.654799100550845},{"emitterTimestamp":"2019-10-18T08:48:36.959Z","identifier":"se:25500","analyserTimestampEnd":"2019-10-18T08:48:36.967Z","expiryTimestamp":"2019-10-18T08:48:37.467Z","combinerTimestamp":"2019-10-18T08:48:36.968Z","analyserTimestampStart":"2019-10-18T08:48:36.967Z","type":"type-3","value":9.647680725842136}],"fetchTimestamp":"2019-10-18T08:48:37.465Z","detectionTimestamp":"2019-10-18T08:48:37.465Z"}
{"identifier":"ce:37728","triggers":[{"emitterTimestamp":"2019-10-18T08:48:36.842Z","identifier":"se:5000","analyserTimestampEnd":"2019-10-18T08:48:36.847Z","expiryTimestamp":"2019-10-18T08:48:37.347Z","combinerTimestamp":"2019-10-18T08:48:36.848Z","analyserTimestampStart":"2019-10-18T08:48:36.847Z","type":"type-2","value":8.266770368740332},{"emitterTimestamp":"2019-10-18T08:48:36.372Z","identifier":"se:5000","analyserTimestampEnd":"2019-10-18T08:48:36.377Z","expiryTimestamp":"2019-10-18T08:48:36.877Z","combinerTimestamp":"2019-10-18T08:48:36.378Z","analyserTimestampStart":"2019-10-18T08:48:36.377Z","type":"type-1","value":9.315130996399345},{"emitterTimestamp":"2019-10-18T08:48:36.483Z","identifier":"se:5000","analyserTimestampEnd":"2019-10-18T08:48:36.518Z","expiryTimestamp":"2019-10-18T08:48:37.018Z","combinerTimestamp":"2019-10-18T08:48:36.524Z","analyserTimestampStart":"2019-10-18T08:48:36.518Z","type":"type-3","value":6.905052692827737}],"fetchTimestamp":"2019-10-18T08:48:36.848Z","detectionTimestamp":"2019-10-18T08:48:36.848Z"}
{"identifier":"ce:37787","triggers":[{"emitterTimestamp":"2019-10-18T08:48:37.584Z","identifier":"se:34500","analyserTimestampEnd":"2019-10-18T08:48:37.593Z","expiryTimestamp":"2019-10-18T08:48:38.093Z","combinerTimestamp":"2019-10-18T08:48:37.598Z","analyserTimestampStart":"2019-10-18T08:48:37.593Z","type":"type-2","value":5.1742381950548},{"emitterTimestamp":"2019-10-18T08:48:37.250Z","identifier":"se:43500","analyserTimestampEnd":"2019-10-18T08:48:37.269Z","expiryTimestamp":"2019-10-18T08:48:37.769Z","combinerTimestamp":"2019-10-18T08:48:37.269Z","analyserTimestampStart":"2019-10-18T08:48:37.269Z","type":"type-1","value":7.611418141477293},{"emitterTimestamp":"2019-10-18T08:48:37.280Z","identifier":"se:38500","analyserTimestampEnd":"2019-10-18T08:48:37.288Z","expiryTimestamp":"2019-10-18T08:48:37.788Z","combinerTimestamp":"2019-10-18T08:48:37.289Z","analyserTimestampStart":"2019-10-18T08:48:37.288Z","type":"type-3","value":5.033091354491516}],"fetchTimestamp":"2019-10-18T08:48:37.598Z","detectionTimestamp":"2019-10-18T08:48:37.598Z"}
{"identifier":"ce:37757","triggers":[{"emitterTimestamp":"2019-10-18T08:48:37.391Z","identifier":"se:19500","analyserTimestampEnd":"2019-10-18T08:48:37.396Z","expiryTimestamp":"2019-10-18T08:48:37.896Z","combinerTimestamp":"2019-10-18T08:48:37.397Z","analyserTimestampStart":"2019-10-18T08:48:37.396Z","type":"type-2","value":9.962003885519378},{"emitterTimestamp":"2019-10-18T08:48:36.919Z","identifier":"se:28500","analyserTimestampEnd":"2019-10-18T08:48:36.922Z","expiryTimestamp":"2019-10-18T08:48:37.422Z","combinerTimestamp":"2019-10-18T08:48:36.923Z","analyserTimestampStart":"2019-10-18T08:48:36.922Z","type":"type-1","value":9.85820057580945},{"emitterTimestamp":"2019-10-18T08:48:36.907Z","identifier":"se:23000","analyserTimestampEnd":"2019-10-18T08:48:36.910Z","expiryTimestamp":"2019-10-18T08:48:37.410Z","combinerTimestamp":"2019-10-18T08:48:36.911Z","analyserTimestampStart":"2019-10-18T08:48:36.910Z","type":"type-3","value":7.709471298544299}],"fetchTimestamp":"2019-10-18T08:48:37.397Z","detectionTimestamp":"2019-10-18T08:48:37.397Z"}
{"identifier":"ce:37767","triggers":[{"emitterTimestamp":"2019-10-18T08:48:37.502Z","identifier":"se:24500","analyserTimestampEnd":"2019-10-18T08:48:37.510Z","expiryTimestamp":"2019-10-18T08:48:38.010Z","combinerTimestamp":"2019-10-18T08:48:37.510Z","analyserTimestampStart":"2019-10-18T08:48:37.510Z","type":"type-2","value":6.186812756307207},{"emitterTimestamp":"2019-10-18T08:48:37.020Z","identifier":"se:33500","analyserTimestampEnd":"2019-10-18T08:48:37.123Z","expiryTimestamp":"2019-10-18T08:48:37.623Z","combinerTimestamp":"2019-10-18T08:48:37.130Z","analyserTimestampStart":"2019-10-18T08:48:37.123Z","type":"type-1","value":6.394008230623145},{"emitterTimestamp":"2019-10-18T08:48:37.028Z","identifier":"se:28500","analyserTimestampEnd":"2019-10-18T08:48:37.096Z","expiryTimestamp":"2019-10-18T08:48:37.596Z","combinerTimestamp":"2019-10-18T08:48:37.097Z","analyserTimestampStart":"2019-10-18T08:48:37.096Z","type":"type-3","value":8.50026799956931}],"fetchTimestamp":"2019-10-18T08:48:37.510Z","detectionTimestamp":"2019-10-18T08:48:37.510Z"}
{"identifier":"ce:37735","triggers":[{"emitterTimestamp":"2019-10-18T08:48:37.016Z","identifier":"se:8500","analyserTimestampEnd":"2019-10-18T08:48:37.060Z","expiryTimestamp":"2019-10-18T08:48:37.560Z","combinerTimestamp":"2019-10-18T08:48:37.062Z","analyserTimestampStart":"2019-10-18T08:48:37.060Z","type":"type-2","value":8.751971464343113},{"emitterTimestamp":"2019-10-18T08:48:36.579Z","identifier":"se:15500","analyserTimestampEnd":"2019-10-18T08:48:36.581Z","expiryTimestamp":"2019-10-18T08:48:37.081Z","combinerTimestamp":"2019-10-18T08:48:36.584Z","analyserTimestampStart":"2019-10-18T08:48:36.581Z","type":"type-1","value":8.740973731611682},{"emitterTimestamp":"2019-10-18T08:48:36.580Z","identifier":"se:10500","analyserTimestampEnd":"2019-10-18T08:48:36.583Z","expiryTimestamp":"2019-10-18T08:48:37.083Z","combinerTimestamp":"2019-10-18T08:48:36.584Z","analyserTimestampStart":"2019-10-18T08:48:36.583Z","type":"type-3","value":9.398346880313802}],"fetchTimestamp":"2019-10-18T08:48:37.063Z","detectionTimestamp":"2019-10-18T08:48:37.063Z"}
{"identifier":"ce:37732","triggers":[{"emitterTimestamp":"2019-10-18T08:48:36.930Z","identifier":"se:7000","analyserTimestampEnd":"2019-10-18T08:48:36.936Z","expiryTimestamp":"2019-10-18T08:48:37.436Z","combinerTimestamp":"2019-10-18T08:48:36.940Z","analyserTimestampStart":"2019-10-18T08:48:36.936Z","type":"type-2","value":7.808603189507005},{"emitterTimestamp":"2019-10-18T08:48:36.432Z","identifier":"se:8500","analyserTimestampEnd":"2019-10-18T08:48:36.442Z","expiryTimestamp":"2019-10-18T08:48:36.942Z","combinerTimestamp":"2019-10-18T08:48:36.442Z","analyserTimestampStart":"2019-10-18T08:48:36.442Z","type":"type-1","value":7.026168782283852},{"emitterTimestamp":"2019-10-18T08:48:36.498Z","identifier":"se:7000","analyserTimestampEnd":"2019-10-18T08:48:36.535Z","expiryTimestamp":"2019-10-18T08:48:37.035Z","combinerTimestamp":"2019-10-18T08:48:36.535Z","analyserTimestampStart":"2019-10-18T08:48:36.535Z","type":"type-3","value":7.033595725379209}],"fetchTimestamp":"2019-10-18T08:48:36.940Z","detectionTimestamp":"2019-10-18T08:48:36.940Z"}
{"identifier":"ce:37754","triggers":[{"emitterTimestamp":"2019-10-18T08:48:37.349Z","identifier":"se:18000","analyserTimestampEnd":"2019-10-18T08:48:37.368Z","expiryTimestamp":"2019-10-18T08:48:37.867Z","combinerTimestamp":"2019-10-18T08:48:37.368Z","analyserTimestampStart":"2019-10-18T08:48:37.367Z","type":"type-2","value":9.112512766656495},{"emitterTimestamp":"2019-10-18T08:48:36.864Z","identifier":"se:26000","analyserTimestampEnd":"2019-10-18T08:48:36.873Z","expiryTimestamp":"2019-10-18T08:48:37.373Z","combinerTimestamp":"2019-10-18T08:48:36.873Z","analyserTimestampStart":"2019-10-18T08:48:36.873Z","type":"type-1","value":6.879859413473569},{"emitterTimestamp":"2019-10-18T08:48:36.852Z","identifier":"se:21500","analyserTimestampEnd":"2019-10-18T08:48:36.887Z","expiryTimestamp":"2019-10-18T08:48:37.387Z","combinerTimestamp":"2019-10-18T08:48:36.887Z","analyserTimestampStart":"2019-10-18T08:48:36.887Z","type":"type-3","value":5.395826146654717}],"fetchTimestamp":"2019-10-18T08:48:37.368Z","detectionTimestamp":"2019-10-18T08:48:37.368Z"}
{"identifier":"ce:37750","triggers":[{"emitterTimestamp":"2019-10-18T08:48:37.267Z","identifier":"se:16000","analyserTimestampEnd":"2019-10-18T08:48:37.274Z","expiryTimestamp":"2019-10-18T08:48:37.774Z","combinerTimestamp":"2019-10-18T08:48:37.275Z","analyserTimestampStart":"2019-10-18T08:48:37.274Z","type":"type-2","value":7.538993907784276},{"emitterTimestamp":"2019-10-18T08:48:36.805Z","identifier":"se:23500","analyserTimestampEnd":"2019-10-18T08:48:36.808Z","expiryTimestamp":"2019-10-18T08:48:37.308Z","combinerTimestamp":"2019-10-18T08:48:36.810Z","analyserTimestampStart":"2019-10-18T08:48:36.808Z","type":"type-1","value":6.584569515558224},{"emitterTimestamp":"2019-10-18T08:48:36.796Z","identifier":"se:19500","analyserTimestampEnd":"2019-10-18T08:48:36.801Z","expiryTimestamp":"2019-10-18T08:48:37.301Z","combinerTimestamp":"2019-10-18T08:48:36.802Z","analyserTimestampStart":"2019-10-18T08:48:36.801Z","type":"type-3","value":8.380080873427028}],"fetchTimestamp":"2019-10-18T08:48:37.275Z","detectionTimestamp":"2019-10-18T08:48:37.275Z"}
{"identifier":"ce:37776","triggers":[{"emitterTimestamp":"2019-10-18T08:48:37.539Z","identifier":"se:29000","analyserTimestampEnd":"2019-10-18T08:48:37.543Z","expiryTimestamp":"2019-10-18T08:48:38.043Z","combinerTimestamp":"2019-10-18T08:48:37.544Z","analyserTimestampStart":"2019-10-18T08:48:37.543Z","type":"type-2","value":8.3839053224523},{"emitterTimestamp":"2019-10-18T08:48:37.141Z","identifier":"se:38000","analyserTimestampEnd":"2019-10-18T08:48:37.187Z","expiryTimestamp":"2019-10-18T08:48:37.687Z","combinerTimestamp":"2019-10-18T08:48:37.191Z","analyserTimestampStart":"2019-10-18T08:48:37.187Z","type":"type-1","value":5.283496610405884},{"emitterTimestamp":"2019-10-18T08:48:37.144Z","identifier":"se:33000","analyserTimestampEnd":"2019-10-18T08:48:37.194Z","expiryTimestamp":"2019-10-18T08:48:37.694Z","combinerTimestamp":"2019-10-18T08:48:37.196Z","analyserTimestampStart":"2019-10-18T08:48:37.194Z","type":"type-3","value":6.168492982689552}],"fetchTimestamp":"2019-10-18T08:48:37.544Z","detectionTimestamp":"2019-10-18T08:48:37.544Z"}
{"identifier":"ce:37742","triggers":[{"emitterTimestamp":"2019-10-18T08:48:37.135Z","identifier":"se:12000","analyserTimestampEnd":"2019-10-18T08:48:37.157Z","expiryTimestamp":"2019-10-18T08:48:37.657Z","combinerTimestamp":"2019-10-18T08:48:37.159Z","analyserTimestampStart":"2019-10-18T08:48:37.157Z","type":"type-2","value":6.726650095027523},{"emitterTimestamp":"2019-10-18T08:48:36.673Z","identifier":"se:19000","analyserTimestampEnd":"2019-10-18T08:48:36.677Z","expiryTimestamp":"2019-10-18T08:48:37.177Z","combinerTimestamp":"2019-10-18T08:48:36.678Z","analyserTimestampStart":"2019-10-18T08:48:36.677Z","type":"type-1","value":5.555572011961835},{"emitterTimestamp":"2019-10-18T08:48:36.655Z","identifier":"se:15000","analyserTimestampEnd":"2019-10-18T08:48:36.660Z","expiryTimestamp":"2019-10-18T08:48:37.160Z","combinerTimestamp":"2019-10-18T08:48:36.660Z","analyserTimestampStart":"2019-10-18T08:48:36.660Z","type":"type-3","value":5.039881682562567}],"fetchTimestamp":"2019-10-18T08:48:37.159Z","detectionTimestamp":"2019-10-18T08:48:37.159Z"}
{"identifier":"ce:37796","triggers":[{"emitterTimestamp":"2019-10-18T08:48:37.623Z","identifier":"se:39000","analyserTimestampEnd":"2019-10-18T08:48:37.628Z","expiryTimestamp":"2019-10-18T08:48:38.128Z","combinerTimestamp":"2019-10-18T08:48:37.628Z","analyserTimestampStart":"2019-10-18T08:48:37.628Z","type":"type-2","value":6.863970810520856},{"emitterTimestamp":"2019-10-18T08:48:37.346Z","identifier":"se:48000","analyserTimestampEnd":"2019-10-18T08:48:37.350Z","expiryTimestamp":"2019-10-18T08:48:37.850Z","combinerTimestamp":"2019-10-18T08:48:37.351Z","analyserTimestampStart":"2019-10-18T08:48:37.350Z","type":"type-1","value":9.644416292262681},{"emitterTimestamp":"2019-10-18T08:48:37.360Z","identifier":"se:43000","analyserTimestampEnd":"2019-10-18T08:48:37.363Z","expiryTimestamp":"2019-10-18T08:48:37.863Z","combinerTimestamp":"2019-10-18T08:48:37.364Z","analyserTimestampStart":"2019-10-18T08:48:37.363Z","type":"type-3","value":5.926444672804484}],"fetchTimestamp":"2019-10-18T08:48:37.628Z","detectionTimestamp":"2019-10-18T08:48:37.628Z"}
{"identifier":"ce:37763","triggers":[{"emitterTimestamp":"2019-10-18T08:48:37.478Z","identifier":"se:22500","analyserTimestampEnd":"2019-10-18T08:48:37.483Z","expiryTimestamp":"2019-10-18T08:48:37.983Z","combinerTimestamp":"2019-10-18T08:48:37.483Z","analyserTimestampStart":"2019-10-18T08:48:37.483Z","type":"type-2","value":5.965033835268633},{"emitterTimestamp":"2019-10-18T08:48:36.981Z","identifier":"se:31500","analyserTimestampEnd":"2019-10-18T08:48:37.073Z","expiryTimestamp":"2019-10-18T08:48:37.573Z","combinerTimestamp":"2019-10-18T08:48:37.080Z","analyserTimestampStart":"2019-10-18T08:48:37.073Z","type":"type-1","value":6.192491567356345},{"emitterTimestamp":"2019-10-18T08:48:36.998Z","identifier":"se:26500","analyserTimestampEnd":"2019-10-18T08:48:37.066Z","expiryTimestamp":"2019-10-18T08:48:37.566Z","combinerTimestamp":"2019-10-18T08:48:37.074Z","analyserTimestampStart":"2019-10-18T08:48:37.066Z","type":"type-3","value":9.371306002460713}],"fetchTimestamp":"2019-10-18T08:48:37.483Z","detectionTimestamp":"2019-10-18T08:48:37.483Z"}
{"identifier":"ce:37774","triggers":[{"emitterTimestamp":"2019-10-18T08:48:37.528Z","identifier":"se:28000","analyserTimestampEnd":"2019-10-18T08:48:37.537Z","expiryTimestamp":"2019-10-18T08:48:38.037Z","combinerTimestamp":"2019-10-18T08:48:37.538Z","analyserTimestampStart":"2019-10-18T08:48:37.537Z","type":"type-2","value":8.031260120820782},{"emitterTimestamp":"2019-10-18T08:48:37.115Z","identifier":"se:37000","analyserTimestampEnd":"2019-10-18T08:48:37.169Z","expiryTimestamp":"2019-10-18T08:48:37.668Z","combinerTimestamp":"2019-10-18T08:48:37.171Z","analyserTimestampStart":"2019-10-18T08:48:37.168Z","type":"type-1","value":9.983137250221477},{"emitterTimestamp":"2019-10-18T08:48:37.105Z","identifier":"se:32000","analyserTimestampEnd":"2019-10-18T08:48:37.185Z","expiryTimestamp":"2019-10-18T08:48:37.685Z","combinerTimestamp":"2019-10-18T08:48:37.187Z","analyserTimestampStart":"2019-10-18T08:48:37.185Z","type":"type-3","value":5.260311268746109}],"fetchTimestamp":"2019-10-18T08:48:37.538Z","detectionTimestamp":"2019-10-18T08:48:37.538Z"}
{"identifier":"ce:37795","triggers":[{"emitterTimestamp":"2019-10-18T08:48:37.617Z","identifier":"se:38500","analyserTimestampEnd":"2019-10-18T08:48:37.622Z","expiryTimestamp":"2019-10-18T08:48:38.122Z","combinerTimestamp":"2019-10-18T08:48:37.622Z","analyserTimestampStart":"2019-10-18T08:48:37.622Z","type":"type-2","value":9.500665857748716},{"emitterTimestamp":"2019-10-18T08:48:37.338Z","identifier":"se:47500","analyserTimestampEnd":"2019-10-18T08:48:37.343Z","expiryTimestamp":"2019-10-18T08:48:37.843Z","combinerTimestamp":"2019-10-18T08:48:37.345Z","analyserTimestampStart":"2019-10-18T08:48:37.343Z","type":"type-1","value":9.68506861418449},{"emitterTimestamp":"2019-10-18T08:48:37.350Z","identifier":"se:42500","analyserTimestampEnd":"2019-10-18T08:48:37.355Z","expiryTimestamp":"2019-10-18T08:48:37.855Z","combinerTimestamp":"2019-10-18T08:48:37.356Z","analyserTimestampStart":"2019-10-18T08:48:37.355Z","type":"type-3","value":6.203672838049537}],"fetchTimestamp":"2019-10-18T08:48:37.622Z","detectionTimestamp":"2019-10-18T08:48:37.622Z"}
{"identifier":"ce:37734","triggers":[{"emitterTimestamp":"2019-10-18T08:48:37Z","identifier":"se:8000","analyserTimestampEnd":"2019-10-18T08:48:37.052Z","expiryTimestamp":"2019-10-18T08:48:37.552Z","combinerTimestamp":"2019-10-18T08:48:37.062Z","analyserTimestampStart":"2019-10-18T08:48:37.052Z","type":"type-2","value":7.596746364323906},{"emitterTimestamp":"2019-10-18T08:48:36.566Z","identifier":"se:15000","analyserTimestampEnd":"2019-10-18T08:48:36.569Z","expiryTimestamp":"2019-10-18T08:48:37.069Z","combinerTimestamp":"2019-10-18T08:48:36.572Z","analyserTimestampStart":"2019-10-18T08:48:36.569Z","type":"type-1","value":8.506754482821073},{"emitterTimestamp":"2019-10-18T08:48:36.569Z","identifier":"se:10000","analyserTimestampEnd":"2019-10-18T08:48:36.573Z","expiryTimestamp":"2019-10-18T08:48:37.073Z","combinerTimestamp":"2019-10-18T08:48:36.573Z","analyserTimestampStart":"2019-10-18T08:48:36.573Z","type":"type-3","value":9.759598923354952}],"fetchTimestamp":"2019-10-18T08:48:37.063Z","detectionTimestamp":"2019-10-18T08:48:37.063Z"}
{"identifier":"ce:37736","triggers":[{"emitterTimestamp":"2019-10-18T08:48:37.020Z","identifier":"se:9000","analyserTimestampEnd":"2019-10-18T08:48:37.063Z","expiryTimestamp":"2019-10-18T08:48:37.563Z","combinerTimestamp":"2019-10-18T08:48:37.068Z","analyserTimestampStart":"2019-10-18T08:48:37.063Z","type":"type-2","value":6.8239508280923875},{"emitterTimestamp":"2019-10-18T08:48:36.594Z","identifier":"se:16000","analyserTimestampEnd":"2019-10-18T08:48:36.597Z","expiryTimestamp":"2019-10-18T08:48:37.097Z","combinerTimestamp":"2019-10-18T08:48:36.599Z","analyserTimestampStart":"2019-10-18T08:48:36.597Z","type":"type-1","value":5.775790324813729},{"emitterTimestamp":"2019-10-18T08:48:36.587Z","identifier":"se:11000","analyserTimestampEnd":"2019-10-18T08:48:36.589Z","expiryTimestamp":"2019-10-18T08:48:37.089Z","combinerTimestamp":"2019-10-18T08:48:36.590Z","analyserTimestampStart":"2019-10-18T08:48:36.589Z","type":"type-3","value":5.652314359582081}],"fetchTimestamp":"2019-10-18T08:48:37.068Z","detectionTimestamp":"2019-10-18T08:48:37.068Z"}
{"identifier":"ce:37760","triggers":[{"emitterTimestamp":"2019-10-18T08:48:37.421Z","identifier":"se:21000","analyserTimestampEnd":"2019-10-18T08:48:37.428Z","expiryTimestamp":"2019-10-18T08:48:37.928Z","combinerTimestamp":"2019-10-18T08:48:37.428Z","analyserTimestampStart":"2019-10-18T08:48:37.428Z","type":"type-2","value":8.178716568071447},{"emitterTimestamp":"2019-10-18T08:48:36.952Z","identifier":"se:30000","analyserTimestampEnd":"2019-10-18T08:48:36.958Z","expiryTimestamp":"2019-10-18T08:48:37.458Z","combinerTimestamp":"2019-10-18T08:48:36.959Z","analyserTimestampStart":"2019-10-18T08:48:36.958Z","type":"type-1","value":8.1124687959925},{"emitterTimestamp":"2019-10-18T08:48:36.943Z","identifier":"se:24500","analyserTimestampEnd":"2019-10-18T08:48:36.947Z","expiryTimestamp":"2019-10-18T08:48:37.447Z","combinerTimestamp":"2019-10-18T08:48:36.948Z","analyserTimestampStart":"2019-10-18T08:48:36.947Z","type":"type-3","value":5.42978207660057}],"fetchTimestamp":"2019-10-18T08:48:37.429Z","detectionTimestamp":"2019-10-18T08:48:37.429Z"}
{"identifier":"ce:37719","triggers":[{"emitterTimestamp":"2019-10-18T08:48:36.393Z","identifier":"se:500","analyserTimestampEnd":"2019-10-18T08:48:36.397Z","expiryTimestamp":"2019-10-18T08:48:36.897Z","combinerTimestamp":"2019-10-18T08:48:36.399Z","analyserTimestampStart":"2019-10-18T08:48:36.397Z","type":"type-2","value":9.267471924128113},{"emitterTimestamp":"2019-10-18T08:48:36.213Z","identifier":"se:500","analyserTimestampEnd":"2019-10-18T08:48:36.216Z","expiryTimestamp":"2019-10-18T08:48:36.716Z","combinerTimestamp":"2019-10-18T08:48:36.216Z","analyserTimestampStart":"2019-10-18T08:48:36.216Z","type":"type-1","value":8.602837524811484},{"emitterTimestamp":"2019-10-18T08:48:36.233Z","identifier":"se:500","analyserTimestampEnd":"2019-10-18T08:48:36.253Z","expiryTimestamp":"2019-10-18T08:48:36.753Z","combinerTimestamp":"2019-10-18T08:48:36.254Z","analyserTimestampStart":"2019-10-18T08:48:36.253Z","type":"type-3","value":5.246259072442446}],"fetchTimestamp":"2019-10-18T08:48:36.399Z","detectionTimestamp":"2019-10-18T08:48:36.399Z"}
{"identifier":"ce:37753","triggers":[{"emitterTimestamp":"2019-10-18T08:48:37.333Z","identifier":"se:17500","analyserTimestampEnd":"2019-10-18T08:48:37.340Z","expiryTimestamp":"2019-10-18T08:48:37.840Z","combinerTimestamp":"2019-10-18T08:48:37.341Z","analyserTimestampStart":"2019-10-18T08:48:37.340Z","type":"type-2","value":6.29419997793374},{"emitterTimestamp":"2019-10-18T08:48:36.837Z","identifier":"se:25000","analyserTimestampEnd":"2019-10-18T08:48:36.842Z","expiryTimestamp":"2019-10-18T08:48:37.342Z","combinerTimestamp":"2019-10-18T08:48:36.842Z","analyserTimestampStart":"2019-10-18T08:48:36.842Z","type":"type-1","value":7.839020043157568},{"emitterTimestamp":"2019-10-18T08:48:36.840Z","identifier":"se:21000","analyserTimestampEnd":"2019-10-18T08:48:36.844Z","expiryTimestamp":"2019-10-18T08:48:37.344Z","combinerTimestamp":"2019-10-18T08:48:36.845Z","analyserTimestampStart":"2019-10-18T08:48:36.844Z","type":"type-3","value":5.088989335707272}],"fetchTimestamp":"2019-10-18T08:48:37.341Z","detectionTimestamp":"2019-10-18T08:48:37.341Z"}
{"identifier":"ce:37721","triggers":[{"emitterTimestamp":"2019-10-18T08:48:36.586Z","identifier":"se:1500","analyserTimestampEnd":"2019-10-18T08:48:36.593Z","expiryTimestamp":"2019-10-18T08:48:37.092Z","combinerTimestamp":"2019-10-18T08:48:36.594Z","analyserTimestampStart":"2019-10-18T08:48:36.592Z","type":"type-2","value":8.358508931576067},{"emitterTimestamp":"2019-10-18T08:48:36.250Z","identifier":"se:1500","analyserTimestampEnd":"2019-10-18T08:48:36.255Z","expiryTimestamp":"2019-10-18T08:48:36.755Z","combinerTimestamp":"2019-10-18T08:48:36.256Z","analyserTimestampStart":"2019-10-18T08:48:36.255Z","type":"type-1","value":7.169674658759435},{"emitterTimestamp":"2019-10-18T08:48:36.308Z","identifier":"se:1500","analyserTimestampEnd":"2019-10-18T08:48:36.312Z","expiryTimestamp":"2019-10-18T08:48:36.812Z","combinerTimestamp":"2019-10-18T08:48:36.314Z","analyserTimestampStart":"2019-10-18T08:48:36.312Z","type":"type-3","value":9.816332359932737}],"fetchTimestamp":"2019-10-18T08:48:36.594Z","detectionTimestamp":"2019-10-18T08:48:36.594Z"}
{"identifier":"ce:37764","triggers":[{"emitterTimestamp":"2019-10-18T08:48:37.493Z","identifier":"se:23000","analyserTimestampEnd":"2019-10-18T08:48:37.496Z","expiryTimestamp":"2019-10-18T08:48:37.996Z","combinerTimestamp":"2019-10-18T08:48:37.497Z","analyserTimestampStart":"2019-10-18T08:48:37.496Z","type":"type-2","value":5.4014060459298365},{"emitterTimestamp":"2019-10-18T08:48:36.990Z","identifier":"se:32000","analyserTimestampEnd":"2019-10-18T08:48:37.100Z","expiryTimestamp":"2019-10-18T08:48:37.600Z","combinerTimestamp":"2019-10-18T08:48:37.109Z","analyserTimestampStart":"2019-10-18T08:48:37.100Z","type":"type-1","value":5.188098070561732},{"emitterTimestamp":"2019-10-18T08:48:37.008Z","identifier":"se:27000","analyserTimestampEnd":"2019-10-18T08:48:37.078Z","expiryTimestamp":"2019-10-18T08:48:37.578Z","combinerTimestamp":"2019-10-18T08:48:37.089Z","analyserTimestampStart":"2019-10-18T08:48:37.078Z","type":"type-3","value":9.94759005714823}],"fetchTimestamp":"2019-10-18T08:48:37.497Z","detectionTimestamp":"2019-10-18T08:48:37.497Z"}
{"identifier":"ce:37775","triggers":[{"emitterTimestamp":"2019-10-18T08:48:37.531Z","identifier":"se:28500","analyserTimestampEnd":"2019-10-18T08:48:37.540Z","expiryTimestamp":"2019-10-18T08:48:38.039Z","combinerTimestamp":"2019-10-18T08:48:37.542Z","analyserTimestampStart":"2019-10-18T08:48:37.539Z","type":"type-2","value":7.149939366904211},{"emitterTimestamp":"2019-10-18T08:48:37.125Z","identifier":"se:37500","analyserTimestampEnd":"2019-10-18T08:48:37.176Z","expiryTimestamp":"2019-10-18T08:48:37.676Z","combinerTimestamp":"2019-10-18T08:48:37.177Z","analyserTimestampStart":"2019-10-18T08:48:37.176Z","type":"type-1","value":7.627027241126623},{"emitterTimestamp":"2019-10-18T08:48:37.118Z","identifier":"se:32500","analyserTimestampEnd":"2019-10-18T08:48:37.189Z","expiryTimestamp":"2019-10-18T08:48:37.689Z","combinerTimestamp":"2019-10-18T08:48:37.193Z","analyserTimestampStart":"2019-10-18T08:48:37.189Z","type":"type-3","value":9.726388898392464}],"fetchTimestamp":"2019-10-18T08:48:37.542Z","detectionTimestamp":"2019-10-18T08:48:37.542Z"}
{"identifier":"ce:37771","triggers":[{"emitterTimestamp":"2019-10-18T08:48:37.520Z","identifier":"se:26500","analyserTimestampEnd":"2019-10-18T08:48:37.529Z","expiryTimestamp":"2019-10-18T08:48:38.029Z","combinerTimestamp":"2019-10-18T08:48:37.531Z","analyserTimestampStart":"2019-10-18T08:48:37.529Z","type":"type-2","value":6.276657405598734},{"emitterTimestamp":"2019-10-18T08:48:37.093Z","identifier":"se:35500","analyserTimestampEnd":"2019-10-18T08:48:37.150Z","expiryTimestamp":"2019-10-18T08:48:37.650Z","combinerTimestamp":"2019-10-18T08:48:37.157Z","analyserTimestampStart":"2019-10-18T08:48:37.150Z","type":"type-1","value":9.857452713661683},{"emitterTimestamp":"2019-10-18T08:48:37.081Z","identifier":"se:30500","analyserTimestampEnd":"2019-10-18T08:48:37.160Z","expiryTimestamp":"2019-10-18T08:48:37.660Z","combinerTimestamp":"2019-10-18T08:48:37.162Z","analyserTimestampStart":"2019-10-18T08:48:37.160Z","type":"type-3","value":7.306383876263246}],"fetchTimestamp":"2019-10-18T08:48:37.531Z","detectionTimestamp":"2019-10-18T08:48:37.531Z"}
{"identifier":"ce:37744","triggers":[{"emitterTimestamp":"2019-10-18T08:48:37.173Z","identifier":"se:13000","analyserTimestampEnd":"2019-10-18T08:48:37.179Z","expiryTimestamp":"2019-10-18T08:48:37.679Z","combinerTimestamp":"2019-10-18T08:48:37.182Z","analyserTimestampStart":"2019-10-18T08:48:37.179Z","type":"type-2","value":5.3346273824265396},{"emitterTimestamp":"2019-10-18T08:48:36.691Z","identifier":"se:20000","analyserTimestampEnd":"2019-10-18T08:48:36.695Z","expiryTimestamp":"2019-10-18T08:48:37.195Z","combinerTimestamp":"2019-10-18T08:48:36.697Z","analyserTimestampStart":"2019-10-18T08:48:36.695Z","type":"type-1","value":8.388313227921849},{"emitterTimestamp":"2019-10-18T08:48:36.704Z","identifier":"se:16500","analyserTimestampEnd":"2019-10-18T08:48:36.708Z","expiryTimestamp":"2019-10-18T08:48:37.208Z","combinerTimestamp":"2019-10-18T08:48:36.709Z","analyserTimestampStart":"2019-10-18T08:48:36.708Z","type":"type-3","value":8.688338837829509}],"fetchTimestamp":"2019-10-18T08:48:37.182Z","detectionTimestamp":"2019-10-18T08:48:37.182Z"}
{"identifier":"ce:37720","triggers":[{"emitterTimestamp":"2019-10-18T08:48:36.470Z","identifier":"se:1000","analyserTimestampEnd":"2019-10-18T08:48:36.474Z","expiryTimestamp":"2019-10-18T08:48:36.974Z","combinerTimestamp":"2019-10-18T08:48:36.475Z","analyserTimestampStart":"2019-10-18T08:48:36.474Z","type":"type-2","value":5.911972322603766},{"emitterTimestamp":"2019-10-18T08:48:36.234Z","identifier":"se:1000","analyserTimestampEnd":"2019-10-18T08:48:36.245Z","expiryTimestamp":"2019-10-18T08:48:36.745Z","combinerTimestamp":"2019-10-18T08:48:36.247Z","analyserTimestampStart":"2019-10-18T08:48:36.245Z","type":"type-1","value":7.9484596823011},{"emitterTimestamp":"2019-10-18T08:48:36.271Z","identifier":"se:1000","analyserTimestampEnd":"2019-10-18T08:48:36.277Z","expiryTimestamp":"2019-10-18T08:48:36.777Z","combinerTimestamp":"2019-10-18T08:48:36.277Z","analyserTimestampStart":"2019-10-18T08:48:36.277Z","type":"type-3","value":9.144949627263014}],"fetchTimestamp":"2019-10-18T08:48:36.475Z","detectionTimestamp":"2019-10-18T08:48:36.475Z"}
{"identifier":"ce:37740","triggers":[{"emitterTimestamp":"2019-10-18T08:48:37.095Z","identifier":"se:11000","analyserTimestampEnd":"2019-10-18T08:48:37.100Z","expiryTimestamp":"2019-10-18T08:48:37.600Z","combinerTimestamp":"2019-10-18T08:48:37.102Z","analyserTimestampStart":"2019-10-18T08:48:37.100Z","type":"type-2","value":5.895425520986728},{"emitterTimestamp":"2019-10-18T08:48:36.657Z","identifier":"se:18000","analyserTimestampEnd":"2019-10-18T08:48:36.667Z","expiryTimestamp":"2019-10-18T08:48:37.167Z","combinerTimestamp":"2019-10-18T08:48:36.668Z","analyserTimestampStart":"2019-10-18T08:48:36.667Z","type":"type-1","value":8.201302548296919},{"emitterTimestamp":"2019-10-18T08:48:36.618Z","identifier":"se:13000","analyserTimestampEnd":"2019-10-18T08:48:36.621Z","expiryTimestamp":"2019-10-18T08:48:37.121Z","combinerTimestamp":"2019-10-18T08:48:36.621Z","analyserTimestampStart":"2019-10-18T08:48:36.621Z","type":"type-3","value":6.953728001332021}],"fetchTimestamp":"2019-10-18T08:48:37.102Z","detectionTimestamp":"2019-10-18T08:48:37.102Z"}
{"identifier":"ce:37752","triggers":[{"emitterTimestamp":"2019-10-18T08:48:37.310Z","identifier":"se:17000","analyserTimestampEnd":"2019-10-18T08:48:37.317Z","expiryTimestamp":"2019-10-18T08:48:37.817Z","combinerTimestamp":"2019-10-18T08:48:37.318Z","analyserTimestampStart":"2019-10-18T08:48:37.317Z","type":"type-2","value":5.258179251981726},{"emitterTimestamp":"2019-10-18T08:48:36.824Z","identifier":"se:24500","analyserTimestampEnd":"2019-10-18T08:48:36.828Z","expiryTimestamp":"2019-10-18T08:48:37.328Z","combinerTimestamp":"2019-10-18T08:48:36.829Z","analyserTimestampStart":"2019-10-18T08:48:36.828Z","type":"type-1","value":7.580601289451453},{"emitterTimestamp":"2019-10-18T08:48:36.826Z","identifier":"se:20500","analyserTimestampEnd":"2019-10-18T08:48:36.829Z","expiryTimestamp":"2019-10-18T08:48:37.329Z","combinerTimestamp":"2019-10-18T08:48:36.831Z","analyserTimestampStart":"2019-10-18T08:48:36.829Z","type":"type-3","value":5.7791509533453524}],"fetchTimestamp":"2019-10-18T08:48:37.318Z","detectionTimestamp":"2019-10-18T08:48:37.318Z"}
{"identifier":"ce:37726","triggers":[{"emitterTimestamp":"2019-10-18T08:48:36.760Z","identifier":"se:4000","analyserTimestampEnd":"2019-10-18T08:48:36.764Z","expiryTimestamp":"2019-10-18T08:48:37.264Z","combinerTimestamp":"2019-10-18T08:48:36.767Z","analyserTimestampStart":"2019-10-18T08:48:36.764Z","type":"type-2","value":9.637542464286266},{"emitterTimestamp":"2019-10-18T08:48:36.332Z","identifier":"se:4000","analyserTimestampEnd":"2019-10-18T08:48:36.336Z","expiryTimestamp":"2019-10-18T08:48:36.836Z","combinerTimestamp":"2019-10-18T08:48:36.337Z","analyserTimestampStart":"2019-10-18T08:48:36.336Z","type":"type-1","value":8.805369288107393},{"emitterTimestamp":"2019-10-18T08:48:36.440Z","identifier":"se:4000","analyserTimestampEnd":"2019-10-18T08:48:36.480Z","expiryTimestamp":"2019-10-18T08:48:36.980Z","combinerTimestamp":"2019-10-18T08:48:36.481Z","analyserTimestampStart":"2019-10-18T08:48:36.480Z","type":"type-3","value":5.565204891154149}],"fetchTimestamp":"2019-10-18T08:48:36.767Z","detectionTimestamp":"2019-10-18T08:48:36.767Z"}
{"identifier":"ce:37780","triggers":[{"emitterTimestamp":"2019-10-18T08:48:37.557Z","identifier":"se:31000","analyserTimestampEnd":"2019-10-18T08:48:37.561Z","expiryTimestamp":"2019-10-18T08:48:38.061Z","combinerTimestamp":"2019-10-18T08:48:37.562Z","analyserTimestampStart":"2019-10-18T08:48:37.561Z","type":"type-2","value":6.951550982548884},{"emitterTimestamp":"2019-10-18T08:48:37.169Z","identifier":"se:40000","analyserTimestampEnd":"2019-10-18T08:48:37.222Z","expiryTimestamp":"2019-10-18T08:48:37.722Z","combinerTimestamp":"2019-10-18T08:48:37.222Z","analyserTimestampStart":"2019-10-18T08:48:37.222Z","type":"type-1","value":9.43411402200228},{"emitterTimestamp":"2019-10-18T08:48:37.217Z","identifier":"se:35000","analyserTimestampEnd":"2019-10-18T08:48:37.222Z","expiryTimestamp":"2019-10-18T08:48:37.722Z","combinerTimestamp":"2019-10-18T08:48:37.223Z","analyserTimestampStart":"2019-10-18T08:48:37.222Z","type":"type-3","value":6.954962399909392}],"fetchTimestamp":"2019-10-18T08:48:37.562Z","detectionTimestamp":"2019-10-18T08:48:37.562Z"}
{"identifier":"ce:37743","triggers":[{"emitterTimestamp":"2019-10-18T08:48:37.145Z","identifier":"se:12500","analyserTimestampEnd":"2019-10-18T08:48:37.164Z","expiryTimestamp":"2019-10-18T08:48:37.664Z","combinerTimestamp":"2019-10-18T08:48:37.166Z","analyserTimestampStart":"2019-10-18T08:48:37.164Z","type":"type-2","value":8.79055521255972},{"emitterTimestamp":"2019-10-18T08:48:36.685Z","identifier":"se:19500","analyserTimestampEnd":"2019-10-18T08:48:36.692Z","expiryTimestamp":"2019-10-18T08:48:37.192Z","combinerTimestamp":"2019-10-18T08:48:36.694Z","analyserTimestampStart":"2019-10-18T08:48:36.692Z","type":"type-1","value":5.831683474284924},{"emitterTimestamp":"2019-10-18T08:48:36.665Z","identifier":"se:15500","analyserTimestampEnd":"2019-10-18T08:48:36.669Z","expiryTimestamp":"2019-10-18T08:48:37.169Z","combinerTimestamp":"2019-10-18T08:48:36.671Z","analyserTimestampStart":"2019-10-18T08:48:36.669Z","type":"type-3","value":7.651785398424262}],"fetchTimestamp":"2019-10-18T08:48:37.166Z","detectionTimestamp":"2019-10-18T08:48:37.166Z"}
{"identifier":"ce:37788","triggers":[{"emitterTimestamp":"2019-10-18T08:48:37.587Z","identifier":"se:35000","analyserTimestampEnd":"2019-10-18T08:48:37.600Z","expiryTimestamp":"2019-10-18T08:48:38.100Z","combinerTimestamp":"2019-10-18T08:48:37.601Z","analyserTimestampStart":"2019-10-18T08:48:37.600Z","type":"type-2","value":8.458892796003132},{"emitterTimestamp":"2019-10-18T08:48:37.261Z","identifier":"se:44000","analyserTimestampEnd":"2019-10-18T08:48:37.277Z","expiryTimestamp":"2019-10-18T08:48:37.777Z","combinerTimestamp":"2019-10-18T08:48:37.278Z","analyserTimestampStart":"2019-10-18T08:48:37.277Z","type":"type-1","value":5.1830948285971},{"emitterTimestamp":"2019-10-18T08:48:37.290Z","identifier":"se:39000","analyserTimestampEnd":"2019-10-18T08:48:37.296Z","expiryTimestamp":"2019-10-18T08:48:37.796Z","combinerTimestamp":"2019-10-18T08:48:37.297Z","analyserTimestampStart":"2019-10-18T08:48:37.296Z","type":"type-3","value":5.330429971774601}],"fetchTimestamp":"2019-10-18T08:48:37.601Z","detectionTimestamp":"2019-10-18T08:48:37.601Z"}
{"identifier":"ce:37730","triggers":[{"emitterTimestamp":"2019-10-18T08:48:36.893Z","identifier":"se:6000","analyserTimestampEnd":"2019-10-18T08:48:36.897Z","expiryTimestamp":"2019-10-18T08:48:37.397Z","combinerTimestamp":"2019-10-18T08:48:36.899Z","analyserTimestampStart":"2019-10-18T08:48:36.897Z","type":"type-2","value":8.692884763843113},{"emitterTimestamp":"2019-10-18T08:48:36.397Z","identifier":"se:6000","analyserTimestampEnd":"2019-10-18T08:48:36.401Z","expiryTimestamp":"2019-10-18T08:48:36.901Z","combinerTimestamp":"2019-10-18T08:48:36.401Z","analyserTimestampStart":"2019-10-18T08:48:36.401Z","type":"type-1","value":5.8015696121015505},{"emitterTimestamp":"2019-10-18T08:48:36.492Z","identifier":"se:6000","analyserTimestampEnd":"2019-10-18T08:48:36.528Z","expiryTimestamp":"2019-10-18T08:48:37.028Z","combinerTimestamp":"2019-10-18T08:48:36.529Z","analyserTimestampStart":"2019-10-18T08:48:36.528Z","type":"type-3","value":6.646220862186304}],"fetchTimestamp":"2019-10-18T08:48:36.899Z","detectionTimestamp":"2019-10-18T08:48:36.899Z"}
{"identifier":"ce:37731","triggers":[{"emitterTimestamp":"2019-10-18T08:48:36.916Z","identifier":"se:6500","analyserTimestampEnd":"2019-10-18T08:48:36.919Z","expiryTimestamp":"2019-10-18T08:48:37.419Z","combinerTimestamp":"2019-10-18T08:48:36.920Z","analyserTimestampStart":"2019-10-18T08:48:36.919Z","type":"type-2","value":8.998591956098023},{"emitterTimestamp":"2019-10-18T08:48:36.412Z","identifier":"se:7000","analyserTimestampEnd":"2019-10-18T08:48:36.420Z","expiryTimestamp":"2019-10-18T08:48:36.920Z","combinerTimestamp":"2019-10-18T08:48:36.430Z","analyserTimestampStart":"2019-10-18T08:48:36.420Z","type":"type-1","value":6.80137661117514},{"emitterTimestamp":"2019-10-18T08:48:36.495Z","identifier":"se:6500","analyserTimestampEnd":"2019-10-18T08:48:36.530Z","expiryTimestamp":"2019-10-18T08:48:37.030Z","combinerTimestamp":"2019-10-18T08:48:36.531Z","analyserTimestampStart":"2019-10-18T08:48:36.530Z","type":"type-3","value":5.539237461669694}],"fetchTimestamp":"2019-10-18T08:48:36.920Z","detectionTimestamp":"2019-10-18T08:48:36.920Z"}
{"identifier":"ce:37741","triggers":[{"emitterTimestamp":"2019-10-18T08:48:37.115Z","identifier":"se:11500","analyserTimestampEnd":"2019-10-18T08:48:37.127Z","expiryTimestamp":"2019-10-18T08:48:37.627Z","combinerTimestamp":"2019-10-18T08:48:37.136Z","analyserTimestampStart":"2019-10-18T08:48:37.127Z","type":"type-2","value":6.444793638512502},{"emitterTimestamp":"2019-10-18T08:48:36.666Z","identifier":"se:18500","analyserTimestampEnd":"2019-10-18T08:48:36.669Z","expiryTimestamp":"2019-10-18T08:48:37.169Z","combinerTimestamp":"2019-10-18T08:48:36.671Z","analyserTimestampStart":"2019-10-18T08:48:36.669Z","type":"type-1","value":6.7483493036375055},{"emitterTimestamp":"2019-10-18T08:48:36.640Z","identifier":"se:14000","analyserTimestampEnd":"2019-10-18T08:48:36.643Z","expiryTimestamp":"2019-10-18T08:48:37.143Z","combinerTimestamp":"2019-10-18T08:48:36.643Z","analyserTimestampStart":"2019-10-18T08:48:36.643Z","type":"type-3","value":5.152877859366953}],"fetchTimestamp":"2019-10-18T08:48:37.137Z","detectionTimestamp":"2019-10-18T08:48:37.137Z"}
{"identifier":"ce:37790","triggers":[{"emitterTimestamp":"2019-10-18T08:48:37.596Z","identifier":"se:36000","analyserTimestampEnd":"2019-10-18T08:48:37.607Z","expiryTimestamp":"2019-10-18T08:48:38.107Z","combinerTimestamp":"2019-10-18T08:48:37.608Z","analyserTimestampStart":"2019-10-18T08:48:37.607Z","type":"type-2","value":7.9854029813046985},{"emitterTimestamp":"2019-10-18T08:48:37.285Z","identifier":"se:45000","analyserTimestampEnd":"2019-10-18T08:48:37.293Z","expiryTimestamp":"2019-10-18T08:48:37.793Z","combinerTimestamp":"2019-10-18T08:48:37.294Z","analyserTimestampStart":"2019-10-18T08:48:37.293Z","type":"type-1","value":6.028583186131694},{"emitterTimestamp":"2019-10-18T08:48:37.303Z","identifier":"se:40000","analyserTimestampEnd":"2019-10-18T08:48:37.305Z","expiryTimestamp":"2019-10-18T08:48:37.805Z","combinerTimestamp":"2019-10-18T08:48:37.306Z","analyserTimestampStart":"2019-10-18T08:48:37.305Z","type":"type-3","value":8.749643591333468}],"fetchTimestamp":"2019-10-18T08:48:37.608Z","detectionTimestamp":"2019-10-18T08:48:37.608Z"}
{"identifier":"ce:37779","triggers":[{"emitterTimestamp":"2019-10-18T08:48:37.552Z","identifier":"se:30500","analyserTimestampEnd":"2019-10-18T08:48:37.556Z","expiryTimestamp":"2019-10-18T08:48:38.056Z","combinerTimestamp":"2019-10-18T08:48:37.557Z","analyserTimestampStart":"2019-10-18T08:48:37.556Z","type":"type-2","value":9.204733819006066},{"emitterTimestamp":"2019-10-18T08:48:37.161Z","identifier":"se:39500","analyserTimestampEnd":"2019-10-18T08:48:37.214Z","expiryTimestamp":"2019-10-18T08:48:37.714Z","combinerTimestamp":"2019-10-18T08:48:37.215Z","analyserTimestampStart":"2019-10-18T08:48:37.214Z","type":"type-1","value":9.379975313521294},{"emitterTimestamp":"2019-10-18T08:48:37.192Z","identifier":"se:34500","analyserTimestampEnd":"2019-10-18T08:48:37.219Z","expiryTimestamp":"2019-10-18T08:48:37.719Z","combinerTimestamp":"2019-10-18T08:48:37.220Z","analyserTimestampStart":"2019-10-18T08:48:37.219Z","type":"type-3","value":8.21716632032507}],"fetchTimestamp":"2019-10-18T08:48:37.557Z","detectionTimestamp":"2019-10-18T08:48:37.557Z"}
{"identifier":"ce:37759","triggers":[{"emitterTimestamp":"2019-10-18T08:48:37.410Z","identifier":"se:20500","analyserTimestampEnd":"2019-10-18T08:48:37.418Z","expiryTimestamp":"2019-10-18T08:48:37.918Z","combinerTimestamp":"2019-10-18T08:48:37.419Z","analyserTimestampStart":"2019-10-18T08:48:37.418Z","type":"type-2","value":8.515278136601395},{"emitterTimestamp":"2019-10-18T08:48:36.942Z","identifier":"se:29500","analyserTimestampEnd":"2019-10-18T08:48:36.945Z","expiryTimestamp":"2019-10-18T08:48:37.445Z","combinerTimestamp":"2019-10-18T08:48:36.946Z","analyserTimestampStart":"2019-10-18T08:48:36.945Z","type":"type-1","value":6.712461973728731},{"emitterTimestamp":"2019-10-18T08:48:36.933Z","identifier":"se:24000","analyserTimestampEnd":"2019-10-18T08:48:36.937Z","expiryTimestamp":"2019-10-18T08:48:37.437Z","combinerTimestamp":"2019-10-18T08:48:36.938Z","analyserTimestampStart":"2019-10-18T08:48:36.937Z","type":"type-3","value":5.472981991078523}],"fetchTimestamp":"2019-10-18T08:48:37.419Z","detectionTimestamp":"2019-10-18T08:48:37.419Z"}
{"identifier":"ce:37769","triggers":[{"emitterTimestamp":"2019-10-18T08:48:37.512Z","identifier":"se:25500","analyserTimestampEnd":"2019-10-18T08:48:37.520Z","expiryTimestamp":"2019-10-18T08:48:38.020Z","combinerTimestamp":"2019-10-18T08:48:37.521Z","analyserTimestampStart":"2019-10-18T08:48:37.520Z","type":"type-2","value":8.811390492133338},{"emitterTimestamp":"2019-10-18T08:48:37.078Z","identifier":"se:34500","analyserTimestampEnd":"2019-10-18T08:48:37.132Z","expiryTimestamp":"2019-10-18T08:48:37.632Z","combinerTimestamp":"2019-10-18T08:48:37.150Z","analyserTimestampStart":"2019-10-18T08:48:37.132Z","type":"type-1","value":9.121061326157363},{"emitterTimestamp":"2019-10-18T08:48:37.053Z","identifier":"se:29500","analyserTimestampEnd":"2019-10-18T08:48:37.126Z","expiryTimestamp":"2019-10-18T08:48:37.626Z","combinerTimestamp":"2019-10-18T08:48:37.136Z","analyserTimestampStart":"2019-10-18T08:48:37.126Z","type":"type-3","value":5.384478573353189}],"fetchTimestamp":"2019-10-18T08:48:37.521Z","detectionTimestamp":"2019-10-18T08:48:37.521Z"}
{"identifier":"ce:37768","triggers":[{"emitterTimestamp":"2019-10-18T08:48:37.509Z","identifier":"se:25000","analyserTimestampEnd":"2019-10-18T08:48:37.513Z","expiryTimestamp":"2019-10-18T08:48:38.013Z","combinerTimestamp":"2019-10-18T08:48:37.514Z","analyserTimestampStart":"2019-10-18T08:48:37.513Z","type":"type-2","value":6.211633179691801},{"emitterTimestamp":"2019-10-18T08:48:37.055Z","identifier":"se:34000","analyserTimestampEnd":"2019-10-18T08:48:37.130Z","expiryTimestamp":"2019-10-18T08:48:37.630Z","combinerTimestamp":"2019-10-18T08:48:37.144Z","analyserTimestampStart":"2019-10-18T08:48:37.130Z","type":"type-1","value":6.1639954525601235},{"emitterTimestamp":"2019-10-18T08:48:37.032Z","identifier":"se:29000","analyserTimestampEnd":"2019-10-18T08:48:37.105Z","expiryTimestamp":"2019-10-18T08:48:37.605Z","combinerTimestamp":"2019-10-18T08:48:37.116Z","analyserTimestampStart":"2019-10-18T08:48:37.105Z","type":"type-3","value":6.783599784732759}],"fetchTimestamp":"2019-10-18T08:48:37.514Z","detectionTimestamp":"2019-10-18T08:48:37.514Z"}
{"identifier":"ce:37789","triggers":[{"emitterTimestamp":"2019-10-18T08:48:37.592Z","identifier":"se:35500","analyserTimestampEnd":"2019-10-18T08:48:37.604Z","expiryTimestamp":"2019-10-18T08:48:38.104Z","combinerTimestamp":"2019-10-18T08:48:37.606Z","analyserTimestampStart":"2019-10-18T08:48:37.604Z","type":"type-2","value":6.5125744350206505},{"emitterTimestamp":"2019-10-18T08:48:37.274Z","identifier":"se:44500","analyserTimestampEnd":"2019-10-18T08:48:37.287Z","expiryTimestamp":"2019-10-18T08:48:37.787Z","combinerTimestamp":"2019-10-18T08:48:37.288Z","analyserTimestampStart":"2019-10-18T08:48:37.287Z","type":"type-1","value":6.428180370252745},{"emitterTimestamp":"2019-10-18T08:48:37.296Z","identifier":"se:39500","analyserTimestampEnd":"2019-10-18T08:48:37.302Z","expiryTimestamp":"2019-10-18T08:48:37.802Z","combinerTimestamp":"2019-10-18T08:48:37.303Z","analyserTimestampStart":"2019-10-18T08:48:37.302Z","type":"type-3","value":7.256751782637975}],"fetchTimestamp":"2019-10-18T08:48:37.606Z","detectionTimestamp":"2019-10-18T08:48:37.606Z"}
{"identifier":"ce:37778","triggers":[{"emitterTimestamp":"2019-10-18T08:48:37.549Z","identifier":"se:30000","analyserTimestampEnd":"2019-10-18T08:48:37.552Z","expiryTimestamp":"2019-10-18T08:48:38.052Z","combinerTimestamp":"2019-10-18T08:48:37.554Z","analyserTimestampStart":"2019-10-18T08:48:37.552Z","type":"type-2","value":7.307414465946289},{"emitterTimestamp":"2019-10-18T08:48:37.153Z","identifier":"se:39000","analyserTimestampEnd":"2019-10-18T08:48:37.200Z","expiryTimestamp":"2019-10-18T08:48:37.700Z","combinerTimestamp":"2019-10-18T08:48:37.202Z","analyserTimestampStart":"2019-10-18T08:48:37.200Z","type":"type-1","value":7.04179959846347},{"emitterTimestamp":"2019-10-18T08:48:37.175Z","identifier":"se:34000","analyserTimestampEnd":"2019-10-18T08:48:37.215Z","expiryTimestamp":"2019-10-18T08:48:37.715Z","combinerTimestamp":"2019-10-18T08:48:37.216Z","analyserTimestampStart":"2019-10-18T08:48:37.215Z","type":"type-3","value":7.860202975686237}],"fetchTimestamp":"2019-10-18T08:48:37.554Z","detectionTimestamp":"2019-10-18T08:48:37.554Z"}
{"identifier":"ce:37738","triggers":[{"emitterTimestamp":"2019-10-18T08:48:37.043Z","identifier":"se:10000","analyserTimestampEnd":"2019-10-18T08:48:37.073Z","expiryTimestamp":"2019-10-18T08:48:37.573Z","combinerTimestamp":"2019-10-18T08:48:37.080Z","analyserTimestampStart":"2019-10-18T08:48:37.073Z","type":"type-2","value":5.269026076916705},{"emitterTimestamp":"2019-10-18T08:48:36.640Z","identifier":"se:17000","analyserTimestampEnd":"2019-10-18T08:48:36.644Z","expiryTimestamp":"2019-10-18T08:48:37.144Z","combinerTimestamp":"2019-10-18T08:48:36.645Z","analyserTimestampStart":"2019-10-18T08:48:36.644Z","type":"type-1","value":6.437292298862458},{"emitterTimestamp":"2019-10-18T08:48:36.605Z","identifier":"se:12000","analyserTimestampEnd":"2019-10-18T08:48:36.607Z","expiryTimestamp":"2019-10-18T08:48:37.107Z","combinerTimestamp":"2019-10-18T08:48:36.607Z","analyserTimestampStart":"2019-10-18T08:48:36.607Z","type":"type-3","value":7.44275126125067}],"fetchTimestamp":"2019-10-18T08:48:37.081Z","detectionTimestamp":"2019-10-18T08:48:37.081Z"}
{"identifier":"ce:37758","triggers":[{"emitterTimestamp":"2019-10-18T08:48:37.404Z","identifier":"se:20000","analyserTimestampEnd":"2019-10-18T08:48:37.416Z","expiryTimestamp":"2019-10-18T08:48:37.916Z","combinerTimestamp":"2019-10-18T08:48:37.417Z","analyserTimestampStart":"2019-10-18T08:48:37.416Z","type":"type-2","value":7.507828663320099},{"emitterTimestamp":"2019-10-18T08:48:36.932Z","identifier":"se:29000","analyserTimestampEnd":"2019-10-18T08:48:36.938Z","expiryTimestamp":"2019-10-18T08:48:37.438Z","combinerTimestamp":"2019-10-18T08:48:36.940Z","analyserTimestampStart":"2019-10-18T08:48:36.938Z","type":"type-1","value":8.594193588979627},{"emitterTimestamp":"2019-10-18T08:48:36.918Z","identifier":"se:23500","analyserTimestampEnd":"2019-10-18T08:48:36.923Z","expiryTimestamp":"2019-10-18T08:48:37.423Z","combinerTimestamp":"2019-10-18T08:48:36.924Z","analyserTimestampStart":"2019-10-18T08:48:36.923Z","type":"type-3","value":9.70920299770249}],"fetchTimestamp":"2019-10-18T08:48:37.417Z","detectionTimestamp":"2019-10-18T08:48:37.417Z"}
{"identifier":"ce:37739","triggers":[{"emitterTimestamp":"2019-10-18T08:48:37.051Z","identifier":"se:10500","analyserTimestampEnd":"2019-10-18T08:48:37.080Z","expiryTimestamp":"2019-10-18T08:48:37.580Z","combinerTimestamp":"2019-10-18T08:48:37.091Z","analyserTimestampStart":"2019-10-18T08:48:37.080Z","type":"type-2","value":8.389243820321223},{"emitterTimestamp":"2019-10-18T08:48:36.650Z","identifier":"se:17500","analyserTimestampEnd":"2019-10-18T08:48:36.665Z","expiryTimestamp":"2019-10-18T08:48:37.165Z","combinerTimestamp":"2019-10-18T08:48:36.665Z","analyserTimestampStart":"2019-10-18T08:48:36.665Z","type":"type-1","value":8.626535142546494},{"emitterTimestamp":"2019-10-18T08:48:36.613Z","identifier":"se:12500","analyserTimestampEnd":"2019-10-18T08:48:36.615Z","expiryTimestamp":"2019-10-18T08:48:37.115Z","combinerTimestamp":"2019-10-18T08:48:36.616Z","analyserTimestampStart":"2019-10-18T08:48:36.615Z","type":"type-3","value":7.998588975604951}],"fetchTimestamp":"2019-10-18T08:48:37.091Z","detectionTimestamp":"2019-10-18T08:48:37.091Z"}
{"identifier":"ce:37748","triggers":[{"emitterTimestamp":"2019-10-18T08:48:37.236Z","identifier":"se:15000","analyserTimestampEnd":"2019-10-18T08:48:37.244Z","expiryTimestamp":"2019-10-18T08:48:37.744Z","combinerTimestamp":"2019-10-18T08:48:37.244Z","analyserTimestampStart":"2019-10-18T08:48:37.244Z","type":"type-2","value":5.976795959969894},{"emitterTimestamp":"2019-10-18T08:48:36.770Z","identifier":"se:22500","analyserTimestampEnd":"2019-10-18T08:48:36.774Z","expiryTimestamp":"2019-10-18T08:48:37.274Z","combinerTimestamp":"2019-10-18T08:48:36.774Z","analyserTimestampStart":"2019-10-18T08:48:36.774Z","type":"type-1","value":8.452763214832462},{"emitterTimestamp":"2019-10-18T08:48:36.774Z","identifier":"se:18500","analyserTimestampEnd":"2019-10-18T08:48:36.778Z","expiryTimestamp":"2019-10-18T08:48:37.278Z","combinerTimestamp":"2019-10-18T08:48:36.779Z","analyserTimestampStart":"2019-10-18T08:48:36.778Z","type":"type-3","value":8.349966417325334}],"fetchTimestamp":"2019-10-18T08:48:37.244Z","detectionTimestamp":"2019-10-18T08:48:37.244Z"}
{"identifier":"ce:37729","triggers":[{"emitterTimestamp":"2019-10-18T08:48:36.861Z","identifier":"se:5500","analyserTimestampEnd":"2019-10-18T08:48:36.865Z","expiryTimestamp":"2019-10-18T08:48:37.365Z","combinerTimestamp":"2019-10-18T08:48:36.866Z","analyserTimestampStart":"2019-10-18T08:48:36.865Z","type":"type-2","value":9.33662798483044},{"emitterTimestamp":"2019-10-18T08:48:36.387Z","identifier":"se:5500","analyserTimestampEnd":"2019-10-18T08:48:36.391Z","expiryTimestamp":"2019-10-18T08:48:36.890Z","combinerTimestamp":"2019-10-18T08:48:36.391Z","analyserTimestampStart":"2019-10-18T08:48:36.390Z","type":"type-1","value":8.827595182763595},{"emitterTimestamp":"2019-10-18T08:48:36.490Z","identifier":"se:5500","analyserTimestampEnd":"2019-10-18T08:48:36.524Z","expiryTimestamp":"2019-10-18T08:48:37.024Z","combinerTimestamp":"2019-10-18T08:48:36.526Z","analyserTimestampStart":"2019-10-18T08:48:36.524Z","type":"type-3","value":6.714521110302721}],"fetchTimestamp":"2019-10-18T08:48:36.866Z","detectionTimestamp":"2019-10-18T08:48:36.866Z"}