{"identifier":"ce:36830","triggers":[{"emitterTimestamp":"2019-10-17T11:43:40.620Z","identifier":"se:49000","analyserTimestampEnd":"2019-10-17T11:43:40.633Z","expiryTimestamp":"2019-10-17T11:43:41.133Z","combinerTimestamp":"2019-10-17T11:43:40.635Z","analyserTimestampStart":"2019-10-17T11:43:40.633Z","type":"type-2","value":9.473362401100113},{"emitterTimestamp":"2019-10-17T11:43:40.820Z","identifier":"se:49000","analyserTimestampEnd":"2019-10-17T11:43:40.842Z","expiryTimestamp":"2019-10-17T11:43:41.342Z","combinerTimestamp":"2019-10-17T11:43:40.843Z","analyserTimestampStart":"2019-10-17T11:43:40.842Z","type":"type-1","value":5.932077544034995},{"emitterTimestamp":"2019-10-17T11:43:40.720Z","identifier":"se:49000","analyserTimestampEnd":"2019-10-17T11:43:40.733Z","expiryTimestamp":"2019-10-17T11:43:41.233Z","combinerTimestamp":"2019-10-17T11:43:40.735Z","analyserTimestampStart":"2019-10-17T11:43:40.733Z","type":"type-3","value":5.366997306362401}],"fetchTimestamp":"2019-10-17T11:43:40.843Z","detectionTimestamp":"2019-10-17T11:43:40.843Z"}
{"identifier":"ce:36794","triggers":[{"emitterTimestamp":"2019-10-17T11:43:39.920Z","identifier":"se:13000","analyserTimestampEnd":"2019-10-17T11:43:39.928Z","expiryTimestamp":"2019-10-17T11:43:40.428Z","combinerTimestamp":"2019-10-17T11:43:39.930Z","analyserTimestampStart":"2019-10-17T11:43:39.928Z","type":"type-2","value":5.040523030100029},{"emitterTimestamp":"2019-10-17T11:43:40.207Z","identifier":"se:13000","analyserTimestampEnd":"2019-10-17T11:43:40.255Z","expiryTimestamp":"2019-10-17T11:43:40.755Z","combinerTimestamp":"2019-10-17T11:43:40.262Z","analyserTimestampStart":"2019-10-17T11:43:40.255Z","type":"type-1","value":5.702993356099954},{"emitterTimestamp":"2019-10-17T11:43:39.901Z","identifier":"se:13000","analyserTimestampEnd":"2019-10-17T11:43:39.935Z","expiryTimestamp":"2019-10-17T11:43:40.435Z","combinerTimestamp":"2019-10-17T11:43:39.937Z","analyserTimestampStart":"2019-10-17T11:43:39.935Z","type":"type-3","value":7.891529274640856}],"fetchTimestamp":"2019-10-17T11:43:40.262Z","detectionTimestamp":"2019-10-17T11:43:40.262Z"}
{"identifier":"ce:36795","triggers":[{"emitterTimestamp":"2019-10-17T11:43:39.934Z","identifier":"se:14000","analyserTimestampEnd":"2019-10-17T11:43:39.939Z","expiryTimestamp":"2019-10-17T11:43:40.439Z","combinerTimestamp":"2019-10-17T11:43:39.940Z","analyserTimestampStart":"2019-10-17T11:43:39.939Z","type":"type-2","value":7.466677862317269},{"emitterTimestamp":"2019-10-17T11:43:40.295Z","identifier":"se:14000","analyserTimestampEnd":"2019-10-17T11:43:40.305Z","expiryTimestamp":"2019-10-17T11:43:40.805Z","combinerTimestamp":"2019-10-17T11:43:40.307Z","analyserTimestampStart":"2019-10-17T11:43:40.305Z","type":"type-1","value":5.509148202594351},{"emitterTimestamp":"2019-10-17T11:43:39.939Z","identifier":"se:14000","analyserTimestampEnd":"2019-10-17T11:43:39.948Z","expiryTimestamp":"2019-10-17T11:43:40.448Z","combinerTimestamp":"2019-10-17T11:43:39.950Z","analyserTimestampStart":"2019-10-17T11:43:39.948Z","type":"type-3","value":9.304106337455732}],"fetchTimestamp":"2019-10-17T11:43:40.307Z","detectionTimestamp":"2019-10-17T11:43:40.307Z"}
{"identifier":"ce:36816","triggers":[{"emitterTimestamp":"2019-10-17T11:43:40.362Z","identifier":"se:35000","analyserTimestampEnd":"2019-10-17T11:43:40.379Z","expiryTimestamp":"2019-10-17T11:43:40.879Z","combinerTimestamp":"2019-10-17T11:43:40.381Z","analyserTimestampStart":"2019-10-17T11:43:40.379Z","type":"type-2","value":5.41089247830395},{"emitterTimestamp":"2019-10-17T11:43:40.734Z","identifier":"se:35000","analyserTimestampEnd":"2019-10-17T11:43:40.742Z","expiryTimestamp":"2019-10-17T11:43:41.242Z","combinerTimestamp":"2019-10-17T11:43:40.742Z","analyserTimestampStart":"2019-10-17T11:43:40.742Z","type":"type-1","value":7.983254281188579},{"emitterTimestamp":"2019-10-17T11:43:40.471Z","identifier":"se:35000","analyserTimestampEnd":"2019-10-17T11:43:40.482Z","expiryTimestamp":"2019-10-17T11:43:40.982Z","combinerTimestamp":"2019-10-17T11:43:40.489Z","analyserTimestampStart":"2019-10-17T11:43:40.482Z","type":"type-3","value":7.61957381519902}],"fetchTimestamp":"2019-10-17T11:43:40.743Z","detectionTimestamp":"2019-10-17T11:43:40.743Z"}
{"identifier":"ce:36806","triggers":[{"emitterTimestamp":"2019-10-17T11:43:40.194Z","identifier":"se:25000","analyserTimestampEnd":"2019-10-17T11:43:40.274Z","expiryTimestamp":"2019-10-17T11:43:40.774Z","combinerTimestamp":"2019-10-17T11:43:40.282Z","analyserTimestampStart":"2019-10-17T11:43:40.274Z","type":"type-2","value":9.800072082100531},{"emitterTimestamp":"2019-10-17T11:43:40.570Z","identifier":"se:25000","analyserTimestampEnd":"2019-10-17T11:43:40.591Z","expiryTimestamp":"2019-10-17T11:43:41.091Z","combinerTimestamp":"2019-10-17T11:43:40.594Z","analyserTimestampStart":"2019-10-17T11:43:40.591Z","type":"type-1","value":7.575608500573887},{"emitterTimestamp":"2019-10-17T11:43:40.210Z","identifier":"se:25000","analyserTimestampEnd":"2019-10-17T11:43:40.282Z","expiryTimestamp":"2019-10-17T11:43:40.782Z","combinerTimestamp":"2019-10-17T11:43:40.293Z","analyserTimestampStart":"2019-10-17T11:43:40.282Z","type":"type-3","value":7.661798501652451}],"fetchTimestamp":"2019-10-17T11:43:40.594Z","detectionTimestamp":"2019-10-17T11:43:40.594Z"}
{"identifier":"ce:36814","triggers":[{"emitterTimestamp":"2019-10-17T11:43:40.340Z","identifier":"se:33000","analyserTimestampEnd":"2019-10-17T11:43:40.350Z","expiryTimestamp":"2019-10-17T11:43:40.850Z","combinerTimestamp":"2019-10-17T11:43:40.351Z","analyserTimestampStart":"2019-10-17T11:43:40.350Z","type":"type-2","value":8.23478773753376},{"emitterTimestamp":"2019-10-17T11:43:40.705Z","identifier":"se:33000","analyserTimestampEnd":"2019-10-17T11:43:40.722Z","expiryTimestamp":"2019-10-17T11:43:41.222Z","combinerTimestamp":"2019-10-17T11:43:40.733Z","analyserTimestampStart":"2019-10-17T11:43:40.722Z","type":"type-1","value":7.765345177799436},{"emitterTimestamp":"2019-10-17T11:43:40.418Z","identifier":"se:33000","analyserTimestampEnd":"2019-10-17T11:43:40.429Z","expiryTimestamp":"2019-10-17T11:43:40.929Z","combinerTimestamp":"2019-10-17T11:43:40.430Z","analyserTimestampStart":"2019-10-17T11:43:40.429Z","type":"type-3","value":9.355320201233399}],"fetchTimestamp":"2019-10-17T11:43:40.733Z","detectionTimestamp":"2019-10-17T11:43:40.733Z"}
{"identifier":"ce:36825","triggers":[{"emitterTimestamp":"2019-10-17T11:43:40.522Z","identifier":"se:44000","analyserTimestampEnd":"2019-10-17T11:43:40.525Z","expiryTimestamp":"2019-10-17T11:43:41.025Z","combinerTimestamp":"2019-10-17T11:43:40.526Z","analyserTimestampStart":"2019-10-17T11:43:40.525Z","type":"type-2","value":7.575087389345332},{"emitterTimestamp":"2019-10-17T11:43:40.793Z","identifier":"se:44000","analyserTimestampEnd":"2019-10-17T11:43:40.820Z","expiryTimestamp":"2019-10-17T11:43:41.320Z","combinerTimestamp":"2019-10-17T11:43:40.821Z","analyserTimestampStart":"2019-10-17T11:43:40.820Z","type":"type-1","value":6.056129872883651},{"emitterTimestamp":"2019-10-17T11:43:40.631Z","identifier":"se:44000","analyserTimestampEnd":"2019-10-17T11:43:40.642Z","expiryTimestamp":"2019-10-17T11:43:41.142Z","combinerTimestamp":"2019-10-17T11:43:40.643Z","analyserTimestampStart":"2019-10-17T11:43:40.642Z","type":"type-3","value":5.245654779040338}],"fetchTimestamp":"2019-10-17T11:43:40.821Z","detectionTimestamp":"2019-10-17T11:43:40.821Z"}
{"identifier":"ce:36801","triggers":[{"emitterTimestamp":"2019-10-17T11:43:40.062Z","identifier":"se:20000","analyserTimestampEnd":"2019-10-17T11:43:40.064Z","expiryTimestamp":"2019-10-17T11:43:40.564Z","combinerTimestamp":"2019-10-17T11:43:40.065Z","analyserTimestampStart":"2019-10-17T11:43:40.064Z","type":"type-2","value":7.621943114242869},{"emitterTimestamp":"2019-10-17T11:43:40.420Z","identifier":"se:20000","analyserTimestampEnd":"2019-10-17T11:43:40.423Z","expiryTimestamp":"2019-10-17T11:43:40.923Z","combinerTimestamp":"2019-10-17T11:43:40.424Z","analyserTimestampStart":"2019-10-17T11:43:40.423Z","type":"type-1","value":9.8179221141054},{"emitterTimestamp":"2019-10-17T11:43:40.119Z","identifier":"se:20000","analyserTimestampEnd":"2019-10-17T11:43:40.124Z","expiryTimestamp":"2019-10-17T11:43:40.624Z","combinerTimestamp":"2019-10-17T11:43:40.124Z","analyserTimestampStart":"2019-10-17T11:43:40.124Z","type":"type-3","value":6.956250028213345}],"fetchTimestamp":"2019-10-17T11:43:40.424Z","detectionTimestamp":"2019-10-17T11:43:40.424Z"}
{"identifier":"ce:36800","triggers":[{"emitterTimestamp":"2019-10-17T11:43:40.039Z","identifier":"se:19000","analyserTimestampEnd":"2019-10-17T11:43:40.041Z","expiryTimestamp":"2019-10-17T11:43:40.541Z","combinerTimestamp":"2019-10-17T11:43:40.042Z","analyserTimestampStart":"2019-10-17T11:43:40.041Z","type":"type-2","value":7.71315614978162},{"emitterTimestamp":"2019-10-17T11:43:40.396Z","identifier":"se:19000","analyserTimestampEnd":"2019-10-17T11:43:40.404Z","expiryTimestamp":"2019-10-17T11:43:40.904Z","combinerTimestamp":"2019-10-17T11:43:40.406Z","analyserTimestampStart":"2019-10-17T11:43:40.404Z","type":"type-1","value":9.909969331500701},{"emitterTimestamp":"2019-10-17T11:43:40.100Z","identifier":"se:19000","analyserTimestampEnd":"2019-10-17T11:43:40.106Z","expiryTimestamp":"2019-10-17T11:43:40.606Z","combinerTimestamp":"2019-10-17T11:43:40.107Z","analyserTimestampStart":"2019-10-17T11:43:40.106Z","type":"type-3","value":7.288750924866044}],"fetchTimestamp":"2019-10-17T11:43:40.406Z","detectionTimestamp":"2019-10-17T11:43:40.406Z"}
{"identifier":"ce:36824","triggers":[{"emitterTimestamp":"2019-10-17T11:43:40.493Z","identifier":"se:43000","analyserTimestampEnd":"2019-10-17T11:43:40.518Z","expiryTimestamp":"2019-10-17T11:43:41.018Z","combinerTimestamp":"2019-10-17T11:43:40.520Z","analyserTimestampStart":"2019-10-17T11:43:40.518Z","type":"type-2","value":5.0277912785229635},{"emitterTimestamp":"2019-10-17T11:43:40.786Z","identifier":"se:43000","analyserTimestampEnd":"2019-10-17T11:43:40.816Z","expiryTimestamp":"2019-10-17T11:43:41.316Z","combinerTimestamp":"2019-10-17T11:43:40.816Z","analyserTimestampStart":"2019-10-17T11:43:40.816Z","type":"type-1","value":9.396513629098896},{"emitterTimestamp":"2019-10-17T11:43:40.600Z","identifier":"se:43000","analyserTimestampEnd":"2019-10-17T11:43:40.606Z","expiryTimestamp":"2019-10-17T11:43:41.106Z","combinerTimestamp":"2019-10-17T11:43:40.609Z","analyserTimestampStart":"2019-10-17T11:43:40.606Z","type":"type-3","value":8.926441808405398}],"fetchTimestamp":"2019-10-17T11:43:40.817Z","detectionTimestamp":"2019-10-17T11:43:40.817Z"}
{"identifier":"ce:36783","triggers":[{"emitterTimestamp":"2019-10-17T11:43:39.616Z","identifier":"se:2000","analyserTimestampEnd":"2019-10-17T11:43:39.620Z","expiryTimestamp":"2019-10-17T11:43:40.120Z","combinerTimestamp":"2019-10-17T11:43:39.621Z","analyserTimestampStart":"2019-10-17T11:43:39.620Z","type":"type-2","value":8.573607689434969},{"emitterTimestamp":"2019-10-17T11:43:39.793Z","identifier":"se:2000","analyserTimestampEnd":"2019-10-17T11:43:39.796Z","expiryTimestamp":"2019-10-17T11:43:40.296Z","combinerTimestamp":"2019-10-17T11:43:39.798Z","analyserTimestampStart":"2019-10-17T11:43:39.796Z","type":"type-1","value":6.622671469142386},{"emitterTimestamp":"2019-10-17T11:43:39.610Z","identifier":"se:2000","analyserTimestampEnd":"2019-10-17T11:43:39.614Z","expiryTimestamp":"2019-10-17T11:43:40.114Z","combinerTimestamp":"2019-10-17T11:43:39.615Z","analyserTimestampStart":"2019-10-17T11:43:39.614Z","type":"type-3","value":6.084478425674595}],"fetchTimestamp":"2019-10-17T11:43:39.798Z","detectionTimestamp":"2019-10-17T11:43:39.798Z"}
{"identifier":"ce:36810","triggers":[{"emitterTimestamp":"2019-10-17T11:43:40.225Z","identifier":"se:29000","analyserTimestampEnd":"2019-10-17T11:43:40.300Z","expiryTimestamp":"2019-10-17T11:43:40.800Z","combinerTimestamp":"2019-10-17T11:43:40.305Z","analyserTimestampStart":"2019-10-17T11:43:40.300Z","type":"type-2","value":8.985444107022424},{"emitterTimestamp":"2019-10-17T11:43:40.673Z","identifier":"se:29000","analyserTimestampEnd":"2019-10-17T11:43:40.683Z","expiryTimestamp":"2019-10-17T11:43:41.183Z","combinerTimestamp":"2019-10-17T11:43:40.684Z","analyserTimestampStart":"2019-10-17T11:43:40.683Z","type":"type-1","value":6.172495369347196},{"emitterTimestamp":"2019-10-17T11:43:40.304Z","identifier":"se:29000","analyserTimestampEnd":"2019-10-17T11:43:40.336Z","expiryTimestamp":"2019-10-17T11:43:40.836Z","combinerTimestamp":"2019-10-17T11:43:40.340Z","analyserTimestampStart":"2019-10-17T11:43:40.336Z","type":"type-3","value":6.10402946984984}],"fetchTimestamp":"2019-10-17T11:43:40.684Z","detectionTimestamp":"2019-10-17T11:43:40.684Z"}
{"identifier":"ce:36821","triggers":[{"emitterTimestamp":"2019-10-17T11:43:40.449Z","identifier":"se:40000","analyserTimestampEnd":"2019-10-17T11:43:40.489Z","expiryTimestamp":"2019-10-17T11:43:40.989Z","combinerTimestamp":"2019-10-17T11:43:40.494Z","analyserTimestampStart":"2019-10-17T11:43:40.489Z","type":"type-2","value":9.674608872284638},{"emitterTimestamp":"2019-10-17T11:43:40.770Z","identifier":"se:40000","analyserTimestampEnd":"2019-10-17T11:43:40.779Z","expiryTimestamp":"2019-10-17T11:43:41.279Z","combinerTimestamp":"2019-10-17T11:43:40.780Z","analyserTimestampStart":"2019-10-17T11:43:40.779Z","type":"type-1","value":6.71081646207114},{"emitterTimestamp":"2019-10-17T11:43:40.550Z","identifier":"se:40000","analyserTimestampEnd":"2019-10-17T11:43:40.556Z","expiryTimestamp":"2019-10-17T11:43:41.056Z","combinerTimestamp":"2019-10-17T11:43:40.556Z","analyserTimestampStart":"2019-10-17T11:43:40.556Z","type":"type-3","value":6.998223260103815}],"fetchTimestamp":"2019-10-17T11:43:40.780Z","detectionTimestamp":"2019-10-17T11:43:40.780Z"}
{"identifier":"ce:36822","triggers":[{"emitterTimestamp":"2019-10-17T11:43:40.466Z","identifier":"se:41000","analyserTimestampEnd":"2019-10-17T11:43:40.498Z","expiryTimestamp":"2019-10-17T11:43:40.998Z","combinerTimestamp":"2019-10-17T11:43:40.500Z","analyserTimestampStart":"2019-10-17T11:43:40.498Z","type":"type-2","value":8.584693248495118},{"emitterTimestamp":"2019-10-17T11:43:40.775Z","identifier":"se:41000","analyserTimestampEnd":"2019-10-17T11:43:40.785Z","expiryTimestamp":"2019-10-17T11:43:41.285Z","combinerTimestamp":"2019-10-17T11:43:40.786Z","analyserTimestampStart":"2019-10-17T11:43:40.785Z","type":"type-1","value":9.759935093543964},{"emitterTimestamp":"2019-10-17T11:43:40.558Z","identifier":"se:41000","analyserTimestampEnd":"2019-10-17T11:43:40.568Z","expiryTimestamp":"2019-10-17T11:43:41.068Z","combinerTimestamp":"2019-10-17T11:43:40.569Z","analyserTimestampStart":"2019-10-17T11:43:40.568Z","type":"type-3","value":6.140487517469808}],"fetchTimestamp":"2019-10-17T11:43:40.786Z","detectionTimestamp":"2019-10-17T11:43:40.786Z"}
{"identifier":"ce:36792","triggers":[{"emitterTimestamp":"2019-10-17T11:43:39.883Z","identifier":"se:11000","analyserTimestampEnd":"2019-10-17T11:43:39.896Z","expiryTimestamp":"2019-10-17T11:43:40.396Z","combinerTimestamp":"2019-10-17T11:43:39.896Z","analyserTimestampStart":"2019-10-17T11:43:39.896Z","type":"type-2","value":8.489774962189655},{"emitterTimestamp":"2019-10-17T11:43:40.157Z","identifier":"se:11000","analyserTimestampEnd":"2019-10-17T11:43:40.226Z","expiryTimestamp":"2019-10-17T11:43:40.726Z","combinerTimestamp":"2019-10-17T11:43:40.228Z","analyserTimestampStart":"2019-10-17T11:43:40.226Z","type":"type-1","value":9.727859563406502},{"emitterTimestamp":"2019-10-17T11:43:39.864Z","identifier":"se:11000","analyserTimestampEnd":"2019-10-17T11:43:39.872Z","expiryTimestamp":"2019-10-17T11:43:40.372Z","combinerTimestamp":"2019-10-17T11:43:39.874Z","analyserTimestampStart":"2019-10-17T11:43:39.872Z","type":"type-3","value":6.72780036193355}],"fetchTimestamp":"2019-10-17T11:43:40.228Z","detectionTimestamp":"2019-10-17T11:43:40.228Z"}
{"identifier":"ce:36784","triggers":[{"emitterTimestamp":"2019-10-17T11:43:39.646Z","identifier":"se:3000","analyserTimestampEnd":"2019-10-17T11:43:39.653Z","expiryTimestamp":"2019-10-17T11:43:40.153Z","combinerTimestamp":"2019-10-17T11:43:39.654Z","analyserTimestampStart":"2019-10-17T11:43:39.653Z","type":"type-2","value":5.011246253176422},{"emitterTimestamp":"2019-10-17T11:43:39.822Z","identifier":"se:3000","analyserTimestampEnd":"2019-10-17T11:43:39.828Z","expiryTimestamp":"2019-10-17T11:43:40.328Z","combinerTimestamp":"2019-10-17T11:43:39.829Z","analyserTimestampStart":"2019-10-17T11:43:39.828Z","type":"type-1","value":8.885716551118549},{"emitterTimestamp":"2019-10-17T11:43:39.647Z","identifier":"se:3000","analyserTimestampEnd":"2019-10-17T11:43:39.650Z","expiryTimestamp":"2019-10-17T11:43:40.150Z","combinerTimestamp":"2019-10-17T11:43:39.651Z","analyserTimestampStart":"2019-10-17T11:43:39.650Z","type":"type-3","value":8.467057331075317}],"fetchTimestamp":"2019-10-17T11:43:39.829Z","detectionTimestamp":"2019-10-17T11:43:39.829Z"}
{"identifier":"ce:36826","triggers":[{"emitterTimestamp":"2019-10-17T11:43:40.537Z","identifier":"se:45000","analyserTimestampEnd":"2019-10-17T11:43:40.545Z","expiryTimestamp":"2019-10-17T11:43:41.045Z","combinerTimestamp":"2019-10-17T11:43:40.546Z","analyserTimestampStart":"2019-10-17T11:43:40.545Z","type":"type-2","value":6.198914531577542},{"emitterTimestamp":"2019-10-17T11:43:40.798Z","identifier":"se:45000","analyserTimestampEnd":"2019-10-17T11:43:40.825Z","expiryTimestamp":"2019-10-17T11:43:41.325Z","combinerTimestamp":"2019-10-17T11:43:40.826Z","analyserTimestampStart":"2019-10-17T11:43:40.825Z","type":"type-1","value":7.822124104164276},{"emitterTimestamp":"2019-10-17T11:43:40.648Z","identifier":"se:45000","analyserTimestampEnd":"2019-10-17T11:43:40.668Z","expiryTimestamp":"2019-10-17T11:43:41.168Z","combinerTimestamp":"2019-10-17T11:43:40.670Z","analyserTimestampStart":"2019-10-17T11:43:40.668Z","type":"type-3","value":6.855334072441281}],"fetchTimestamp":"2019-10-17T11:43:40.826Z","detectionTimestamp":"2019-10-17T11:43:40.826Z"}
{"identifier":"ce:36807","triggers":[{"emitterTimestamp":"2019-10-17T11:43:40.204Z","identifier":"se:26000","analyserTimestampEnd":"2019-10-17T11:43:40.279Z","expiryTimestamp":"2019-10-17T11:43:40.779Z","combinerTimestamp":"2019-10-17T11:43:40.287Z","analyserTimestampStart":"2019-10-17T11:43:40.279Z","type":"type-2","value":9.283248194835824},{"emitterTimestamp":"2019-10-17T11:43:40.603Z","identifier":"se:26000","analyserTimestampEnd":"2019-10-17T11:43:40.613Z","expiryTimestamp":"2019-10-17T11:43:41.113Z","combinerTimestamp":"2019-10-17T11:43:40.614Z","analyserTimestampStart":"2019-10-17T11:43:40.613Z","type":"type-1","value":6.461170826486223},{"emitterTimestamp":"2019-10-17T11:43:40.219Z","identifier":"se:26000","analyserTimestampEnd":"2019-10-17T11:43:40.303Z","expiryTimestamp":"2019-10-17T11:43:40.803Z","combinerTimestamp":"2019-10-17T11:43:40.306Z","analyserTimestampStart":"2019-10-17T11:43:40.303Z","type":"type-3","value":5.130197820335739}],"fetchTimestamp":"2019-10-17T11:43:40.614Z","detectionTimestamp":"2019-10-17T11:43:40.614Z"}
{"identifier":"ce:36823","triggers":[{"emitterTimestamp":"2019-10-17T11:43:40.478Z","identifier":"se:42000","analyserTimestampEnd":"2019-10-17T11:43:40.508Z","expiryTimestamp":"2019-10-17T11:43:41.008Z","combinerTimestamp":"2019-10-17T11:43:40.511Z","analyserTimestampStart":"2019-10-17T11:43:40.508Z","type":"type-2","value":6.369581738190029},{"emitterTimestamp":"2019-10-17T11:43:40.780Z","identifier":"se:42000","analyserTimestampEnd":"2019-10-17T11:43:40.790Z","expiryTimestamp":"2019-10-17T11:43:41.290Z","combinerTimestamp":"2019-10-17T11:43:40.791Z","analyserTimestampStart":"2019-10-17T11:43:40.790Z","type":"type-1","value":5.509099659457851},{"emitterTimestamp":"2019-10-17T11:43:40.580Z","identifier":"se:42000","analyserTimestampEnd":"2019-10-17T11:43:40.585Z","expiryTimestamp":"2019-10-17T11:43:41.085Z","combinerTimestamp":"2019-10-17T11:43:40.586Z","analyserTimestampStart":"2019-10-17T11:43:40.585Z","type":"type-3","value":8.861202245952569}],"fetchTimestamp":"2019-10-17T11:43:40.791Z","detectionTimestamp":"2019-10-17T11:43:40.791Z"}
{"identifier":"ce:36797","triggers":[{"emitterTimestamp":"2019-10-17T11:43:39.963Z","identifier":"se:16000","analyserTimestampEnd":"2019-10-17T11:43:39.966Z","expiryTimestamp":"2019-10-17T11:43:40.466Z","combinerTimestamp":"2019-10-17T11:43:39.969Z","analyserTimestampStart":"2019-10-17T11:43:39.966Z","type":"type-2","value":5.877831787668527},{"emitterTimestamp":"2019-10-17T11:43:40.352Z","identifier":"se:16000","analyserTimestampEnd":"2019-10-17T11:43:40.357Z","expiryTimestamp":"2019-10-17T11:43:40.857Z","combinerTimestamp":"2019-10-17T11:43:40.358Z","analyserTimestampStart":"2019-10-17T11:43:40.357Z","type":"type-1","value":5.811617907620004},{"emitterTimestamp":"2019-10-17T11:43:39.980Z","identifier":"se:16000","analyserTimestampEnd":"2019-10-17T11:43:39.987Z","expiryTimestamp":"2019-10-17T11:43:40.487Z","combinerTimestamp":"2019-10-17T11:43:39.988Z","analyserTimestampStart":"2019-10-17T11:43:39.987Z","type":"type-3","value":8.069656907139143}],"fetchTimestamp":"2019-10-17T11:43:40.358Z","detectionTimestamp":"2019-10-17T11:43:40.358Z"}
{"identifier":"ce:36785","triggers":[{"emitterTimestamp":"2019-10-17T11:43:39.674Z","identifier":"se:4000","analyserTimestampEnd":"2019-10-17T11:43:39.685Z","expiryTimestamp":"2019-10-17T11:43:40.185Z","combinerTimestamp":"2019-10-17T11:43:39.687Z","analyserTimestampStart":"2019-10-17T11:43:39.685Z","type":"type-2","value":9.398337186136104},{"emitterTimestamp":"2019-10-17T11:43:39.858Z","identifier":"se:4000","analyserTimestampEnd":"2019-10-17T11:43:39.861Z","expiryTimestamp":"2019-10-17T11:43:40.361Z","combinerTimestamp":"2019-10-17T11:43:39.862Z","analyserTimestampStart":"2019-10-17T11:43:39.861Z","type":"type-1","value":8.980148129908578},{"emitterTimestamp":"2019-10-17T11:43:39.677Z","identifier":"se:4000","analyserTimestampEnd":"2019-10-17T11:43:39.681Z","expiryTimestamp":"2019-10-17T11:43:40.181Z","combinerTimestamp":"2019-10-17T11:43:39.681Z","analyserTimestampStart":"2019-10-17T11:43:39.681Z","type":"type-3","value":9.776682903746384}],"fetchTimestamp":"2019-10-17T11:43:39.862Z","detectionTimestamp":"2019-10-17T11:43:39.862Z"}
{"identifier":"ce:36793","triggers":[{"emitterTimestamp":"2019-10-17T11:43:39.904Z","identifier":"se:12000","analyserTimestampEnd":"2019-10-17T11:43:39.907Z","expiryTimestamp":"2019-10-17T11:43:40.407Z","combinerTimestamp":"2019-10-17T11:43:39.909Z","analyserTimestampStart":"2019-10-17T11:43:39.907Z","type":"type-2","value":8.239143671674844},{"emitterTimestamp":"2019-10-17T11:43:40.194Z","identifier":"se:12000","analyserTimestampEnd":"2019-10-17T11:43:40.236Z","expiryTimestamp":"2019-10-17T11:43:40.736Z","combinerTimestamp":"2019-10-17T11:43:40.249Z","analyserTimestampStart":"2019-10-17T11:43:40.236Z","type":"type-1","value":8.202114143142001},{"emitterTimestamp":"2019-10-17T11:43:39.890Z","identifier":"se:12000","analyserTimestampEnd":"2019-10-17T11:43:39.917Z","expiryTimestamp":"2019-10-17T11:43:40.417Z","combinerTimestamp":"2019-10-17T11:43:39.919Z","analyserTimestampStart":"2019-10-17T11:43:39.917Z","type":"type-3","value":7.378707499636583}],"fetchTimestamp":"2019-10-17T11:43:40.250Z","detectionTimestamp":"2019-10-17T11:43:40.250Z"}
{"identifier":"ce:36827","triggers":[{"emitterTimestamp":"2019-10-17T11:43:40.555Z","identifier":"se:46000","analyserTimestampEnd":"2019-10-17T11:43:40.563Z","expiryTimestamp":"2019-10-17T11:43:41.063Z","combinerTimestamp":"2019-10-17T11:43:40.565Z","analyserTimestampStart":"2019-10-17T11:43:40.563Z","type":"type-2","value":5.026324639864653},{"emitterTimestamp":"2019-10-17T11:43:40.803Z","identifier":"se:46000","analyserTimestampEnd":"2019-10-17T11:43:40.830Z","expiryTimestamp":"2019-10-17T11:43:41.330Z","combinerTimestamp":"2019-10-17T11:43:40.831Z","analyserTimestampStart":"2019-10-17T11:43:40.830Z","type":"type-1","value":7.181901264097978},{"emitterTimestamp":"2019-10-17T11:43:40.672Z","identifier":"se:46000","analyserTimestampEnd":"2019-10-17T11:43:40.680Z","expiryTimestamp":"2019-10-17T11:43:41.180Z","combinerTimestamp":"2019-10-17T11:43:40.683Z","analyserTimestampStart":"2019-10-17T11:43:40.680Z","type":"type-3","value":8.894117438499581}],"fetchTimestamp":"2019-10-17T11:43:40.831Z","detectionTimestamp":"2019-10-17T11:43:40.831Z"}
{"identifier":"ce:36820","triggers":[{"emitterTimestamp":"2019-10-17T11:43:40.441Z","identifier":"se:39000","analyserTimestampEnd":"2019-10-17T11:43:40.477Z","expiryTimestamp":"2019-10-17T11:43:40.977Z","combinerTimestamp":"2019-10-17T11:43:40.479Z","analyserTimestampStart":"2019-10-17T11:43:40.477Z","type":"type-2","value":5.564299061288074},{"emitterTimestamp":"2019-10-17T11:43:40.765Z","identifier":"se:39000","analyserTimestampEnd":"2019-10-17T11:43:40.770Z","expiryTimestamp":"2019-10-17T11:43:41.270Z","combinerTimestamp":"2019-10-17T11:43:40.771Z","analyserTimestampStart":"2019-10-17T11:43:40.770Z","type":"type-1","value":8.94256172896953},{"emitterTimestamp":"2019-10-17T11:43:40.532Z","identifier":"se:39000","analyserTimestampEnd":"2019-10-17T11:43:40.539Z","expiryTimestamp":"2019-10-17T11:43:41.039Z","combinerTimestamp":"2019-10-17T11:43:40.540Z","analyserTimestampStart":"2019-10-17T11:43:40.539Z","type":"type-3","value":8.470941248274716}],"fetchTimestamp":"2019-10-17T11:43:40.771Z","detectionTimestamp":"2019-10-17T11:43:40.771Z"}
{"identifier":"ce:36802","triggers":[{"emitterTimestamp":"2019-10-17T11:43:40.093Z","identifier":"se:21000","analyserTimestampEnd":"2019-10-17T11:43:40.097Z","expiryTimestamp":"2019-10-17T11:43:40.597Z","combinerTimestamp":"2019-10-17T11:43:40.097Z","analyserTimestampStart":"2019-10-17T11:43:40.097Z","type":"type-2","value":6.1052578943203395},{"emitterTimestamp":"2019-10-17T11:43:40.437Z","identifier":"se:21000","analyserTimestampEnd":"2019-10-17T11:43:40.445Z","expiryTimestamp":"2019-10-17T11:43:40.945Z","combinerTimestamp":"2019-10-17T11:43:40.445Z","analyserTimestampStart":"2019-10-17T11:43:40.445Z","type":"type-1","value":9.729824451005372},{"emitterTimestamp":"2019-10-17T11:43:40.149Z","identifier":"se:21000","analyserTimestampEnd":"2019-10-17T11:43:40.237Z","expiryTimestamp":"2019-10-17T11:43:40.737Z","combinerTimestamp":"2019-10-17T11:43:40.241Z","analyserTimestampStart":"2019-10-17T11:43:40.237Z","type":"type-3","value":8.639058903686905}],"fetchTimestamp":"2019-10-17T11:43:40.446Z","detectionTimestamp":"2019-10-17T11:43:40.446Z"}
{"identifier":"ce:36803","triggers":[{"emitterTimestamp":"2019-10-17T11:43:40.139Z","identifier":"se:22000","analyserTimestampEnd":"2019-10-17T11:43:40.143Z","expiryTimestamp":"2019-10-17T11:43:40.643Z","combinerTimestamp":"2019-10-17T11:43:40.145Z","analyserTimestampStart":"2019-10-17T11:43:40.143Z","type":"type-2","value":6.8199179958248095},{"emitterTimestamp":"2019-10-17T11:43:40.486Z","identifier":"se:22000","analyserTimestampEnd":"2019-10-17T11:43:40.490Z","expiryTimestamp":"2019-10-17T11:43:40.990Z","combinerTimestamp":"2019-10-17T11:43:40.491Z","analyserTimestampStart":"2019-10-17T11:43:40.490Z","type":"type-1","value":8.810272385154121},{"emitterTimestamp":"2019-10-17T11:43:40.177Z","identifier":"se:22000","analyserTimestampEnd":"2019-10-17T11:43:40.245Z","expiryTimestamp":"2019-10-17T11:43:40.745Z","combinerTimestamp":"2019-10-17T11:43:40.253Z","analyserTimestampStart":"2019-10-17T11:43:40.245Z","type":"type-3","value":9.770716751325148}],"fetchTimestamp":"2019-10-17T11:43:40.491Z","detectionTimestamp":"2019-10-17T11:43:40.491Z"}
{"identifier":"ce:36811","triggers":[{"emitterTimestamp":"2019-10-17T11:43:40.228Z","identifier":"se:30000","analyserTimestampEnd":"2019-10-17T11:43:40.311Z","expiryTimestamp":"2019-10-17T11:43:40.811Z","combinerTimestamp":"2019-10-17T11:43:40.312Z","analyserTimestampStart":"2019-10-17T11:43:40.311Z","type":"type-2","value":9.402387755025273},{"emitterTimestamp":"2019-10-17T11:43:40.682Z","identifier":"se:30000","analyserTimestampEnd":"2019-10-17T11:43:40.691Z","expiryTimestamp":"2019-10-17T11:43:41.191Z","combinerTimestamp":"2019-10-17T11:43:40.692Z","analyserTimestampStart":"2019-10-17T11:43:40.691Z","type":"type-1","value":5.978985109382155},{"emitterTimestamp":"2019-10-17T11:43:40.350Z","identifier":"se:30000","analyserTimestampEnd":"2019-10-17T11:43:40.361Z","expiryTimestamp":"2019-10-17T11:43:40.861Z","combinerTimestamp":"2019-10-17T11:43:40.364Z","analyserTimestampStart":"2019-10-17T11:43:40.361Z","type":"type-3","value":5.1839125753322834}],"fetchTimestamp":"2019-10-17T11:43:40.692Z","detectionTimestamp":"2019-10-17T11:43:40.692Z"}
{"identifier":"ce:36782","triggers":[{"emitterTimestamp":"2019-10-17T11:43:39.546Z","identifier":"se:1000","analyserTimestampEnd":"2019-10-17T11:43:39.554Z","expiryTimestamp":"2019-10-17T11:43:40.054Z","combinerTimestamp":"2019-10-17T11:43:39.556Z","analyserTimestampStart":"2019-10-17T11:43:39.554Z","type":"type-2","value":8.432086250329382},{"emitterTimestamp":"2019-10-17T11:43:39.691Z","identifier":"se:1000","analyserTimestampEnd":"2019-10-17T11:43:39.702Z","expiryTimestamp":"2019-10-17T11:43:40.202Z","combinerTimestamp":"2019-10-17T11:43:39.704Z","analyserTimestampStart":"2019-10-17T11:43:39.702Z","type":"type-1","value":8.715222634920025},{"emitterTimestamp":"2019-10-17T11:43:39.553Z","identifier":"se:1000","analyserTimestampEnd":"2019-10-17T11:43:39.565Z","expiryTimestamp":"2019-10-17T11:43:40.065Z","combinerTimestamp":"2019-10-17T11:43:39.567Z","analyserTimestampStart":"2019-10-17T11:43:39.565Z","type":"type-3","value":5.9787447482034874}],"fetchTimestamp":"2019-10-17T11:43:39.704Z","detectionTimestamp":"2019-10-17T11:43:39.704Z"}
{"identifier":"ce:36781","triggers":[{"emitterTimestamp":"2019-10-17T11:43:39.455Z","identifier":"se:0","analyserTimestampEnd":"2019-10-17T11:43:39.491Z","expiryTimestamp":"2019-10-17T11:43:39.991Z","combinerTimestamp":"2019-10-17T11:43:39.492Z","analyserTimestampStart":"2019-10-17T11:43:39.491Z","type":"type-2","value":6.188541888038068},{"emitterTimestamp":"2019-10-17T11:43:39.493Z","identifier":"se:0","analyserTimestampEnd":"2019-10-17T11:43:39.572Z","expiryTimestamp":"2019-10-17T11:43:40.072Z","combinerTimestamp":"2019-10-17T11:43:39.573Z","analyserTimestampStart":"2019-10-17T11:43:39.572Z","type":"type-1","value":6.65212391780671},{"emitterTimestamp":"2019-10-17T11:43:39.449Z","identifier":"se:0","analyserTimestampEnd":"2019-10-17T11:43:39.489Z","expiryTimestamp":"2019-10-17T11:43:39.989Z","combinerTimestamp":"2019-10-17T11:43:39.490Z","analyserTimestampStart":"2019-10-17T11:43:39.489Z","type":"type-3","value":5.716663164298338}],"fetchTimestamp":"2019-10-17T11:43:39.573Z","detectionTimestamp":"2019-10-17T11:43:39.573Z"}
{"identifier":"ce:36813","triggers":[{"emitterTimestamp":"2019-10-17T11:43:40.292Z","identifier":"se:32000","analyserTimestampEnd":"2019-10-17T11:43:40.327Z","expiryTimestamp":"2019-10-17T11:43:40.827Z","combinerTimestamp":"2019-10-17T11:43:40.328Z","analyserTimestampStart":"2019-10-17T11:43:40.327Z","type":"type-2","value":6.2515192555828465},{"emitterTimestamp":"2019-10-17T11:43:40.695Z","identifier":"se:32000","analyserTimestampEnd":"2019-10-17T11:43:40.706Z","expiryTimestamp":"2019-10-17T11:43:41.206Z","combinerTimestamp":"2019-10-17T11:43:40.706Z","analyserTimestampStart":"2019-10-17T11:43:40.706Z","type":"type-1","value":5.283224658847072},{"emitterTimestamp":"2019-10-17T11:43:40.399Z","identifier":"se:32000","analyserTimestampEnd":"2019-10-17T11:43:40.403Z","expiryTimestamp":"2019-10-17T11:43:40.903Z","combinerTimestamp":"2019-10-17T11:43:40.404Z","analyserTimestampStart":"2019-10-17T11:43:40.403Z","type":"type-3","value":5.851492691837641}],"fetchTimestamp":"2019-10-17T11:43:40.706Z","detectionTimestamp":"2019-10-17T11:43:40.706Z"}
{"identifier":"ce:36787","triggers":[{"emitterTimestamp":"2019-10-17T11:43:39.759Z","identifier":"se:6000","analyserTimestampEnd":"2019-10-17T11:43:39.766Z","expiryTimestamp":"2019-10-17T11:43:40.266Z","combinerTimestamp":"2019-10-17T11:43:39.767Z","analyserTimestampStart":"2019-10-17T11:43:39.766Z","type":"type-2","value":6.389032808013614},{"emitterTimestamp":"2019-10-17T11:43:39.948Z","identifier":"se:6000","analyserTimestampEnd":"2019-10-17T11:43:39.951Z","expiryTimestamp":"2019-10-17T11:43:40.451Z","combinerTimestamp":"2019-10-17T11:43:39.951Z","analyserTimestampStart":"2019-10-17T11:43:39.951Z","type":"type-1","value":9.380513954942746},{"emitterTimestamp":"2019-10-17T11:43:39.748Z","identifier":"se:6000","analyserTimestampEnd":"2019-10-17T11:43:39.753Z","expiryTimestamp":"2019-10-17T11:43:40.253Z","combinerTimestamp":"2019-10-17T11:43:39.754Z","analyserTimestampStart":"2019-10-17T11:43:39.753Z","type":"type-3","value":8.276928007597922}],"fetchTimestamp":"2019-10-17T11:43:39.952Z","detectionTimestamp":"2019-10-17T11:43:39.952Z"}
{"identifier":"ce:36812","triggers":[{"emitterTimestamp":"2019-10-17T11:43:40.284Z","identifier":"se:31000","analyserTimestampEnd":"2019-10-17T11:43:40.317Z","expiryTimestamp":"2019-10-17T11:43:40.817Z","combinerTimestamp":"2019-10-17T11:43:40.320Z","analyserTimestampStart":"2019-10-17T11:43:40.317Z","type":"type-2","value":7.970023656976039},{"emitterTimestamp":"2019-10-17T11:43:40.689Z","identifier":"se:31000","analyserTimestampEnd":"2019-10-17T11:43:40.700Z","expiryTimestamp":"2019-10-17T11:43:41.199Z","combinerTimestamp":"2019-10-17T11:43:40.700Z","analyserTimestampStart":"2019-10-17T11:43:40.699Z","type":"type-1","value":5.474914574085939},{"emitterTimestamp":"2019-10-17T11:43:40.370Z","identifier":"se:31000","analyserTimestampEnd":"2019-10-17T11:43:40.377Z","expiryTimestamp":"2019-10-17T11:43:40.877Z","combinerTimestamp":"2019-10-17T11:43:40.379Z","analyserTimestampStart":"2019-10-17T11:43:40.377Z","type":"type-3","value":8.765512705018415}],"fetchTimestamp":"2019-10-17T11:43:40.700Z","detectionTimestamp":"2019-10-17T11:43:40.700Z"}
{"identifier":"ce:36815","triggers":[{"emitterTimestamp":"2019-10-17T11:43:40.346Z","identifier":"se:34000","analyserTimestampEnd":"2019-10-17T11:43:40.365Z","expiryTimestamp":"2019-10-17T11:43:40.865Z","combinerTimestamp":"2019-10-17T11:43:40.372Z","analyserTimestampStart":"2019-10-17T11:43:40.365Z","type":"type-2","value":8.805946870209025},{"emitterTimestamp":"2019-10-17T11:43:40.713Z","identifier":"se:34000","analyserTimestampEnd":"2019-10-17T11:43:40.730Z","expiryTimestamp":"2019-10-17T11:43:41.230Z","combinerTimestamp":"2019-10-17T11:43:40.733Z","analyserTimestampStart":"2019-10-17T11:43:40.730Z","type":"type-1","value":7.211537638593495},{"emitterTimestamp":"2019-10-17T11:43:40.464Z","identifier":"se:34000","analyserTimestampEnd":"2019-10-17T11:43:40.475Z","expiryTimestamp":"2019-10-17T11:43:40.975Z","combinerTimestamp":"2019-10-17T11:43:40.476Z","analyserTimestampStart":"2019-10-17T11:43:40.475Z","type":"type-3","value":8.794271005322038}],"fetchTimestamp":"2019-10-17T11:43:40.733Z","detectionTimestamp":"2019-10-17T11:43:40.733Z"}
{"identifier":"ce:36796","triggers":[{"emitterTimestamp":"2019-10-17T11:43:39.950Z","identifier":"se:15000","analyserTimestampEnd":"2019-10-17T11:43:39.952Z","expiryTimestamp":"2019-10-17T11:43:40.452Z","combinerTimestamp":"2019-10-17T11:43:39.953Z","analyserTimestampStart":"2019-10-17T11:43:39.952Z","type":"type-2","value":8.84637892858049},{"emitterTimestamp":"2019-10-17T11:43:40.322Z","identifier":"se:15000","analyserTimestampEnd":"2019-10-17T11:43:40.330Z","expiryTimestamp":"2019-10-17T11:43:40.830Z","combinerTimestamp":"2019-10-17T11:43:40.331Z","analyserTimestampStart":"2019-10-17T11:43:40.330Z","type":"type-1","value":9.899978863229567},{"emitterTimestamp":"2019-10-17T11:43:39.965Z","identifier":"se:15000","analyserTimestampEnd":"2019-10-17T11:43:39.979Z","expiryTimestamp":"2019-10-17T11:43:40.479Z","combinerTimestamp":"2019-10-17T11:43:39.984Z","analyserTimestampStart":"2019-10-17T11:43:39.979Z","type":"type-3","value":6.8839527734158885}],"fetchTimestamp":"2019-10-17T11:43:40.332Z","detectionTimestamp":"2019-10-17T11:43:40.332Z"}
{"identifier":"ce:36786","triggers":[{"emitterTimestamp":"2019-10-17T11:43:39.736Z","identifier":"se:5000","analyserTimestampEnd":"2019-10-17T11:43:39.741Z","expiryTimestamp":"2019-10-17T11:43:40.241Z","combinerTimestamp":"2019-10-17T11:43:39.742Z","analyserTimestampStart":"2019-10-17T11:43:39.741Z","type":"type-2","value":6.921492330381204},{"emitterTimestamp":"2019-10-17T11:43:39.908Z","identifier":"se:5000","analyserTimestampEnd":"2019-10-17T11:43:39.913Z","expiryTimestamp":"2019-10-17T11:43:40.413Z","combinerTimestamp":"2019-10-17T11:43:39.915Z","analyserTimestampStart":"2019-10-17T11:43:39.913Z","type":"type-1","value":5.279484332891453},{"emitterTimestamp":"2019-10-17T11:43:39.737Z","identifier":"se:5000","analyserTimestampEnd":"2019-10-17T11:43:39.740Z","expiryTimestamp":"2019-10-17T11:43:40.240Z","combinerTimestamp":"2019-10-17T11:43:39.741Z","analyserTimestampStart":"2019-10-17T11:43:39.740Z","type":"type-3","value":5.201302790710599}],"fetchTimestamp":"2019-10-17T11:43:39.915Z","detectionTimestamp":"2019-10-17T11:43:39.915Z"}
{"identifier":"ce:36817","triggers":[{"emitterTimestamp":"2019-10-17T11:43:40.379Z","identifier":"se:36000","analyserTimestampEnd":"2019-10-17T11:43:40.389Z","expiryTimestamp":"2019-10-17T11:43:40.889Z","combinerTimestamp":"2019-10-17T11:43:40.397Z","analyserTimestampStart":"2019-10-17T11:43:40.389Z","type":"type-2","value":7.543936402044047},{"emitterTimestamp":"2019-10-17T11:43:40.749Z","identifier":"se:36000","analyserTimestampEnd":"2019-10-17T11:43:40.752Z","expiryTimestamp":"2019-10-17T11:43:41.252Z","combinerTimestamp":"2019-10-17T11:43:40.752Z","analyserTimestampStart":"2019-10-17T11:43:40.752Z","type":"type-1","value":6.914843350640208},{"emitterTimestamp":"2019-10-17T11:43:40.490Z","identifier":"se:36000","analyserTimestampEnd":"2019-10-17T11:43:40.504Z","expiryTimestamp":"2019-10-17T11:43:41.004Z","combinerTimestamp":"2019-10-17T11:43:40.505Z","analyserTimestampStart":"2019-10-17T11:43:40.504Z","type":"type-3","value":8.657521899496013}],"fetchTimestamp":"2019-10-17T11:43:40.752Z","detectionTimestamp":"2019-10-17T11:43:40.752Z"}
{"identifier":"ce:36805","triggers":[{"emitterTimestamp":"2019-10-17T11:43:40.169Z","identifier":"se:24000","analyserTimestampEnd":"2019-10-17T11:43:40.267Z","expiryTimestamp":"2019-10-17T11:43:40.767Z","combinerTimestamp":"2019-10-17T11:43:40.276Z","analyserTimestampStart":"2019-10-17T11:43:40.267Z","type":"type-2","value":7.005011345925633},{"emitterTimestamp":"2019-10-17T11:43:40.542Z","identifier":"se:24000","analyserTimestampEnd":"2019-10-17T11:43:40.545Z","expiryTimestamp":"2019-10-17T11:43:41.045Z","combinerTimestamp":"2019-10-17T11:43:40.546Z","analyserTimestampStart":"2019-10-17T11:43:40.545Z","type":"type-1","value":7.734297412888619},{"emitterTimestamp":"2019-10-17T11:43:40.203Z","identifier":"se:24000","analyserTimestampEnd":"2019-10-17T11:43:40.261Z","expiryTimestamp":"2019-10-17T11:43:40.761Z","combinerTimestamp":"2019-10-17T11:43:40.264Z","analyserTimestampStart":"2019-10-17T11:43:40.261Z","type":"type-3","value":9.167163436258702}],"fetchTimestamp":"2019-10-17T11:43:40.547Z","detectionTimestamp":"2019-10-17T11:43:40.547Z"}
{"identifier":"ce:36804","triggers":[{"emitterTimestamp":"2019-10-17T11:43:40.157Z","identifier":"se:23000","analyserTimestampEnd":"2019-10-17T11:43:40.242Z","expiryTimestamp":"2019-10-17T11:43:40.742Z","combinerTimestamp":"2019-10-17T11:43:40.249Z","analyserTimestampStart":"2019-10-17T11:43:40.242Z","type":"type-2","value":8.292924991019067},{"emitterTimestamp":"2019-10-17T11:43:40.511Z","identifier":"se:23000","analyserTimestampEnd":"2019-10-17T11:43:40.513Z","expiryTimestamp":"2019-10-17T11:43:41.013Z","combinerTimestamp":"2019-10-17T11:43:40.514Z","analyserTimestampStart":"2019-10-17T11:43:40.513Z","type":"type-1","value":9.768761453818804},{"emitterTimestamp":"2019-10-17T11:43:40.197Z","identifier":"se:23000","analyserTimestampEnd":"2019-10-17T11:43:40.256Z","expiryTimestamp":"2019-10-17T11:43:40.756Z","combinerTimestamp":"2019-10-17T11:43:40.264Z","analyserTimestampStart":"2019-10-17T11:43:40.256Z","type":"type-3","value":6.201953191107609}],"fetchTimestamp":"2019-10-17T11:43:40.514Z","detectionTimestamp":"2019-10-17T11:43:40.514Z"}
{"identifier":"ce:36791","triggers":[{"emitterTimestamp":"2019-10-17T11:43:39.864Z","identifier":"se:10000","analyserTimestampEnd":"2019-10-17T11:43:39.869Z","expiryTimestamp":"2019-10-17T11:43:40.369Z","combinerTimestamp":"2019-10-17T11:43:39.869Z","analyserTimestampStart":"2019-10-17T11:43:39.869Z","type":"type-2","value":6.678848766763906},{"emitterTimestamp":"2019-10-17T11:43:40.105Z","identifier":"se:10000","analyserTimestampEnd":"2019-10-17T11:43:40.125Z","expiryTimestamp":"2019-10-17T11:43:40.625Z","combinerTimestamp":"2019-10-17T11:43:40.127Z","analyserTimestampStart":"2019-10-17T11:43:40.125Z","type":"type-1","value":8.692586004177809},{"emitterTimestamp":"2019-10-17T11:43:39.833Z","identifier":"se:10000","analyserTimestampEnd":"2019-10-17T11:43:39.836Z","expiryTimestamp":"2019-10-17T11:43:40.336Z","combinerTimestamp":"2019-10-17T11:43:39.837Z","analyserTimestampStart":"2019-10-17T11:43:39.836Z","type":"type-3","value":6.469816634269984}],"fetchTimestamp":"2019-10-17T11:43:40.127Z","detectionTimestamp":"2019-10-17T11:43:40.127Z"}
{"identifier":"ce:36790","triggers":[{"emitterTimestamp":"2019-10-17T11:43:39.833Z","identifier":"se:9000","analyserTimestampEnd":"2019-10-17T11:43:39.837Z","expiryTimestamp":"2019-10-17T11:43:40.337Z","combinerTimestamp":"2019-10-17T11:43:39.838Z","analyserTimestampStart":"2019-10-17T11:43:39.837Z","type":"type-2","value":6.260781457208413},{"emitterTimestamp":"2019-10-17T11:43:40.087Z","identifier":"se:9000","analyserTimestampEnd":"2019-10-17T11:43:40.090Z","expiryTimestamp":"2019-10-17T11:43:40.590Z","combinerTimestamp":"2019-10-17T11:43:40.091Z","analyserTimestampStart":"2019-10-17T11:43:40.090Z","type":"type-1","value":7.9999039595267405},{"emitterTimestamp":"2019-10-17T11:43:39.806Z","identifier":"se:9000","analyserTimestampEnd":"2019-10-17T11:43:39.812Z","expiryTimestamp":"2019-10-17T11:43:40.311Z","combinerTimestamp":"2019-10-17T11:43:39.813Z","analyserTimestampStart":"2019-10-17T11:43:39.811Z","type":"type-3","value":9.28111927539216}],"fetchTimestamp":"2019-10-17T11:43:40.091Z","detectionTimestamp":"2019-10-17T11:43:40.091Z"}
{"identifier":"ce:36818","triggers":[{"emitterTimestamp":"2019-10-17T11:43:40.403Z","identifier":"se:37000","analyserTimestampEnd":"2019-10-17T11:43:40.423Z","expiryTimestamp":"2019-10-17T11:43:40.923Z","combinerTimestamp":"2019-10-17T11:43:40.423Z","analyserTimestampStart":"2019-10-17T11:43:40.423Z","type":"type-2","value":6.595226577800169},{"emitterTimestamp":"2019-10-17T11:43:40.757Z","identifier":"se:37000","analyserTimestampEnd":"2019-10-17T11:43:40.759Z","expiryTimestamp":"2019-10-17T11:43:41.259Z","combinerTimestamp":"2019-10-17T11:43:40.760Z","analyserTimestampStart":"2019-10-17T11:43:40.759Z","type":"type-1","value":9.8153559450847},{"emitterTimestamp":"2019-10-17T11:43:40.505Z","identifier":"se:37000","analyserTimestampEnd":"2019-10-17T11:43:40.520Z","expiryTimestamp":"2019-10-17T11:43:41.020Z","combinerTimestamp":"2019-10-17T11:43:40.521Z","analyserTimestampStart":"2019-10-17T11:43:40.520Z","type":"type-3","value":5.321610466396283}],"fetchTimestamp":"2019-10-17T11:43:40.760Z","detectionTimestamp":"2019-10-17T11:43:40.760Z"}
{"identifier":"ce:36798","triggers":[{"emitterTimestamp":"2019-10-17T11:43:39.990Z","identifier":"se:17000","analyserTimestampEnd":"2019-10-17T11:43:39.995Z","expiryTimestamp":"2019-10-17T11:43:40.495Z","combinerTimestamp":"2019-10-17T11:43:39.996Z","analyserTimestampStart":"2019-10-17T11:43:39.995Z","type":"type-2","value":6.049473443785189},{"emitterTimestamp":"2019-10-17T11:43:40.366Z","identifier":"se:17000","analyserTimestampEnd":"2019-10-17T11:43:40.373Z","expiryTimestamp":"2019-10-17T11:43:40.873Z","combinerTimestamp":"2019-10-17T11:43:40.375Z","analyserTimestampStart":"2019-10-17T11:43:40.373Z","type":"type-1","value":5.009404972945502},{"emitterTimestamp":"2019-10-17T11:43:40.002Z","identifier":"se:17000","analyserTimestampEnd":"2019-10-17T11:43:40.004Z","expiryTimestamp":"2019-10-17T11:43:40.504Z","combinerTimestamp":"2019-10-17T11:43:40.005Z","analyserTimestampStart":"2019-10-17T11:43:40.004Z","type":"type-3","value":8.51815933845173}],"fetchTimestamp":"2019-10-17T11:43:40.375Z","detectionTimestamp":"2019-10-17T11:43:40.375Z"}
{"identifier":"ce:36819","triggers":[{"emitterTimestamp":"2019-10-17T11:43:40.420Z","identifier":"se:38000","analyserTimestampEnd":"2019-10-17T11:43:40.460Z","expiryTimestamp":"2019-10-17T11:43:40.960Z","combinerTimestamp":"2019-10-17T11:43:40.463Z","analyserTimestampStart":"2019-10-17T11:43:40.460Z","type":"type-2","value":9.950123059071904},{"emitterTimestamp":"2019-10-17T11:43:40.761Z","identifier":"se:38000","analyserTimestampEnd":"2019-10-17T11:43:40.765Z","expiryTimestamp":"2019-10-17T11:43:41.265Z","combinerTimestamp":"2019-10-17T11:43:40.766Z","analyserTimestampStart":"2019-10-17T11:43:40.765Z","type":"type-1","value":5.800270419182904},{"emitterTimestamp":"2019-10-17T11:43:40.518Z","identifier":"se:38000","analyserTimestampEnd":"2019-10-17T11:43:40.531Z","expiryTimestamp":"2019-10-17T11:43:41.031Z","combinerTimestamp":"2019-10-17T11:43:40.532Z","analyserTimestampStart":"2019-10-17T11:43:40.531Z","type":"type-3","value":8.648744797033157}],"fetchTimestamp":"2019-10-17T11:43:40.766Z","detectionTimestamp":"2019-10-17T11:43:40.766Z"}
{"identifier":"ce:36809","triggers":[{"emitterTimestamp":"2019-10-17T11:43:40.221Z","identifier":"se:28000","analyserTimestampEnd":"2019-10-17T11:43:40.293Z","expiryTimestamp":"2019-10-17T11:43:40.793Z","combinerTimestamp":"2019-10-17T11:43:40.299Z","analyserTimestampStart":"2019-10-17T11:43:40.293Z","type":"type-2","value":5.45002576997032},{"emitterTimestamp":"2019-10-17T11:43:40.660Z","identifier":"se:28000","analyserTimestampEnd":"2019-10-17T11:43:40.670Z","expiryTimestamp":"2019-10-17T11:43:41.170Z","combinerTimestamp":"2019-10-17T11:43:40.671Z","analyserTimestampStart":"2019-10-17T11:43:40.670Z","type":"type-1","value":9.789262673012624},{"emitterTimestamp":"2019-10-17T11:43:40.268Z","identifier":"se:28000","analyserTimestampEnd":"2019-10-17T11:43:40.327Z","expiryTimestamp":"2019-10-17T11:43:40.827Z","combinerTimestamp":"2019-10-17T11:43:40.330Z","analyserTimestampStart":"2019-10-17T11:43:40.327Z","type":"type-3","value":7.94971169046546}],"fetchTimestamp":"2019-10-17T11:43:40.671Z","detectionTimestamp":"2019-10-17T11:43:40.671Z"}
{"identifier":"ce:36808","triggers":[{"emitterTimestamp":"2019-10-17T11:43:40.214Z","identifier":"se:27000","analyserTimestampEnd":"2019-10-17T11:43:40.284Z","expiryTimestamp":"2019-10-17T11:43:40.784Z","combinerTimestamp":"2019-10-17T11:43:40.293Z","analyserTimestampStart":"2019-10-17T11:43:40.284Z","type":"type-2","value":5.495020435411417},{"emitterTimestamp":"2019-10-17T11:43:40.632Z","identifier":"se:27000","analyserTimestampEnd":"2019-10-17T11:43:40.636Z","expiryTimestamp":"2019-10-17T11:43:41.136Z","combinerTimestamp":"2019-10-17T11:43:40.636Z","analyserTimestampStart":"2019-10-17T11:43:40.636Z","type":"type-1","value":5.702395265904444},{"emitterTimestamp":"2019-10-17T11:43:40.251Z","identifier":"se:27000","analyserTimestampEnd":"2019-10-17T11:43:40.319Z","expiryTimestamp":"2019-10-17T11:43:40.818Z","combinerTimestamp":"2019-10-17T11:43:40.322Z","analyserTimestampStart":"2019-10-17T11:43:40.318Z","type":"type-3","value":8.706149500969431}],"fetchTimestamp":"2019-10-17T11:43:40.637Z","detectionTimestamp":"2019-10-17T11:43:40.637Z"}
{"identifier":"ce:36829","triggers":[{"emitterTimestamp":"2019-10-17T11:43:40.597Z","identifier":"se:48000","analyserTimestampEnd":"2019-10-17T11:43:40.603Z","expiryTimestamp":"2019-10-17T11:43:41.103Z","combinerTimestamp":"2019-10-17T11:43:40.604Z","analyserTimestampStart":"2019-10-17T11:43:40.603Z","type":"type-2","value":6.397635276849588},{"emitterTimestamp":"2019-10-17T11:43:40.813Z","identifier":"se:48000","analyserTimestampEnd":"2019-10-17T11:43:40.838Z","expiryTimestamp":"2019-10-17T11:43:41.338Z","combinerTimestamp":"2019-10-17T11:43:40.839Z","analyserTimestampStart":"2019-10-17T11:43:40.838Z","type":"type-1","value":5.999639831510642},{"emitterTimestamp":"2019-10-17T11:43:40.713Z","identifier":"se:48000","analyserTimestampEnd":"2019-10-17T11:43:40.718Z","expiryTimestamp":"2019-10-17T11:43:41.218Z","combinerTimestamp":"2019-10-17T11:43:40.732Z","analyserTimestampStart":"2019-10-17T11:43:40.718Z","type":"type-3","value":6.7011251327203984}],"fetchTimestamp":"2019-10-17T11:43:40.839Z","detectionTimestamp":"2019-10-17T11:43:40.839Z"}
{"identifier":"ce:36828","triggers":[{"emitterTimestamp":"2019-10-17T11:43:40.579Z","identifier":"se:47000","analyserTimestampEnd":"2019-10-17T11:43:40.582Z","expiryTimestamp":"2019-10-17T11:43:41.082Z","combinerTimestamp":"2019-10-17T11:43:40.584Z","analyserTimestampStart":"2019-10-17T11:43:40.582Z","type":"type-2","value":5.0365299786799875},{"emitterTimestamp":"2019-10-17T11:43:40.808Z","identifier":"se:47000","analyserTimestampEnd":"2019-10-17T11:43:40.835Z","expiryTimestamp":"2019-10-17T11:43:41.335Z","combinerTimestamp":"2019-10-17T11:43:40.835Z","analyserTimestampStart":"2019-10-17T11:43:40.835Z","type":"type-1","value":8.078460144045428},{"emitterTimestamp":"2019-10-17T11:43:40.684Z","identifier":"se:47000","analyserTimestampEnd":"2019-10-17T11:43:40.691Z","expiryTimestamp":"2019-10-17T11:43:41.191Z","combinerTimestamp":"2019-10-17T11:43:40.692Z","analyserTimestampStart":"2019-10-17T11:43:40.691Z","type":"type-3","value":6.272661084375808}],"fetchTimestamp":"2019-10-17T11:43:40.835Z","detectionTimestamp":"2019-10-17T11:43:40.835Z"}
{"identifier":"ce:36789","triggers":[{"emitterTimestamp":"2019-10-17T11:43:39.797Z","identifier":"se:8000","analyserTimestampEnd":"2019-10-17T11:43:39.803Z","expiryTimestamp":"2019-10-17T11:43:40.303Z","combinerTimestamp":"2019-10-17T11:43:39.804Z","analyserTimestampStart":"2019-10-17T11:43:39.803Z","type":"type-2","value":7.32305290640465},{"emitterTimestamp":"2019-10-17T11:43:40.040Z","identifier":"se:8000","analyserTimestampEnd":"2019-10-17T11:43:40.049Z","expiryTimestamp":"2019-10-17T11:43:40.549Z","combinerTimestamp":"2019-10-17T11:43:40.050Z","analyserTimestampStart":"2019-10-17T11:43:40.049Z","type":"type-1","value":9.986207879642649},{"emitterTimestamp":"2019-10-17T11:43:39.787Z","identifier":"se:8000","analyserTimestampEnd":"2019-10-17T11:43:39.789Z","expiryTimestamp":"2019-10-17T11:43:40.289Z","combinerTimestamp":"2019-10-17T11:43:39.791Z","analyserTimestampStart":"2019-10-17T11:43:39.789Z","type":"type-3","value":9.439618116973914}],"fetchTimestamp":"2019-10-17T11:43:40.051Z","detectionTimestamp":"2019-10-17T11:43:40.051Z"}
{"identifier":"ce:36799","triggers":[{"emitterTimestamp":"2019-10-17T11:43:40.018Z","identifier":"se:18000","analyserTimestampEnd":"2019-10-17T11:43:40.021Z","expiryTimestamp":"2019-10-17T11:43:40.521Z","combinerTimestamp":"2019-10-17T11:43:40.024Z","analyserTimestampStart":"2019-10-17T11:43:40.021Z","type":"type-2","value":5.453967645953725},{"emitterTimestamp":"2019-10-17T11:43:40.383Z","identifier":"se:18000","analyserTimestampEnd":"2019-10-17T11:43:40.386Z","expiryTimestamp":"2019-10-17T11:43:40.886Z","combinerTimestamp":"2019-10-17T11:43:40.390Z","analyserTimestampStart":"2019-10-17T11:43:40.386Z","type":"type-1","value":5.164252252058955},{"emitterTimestamp":"2019-10-17T11:43:40.062Z","identifier":"se:18000","analyserTimestampEnd":"2019-10-17T11:43:40.067Z","expiryTimestamp":"2019-10-17T11:43:40.567Z","combinerTimestamp":"2019-10-17T11:43:40.068Z","analyserTimestampStart":"2019-10-17T11:43:40.067Z","type":"type-3","value":5.829440510227533}],"fetchTimestamp":"2019-10-17T11:43:40.390Z","detectionTimestamp":"2019-10-17T11:43:40.390Z"}
{"identifier":"ce:36788","triggers":[{"emitterTimestamp":"2019-10-17T11:43:39.781Z","identifier":"se:7000","analyserTimestampEnd":"2019-10-17T11:43:39.784Z","expiryTimestamp":"2019-10-17T11:43:40.284Z","combinerTimestamp":"2019-10-17T11:43:39.785Z","analyserTimestampStart":"2019-10-17T11:43:39.784Z","type":"type-2","value":5.027125258958122},{"emitterTimestamp":"2019-10-17T11:43:40.004Z","identifier":"se:7000","analyserTimestampEnd":"2019-10-17T11:43:40.016Z","expiryTimestamp":"2019-10-17T11:43:40.516Z","combinerTimestamp":"2019-10-17T11:43:40.018Z","analyserTimestampStart":"2019-10-17T11:43:40.016Z","type":"type-1","value":8.352868685757889},{"emitterTimestamp":"2019-10-17T11:43:39.761Z","identifier":"se:7000","analyserTimestampEnd":"2019-10-17T11:43:39.766Z","expiryTimestamp":"2019-10-17T11:43:40.266Z","combinerTimestamp":"2019-10-17T11:43:39.767Z","analyserTimestampStart":"2019-10-17T11:43:39.766Z","type":"type-3","value":5.027359747371083}],"fetchTimestamp":"2019-10-17T11:43:40.018Z","detectionTimestamp":"2019-10-17T11:43:40.018Z"}